<?xml version="1.0" encoding="utf-8" standalone="no"?>
<!DOCTYPE svg PUBLIC "-//W3C//DTD SVG 1.1//EN"
  "http://www.w3.org/Graphics/SVG/1.1/DTD/svg11.dtd">
<!-- Created with matplotlib (https://matplotlib.org/) -->
<svg height="360pt" version="1.1" viewBox="0 0 1080 360" width="1080pt" xmlns="http://www.w3.org/2000/svg" xmlns:xlink="http://www.w3.org/1999/xlink">
 <defs>
  <style type="text/css">
*{stroke-linecap:butt;stroke-linejoin:round;}
  </style>
 </defs>
 <g id="figure_1">
  <g id="patch_1">
   <path d="M 0 360 
L 1080 360 
L 1080 0 
L 0 0 
z
" style="fill:#ffffff;"/>
  </g>
  <g id="axes_1">
   <g id="patch_2">
    <path d="M 135 315 
L 381.176471 315 
L 381.176471 43.2 
L 135 43.2 
z
" style="fill:#ffffff;"/>
   </g>
   <g id="PathCollection_1">
    <defs>
     <path d="M 0 3 
C 0.795609 3 1.55874 2.683901 2.12132 2.12132 
C 2.683901 1.55874 3 0.795609 3 0 
C 3 -0.795609 2.683901 -1.55874 2.12132 -2.12132 
C 1.55874 -2.683901 0.795609 -3 0 -3 
C -0.795609 -3 -1.55874 -2.683901 -2.12132 -2.12132 
C -2.683901 -1.55874 -3 -0.795609 -3 0 
C -3 0.795609 -2.683901 1.55874 -2.12132 2.12132 
C -1.55874 2.683901 -0.795609 3 0 3 
z
" id="m26ed2a0896" style="stroke:#e06a27;stroke-opacity:0.75;"/>
    </defs>
    <g clip-path="url(#p0933754f7c)">
     <use style="fill:#ffc100;fill-opacity:0.75;stroke:#e06a27;stroke-opacity:0.75;" x="366.219486" xlink:href="#m26ed2a0896" y="82.886135"/>
     <use style="fill:#ffc100;fill-opacity:0.75;stroke:#e06a27;stroke-opacity:0.75;" x="178.786857" xlink:href="#m26ed2a0896" y="248.995412"/>
     <use style="fill:#ffc100;fill-opacity:0.75;stroke:#e06a27;stroke-opacity:0.75;" x="279.063502" xlink:href="#m26ed2a0896" y="256.745335"/>
     <use style="fill:#ffc100;fill-opacity:0.75;stroke:#e06a27;stroke-opacity:0.75;" x="313.818061" xlink:href="#m26ed2a0896" y="199.616541"/>
     <use style="fill:#ffc100;fill-opacity:0.75;stroke:#e06a27;stroke-opacity:0.75;" x="290.020848" xlink:href="#m26ed2a0896" y="232.897262"/>
     <use style="fill:#ffc100;fill-opacity:0.75;stroke:#e06a27;stroke-opacity:0.75;" x="174.263328" xlink:href="#m26ed2a0896" y="240.615882"/>
     <use style="fill:#ffc100;fill-opacity:0.75;stroke:#e06a27;stroke-opacity:0.75;" x="336.834536" xlink:href="#m26ed2a0896" y="172.854242"/>
     <use style="fill:#ffc100;fill-opacity:0.75;stroke:#e06a27;stroke-opacity:0.75;" x="180.043626" xlink:href="#m26ed2a0896" y="239.331858"/>
     <use style="fill:#ffc100;fill-opacity:0.75;stroke:#e06a27;stroke-opacity:0.75;" x="355.711485" xlink:href="#m26ed2a0896" y="100.22494"/>
     <use style="fill:#ffc100;fill-opacity:0.75;stroke:#e06a27;stroke-opacity:0.75;" x="316.019115" xlink:href="#m26ed2a0896" y="213.894707"/>
     <use style="fill:#ffc100;fill-opacity:0.75;stroke:#e06a27;stroke-opacity:0.75;" x="238.180202" xlink:href="#m26ed2a0896" y="275.313865"/>
     <use style="fill:#ffc100;fill-opacity:0.75;stroke:#e06a27;stroke-opacity:0.75;" x="157.42774" xlink:href="#m26ed2a0896" y="234.057666"/>
     <use style="fill:#ffc100;fill-opacity:0.75;stroke:#e06a27;stroke-opacity:0.75;" x="267.299247" xlink:href="#m26ed2a0896" y="240.454675"/>
     <use style="fill:#ffc100;fill-opacity:0.75;stroke:#e06a27;stroke-opacity:0.75;" x="243.004925" xlink:href="#m26ed2a0896" y="252.89466"/>
     <use style="fill:#ffc100;fill-opacity:0.75;stroke:#e06a27;stroke-opacity:0.75;" x="260.28329" xlink:href="#m26ed2a0896" y="265.22781"/>
    </g>
   </g>
   <g id="PathCollection_2">
    <defs>
     <path d="M -3.674235 0 
L 3.674235 0 
M 0 3.674235 
L 0 -3.674235 
" id="mf9ed34eacf" style="stroke:#e06a27;stroke-opacity:0.75;stroke-width:1.5;"/>
    </defs>
    <g clip-path="url(#p0933754f7c)">
     <use style="fill:#e06a27;fill-opacity:0.75;stroke:#e06a27;stroke-opacity:0.75;stroke-width:1.5;" x="187.855576" xlink:href="#mf9ed34eacf" y="262.447402"/>
     <use style="fill:#e06a27;fill-opacity:0.75;stroke:#e06a27;stroke-opacity:0.75;stroke-width:1.5;" x="287.977818" xlink:href="#mf9ed34eacf" y="242.745652"/>
     <use style="fill:#e06a27;fill-opacity:0.75;stroke:#e06a27;stroke-opacity:0.75;stroke-width:1.5;" x="182.582241" xlink:href="#mf9ed34eacf" y="247.182365"/>
     <use style="fill:#e06a27;fill-opacity:0.75;stroke:#e06a27;stroke-opacity:0.75;stroke-width:1.5;" x="260.451319" xlink:href="#mf9ed34eacf" y="254.306236"/>
     <use style="fill:#e06a27;fill-opacity:0.75;stroke:#e06a27;stroke-opacity:0.75;stroke-width:1.5;" x="331.378949" xlink:href="#mf9ed34eacf" y="153.886448"/>
     <use style="fill:#e06a27;fill-opacity:0.75;stroke:#e06a27;stroke-opacity:0.75;stroke-width:1.5;" x="259.551815" xlink:href="#mf9ed34eacf" y="250.081877"/>
     <use style="fill:#e06a27;fill-opacity:0.75;stroke:#e06a27;stroke-opacity:0.75;stroke-width:1.5;" x="153.409091" xlink:href="#mf9ed34eacf" y="249.581262"/>
     <use style="fill:#e06a27;fill-opacity:0.75;stroke:#e06a27;stroke-opacity:0.75;stroke-width:1.5;" x="269.801432" xlink:href="#mf9ed34eacf" y="250.712972"/>
     <use style="fill:#e06a27;fill-opacity:0.75;stroke:#e06a27;stroke-opacity:0.75;stroke-width:1.5;" x="240.755254" xlink:href="#mf9ed34eacf" y="261.656096"/>
     <use style="fill:#e06a27;fill-opacity:0.75;stroke:#e06a27;stroke-opacity:0.75;stroke-width:1.5;" x="246.913339" xlink:href="#mf9ed34eacf" y="256.639025"/>
     <use style="fill:#e06a27;fill-opacity:0.75;stroke:#e06a27;stroke-opacity:0.75;stroke-width:1.5;" x="208.103835" xlink:href="#mf9ed34eacf" y="257.444231"/>
     <use style="fill:#e06a27;fill-opacity:0.75;stroke:#e06a27;stroke-opacity:0.75;stroke-width:1.5;" x="186.594178" xlink:href="#mf9ed34eacf" y="251.546806"/>
     <use style="fill:#e06a27;fill-opacity:0.75;stroke:#e06a27;stroke-opacity:0.75;stroke-width:1.5;" x="275.473054" xlink:href="#mf9ed34eacf" y="256.130312"/>
     <use style="fill:#e06a27;fill-opacity:0.75;stroke:#e06a27;stroke-opacity:0.75;stroke-width:1.5;" x="244.121171" xlink:href="#mf9ed34eacf" y="251.565898"/>
     <use style="fill:#e06a27;fill-opacity:0.75;stroke:#e06a27;stroke-opacity:0.75;stroke-width:1.5;" x="204.986249" xlink:href="#mf9ed34eacf" y="230.297033"/>
    </g>
   </g>
   <g id="matplotlib.axis_1">
    <g id="xtick_1">
     <g id="line2d_1">
      <defs>
       <path d="M 0 0 
L 0 3.5 
" id="m6a649e0618" style="stroke:#000000;stroke-width:0.8;"/>
      </defs>
      <g>
       <use style="stroke:#000000;stroke-width:0.8;" x="151.83598" xlink:href="#m6a649e0618" y="315"/>
      </g>
     </g>
     <g id="text_1">
      <!-- −1 -->
      <defs>
       <path d="M 10.59375 35.5 
L 73.1875 35.5 
L 73.1875 27.203125 
L 10.59375 27.203125 
z
" id="DejaVuSans-8722"/>
       <path d="M 12.40625 8.296875 
L 28.515625 8.296875 
L 28.515625 63.921875 
L 10.984375 60.40625 
L 10.984375 69.390625 
L 28.421875 72.90625 
L 38.28125 72.90625 
L 38.28125 8.296875 
L 54.390625 8.296875 
L 54.390625 0 
L 12.40625 0 
z
" id="DejaVuSans-49"/>
      </defs>
      <g transform="translate(144.464887 329.598437)scale(0.1 -0.1)">
       <use xlink:href="#DejaVuSans-8722"/>
       <use x="83.789062" xlink:href="#DejaVuSans-49"/>
      </g>
     </g>
    </g>
    <g id="xtick_2">
     <g id="line2d_2">
      <g>
       <use style="stroke:#000000;stroke-width:0.8;" x="187.932237" xlink:href="#m6a649e0618" y="315"/>
      </g>
     </g>
     <g id="text_2">
      <!-- 0 -->
      <defs>
       <path d="M 31.78125 66.40625 
Q 24.171875 66.40625 20.328125 58.90625 
Q 16.5 51.421875 16.5 36.375 
Q 16.5 21.390625 20.328125 13.890625 
Q 24.171875 6.390625 31.78125 6.390625 
Q 39.453125 6.390625 43.28125 13.890625 
Q 47.125 21.390625 47.125 36.375 
Q 47.125 51.421875 43.28125 58.90625 
Q 39.453125 66.40625 31.78125 66.40625 
z
M 31.78125 74.21875 
Q 44.046875 74.21875 50.515625 64.515625 
Q 56.984375 54.828125 56.984375 36.375 
Q 56.984375 17.96875 50.515625 8.265625 
Q 44.046875 -1.421875 31.78125 -1.421875 
Q 19.53125 -1.421875 13.0625 8.265625 
Q 6.59375 17.96875 6.59375 36.375 
Q 6.59375 54.828125 13.0625 64.515625 
Q 19.53125 74.21875 31.78125 74.21875 
z
" id="DejaVuSans-48"/>
      </defs>
      <g transform="translate(184.750987 329.598437)scale(0.1 -0.1)">
       <use xlink:href="#DejaVuSans-48"/>
      </g>
     </g>
    </g>
    <g id="xtick_3">
     <g id="line2d_3">
      <g>
       <use style="stroke:#000000;stroke-width:0.8;" x="224.028494" xlink:href="#m6a649e0618" y="315"/>
      </g>
     </g>
     <g id="text_3">
      <!-- 1 -->
      <g transform="translate(220.847244 329.598437)scale(0.1 -0.1)">
       <use xlink:href="#DejaVuSans-49"/>
      </g>
     </g>
    </g>
    <g id="xtick_4">
     <g id="line2d_4">
      <g>
       <use style="stroke:#000000;stroke-width:0.8;" x="260.12475" xlink:href="#m6a649e0618" y="315"/>
      </g>
     </g>
     <g id="text_4">
      <!-- 2 -->
      <defs>
       <path d="M 19.1875 8.296875 
L 53.609375 8.296875 
L 53.609375 0 
L 7.328125 0 
L 7.328125 8.296875 
Q 12.9375 14.109375 22.625 23.890625 
Q 32.328125 33.6875 34.8125 36.53125 
Q 39.546875 41.84375 41.421875 45.53125 
Q 43.3125 49.21875 43.3125 52.78125 
Q 43.3125 58.59375 39.234375 62.25 
Q 35.15625 65.921875 28.609375 65.921875 
Q 23.96875 65.921875 18.8125 64.3125 
Q 13.671875 62.703125 7.8125 59.421875 
L 7.8125 69.390625 
Q 13.765625 71.78125 18.9375 73 
Q 24.125 74.21875 28.421875 74.21875 
Q 39.75 74.21875 46.484375 68.546875 
Q 53.21875 62.890625 53.21875 53.421875 
Q 53.21875 48.921875 51.53125 44.890625 
Q 49.859375 40.875 45.40625 35.40625 
Q 44.1875 33.984375 37.640625 27.21875 
Q 31.109375 20.453125 19.1875 8.296875 
z
" id="DejaVuSans-50"/>
      </defs>
      <g transform="translate(256.9435 329.598437)scale(0.1 -0.1)">
       <use xlink:href="#DejaVuSans-50"/>
      </g>
     </g>
    </g>
    <g id="xtick_5">
     <g id="line2d_5">
      <g>
       <use style="stroke:#000000;stroke-width:0.8;" x="296.221007" xlink:href="#m6a649e0618" y="315"/>
      </g>
     </g>
     <g id="text_5">
      <!-- 3 -->
      <defs>
       <path d="M 40.578125 39.3125 
Q 47.65625 37.796875 51.625 33 
Q 55.609375 28.21875 55.609375 21.1875 
Q 55.609375 10.40625 48.1875 4.484375 
Q 40.765625 -1.421875 27.09375 -1.421875 
Q 22.515625 -1.421875 17.65625 -0.515625 
Q 12.796875 0.390625 7.625 2.203125 
L 7.625 11.71875 
Q 11.71875 9.328125 16.59375 8.109375 
Q 21.484375 6.890625 26.8125 6.890625 
Q 36.078125 6.890625 40.9375 10.546875 
Q 45.796875 14.203125 45.796875 21.1875 
Q 45.796875 27.640625 41.28125 31.265625 
Q 36.765625 34.90625 28.71875 34.90625 
L 20.21875 34.90625 
L 20.21875 43.015625 
L 29.109375 43.015625 
Q 36.375 43.015625 40.234375 45.921875 
Q 44.09375 48.828125 44.09375 54.296875 
Q 44.09375 59.90625 40.109375 62.90625 
Q 36.140625 65.921875 28.71875 65.921875 
Q 24.65625 65.921875 20.015625 65.03125 
Q 15.375 64.15625 9.8125 62.3125 
L 9.8125 71.09375 
Q 15.4375 72.65625 20.34375 73.4375 
Q 25.25 74.21875 29.59375 74.21875 
Q 40.828125 74.21875 47.359375 69.109375 
Q 53.90625 64.015625 53.90625 55.328125 
Q 53.90625 49.265625 50.4375 45.09375 
Q 46.96875 40.921875 40.578125 39.3125 
z
" id="DejaVuSans-51"/>
      </defs>
      <g transform="translate(293.039757 329.598437)scale(0.1 -0.1)">
       <use xlink:href="#DejaVuSans-51"/>
      </g>
     </g>
    </g>
    <g id="xtick_6">
     <g id="line2d_6">
      <g>
       <use style="stroke:#000000;stroke-width:0.8;" x="332.317264" xlink:href="#m6a649e0618" y="315"/>
      </g>
     </g>
     <g id="text_6">
      <!-- 4 -->
      <defs>
       <path d="M 37.796875 64.3125 
L 12.890625 25.390625 
L 37.796875 25.390625 
z
M 35.203125 72.90625 
L 47.609375 72.90625 
L 47.609375 25.390625 
L 58.015625 25.390625 
L 58.015625 17.1875 
L 47.609375 17.1875 
L 47.609375 0 
L 37.796875 0 
L 37.796875 17.1875 
L 4.890625 17.1875 
L 4.890625 26.703125 
z
" id="DejaVuSans-52"/>
      </defs>
      <g transform="translate(329.136014 329.598437)scale(0.1 -0.1)">
       <use xlink:href="#DejaVuSans-52"/>
      </g>
     </g>
    </g>
    <g id="xtick_7">
     <g id="line2d_7">
      <g>
       <use style="stroke:#000000;stroke-width:0.8;" x="368.41352" xlink:href="#m6a649e0618" y="315"/>
      </g>
     </g>
     <g id="text_7">
      <!-- 5 -->
      <defs>
       <path d="M 10.796875 72.90625 
L 49.515625 72.90625 
L 49.515625 64.59375 
L 19.828125 64.59375 
L 19.828125 46.734375 
Q 21.96875 47.46875 24.109375 47.828125 
Q 26.265625 48.1875 28.421875 48.1875 
Q 40.625 48.1875 47.75 41.5 
Q 54.890625 34.8125 54.890625 23.390625 
Q 54.890625 11.625 47.5625 5.09375 
Q 40.234375 -1.421875 26.90625 -1.421875 
Q 22.3125 -1.421875 17.546875 -0.640625 
Q 12.796875 0.140625 7.71875 1.703125 
L 7.71875 11.625 
Q 12.109375 9.234375 16.796875 8.0625 
Q 21.484375 6.890625 26.703125 6.890625 
Q 35.15625 6.890625 40.078125 11.328125 
Q 45.015625 15.765625 45.015625 23.390625 
Q 45.015625 31 40.078125 35.4375 
Q 35.15625 39.890625 26.703125 39.890625 
Q 22.75 39.890625 18.8125 39.015625 
Q 14.890625 38.140625 10.796875 36.28125 
z
" id="DejaVuSans-53"/>
      </defs>
      <g transform="translate(365.23227 329.598437)scale(0.1 -0.1)">
       <use xlink:href="#DejaVuSans-53"/>
      </g>
     </g>
    </g>
   </g>
   <g id="matplotlib.axis_2">
    <g id="ytick_1">
     <g id="line2d_8">
      <defs>
       <path d="M 0 0 
L -3.5 0 
" id="m4ce4425fb8" style="stroke:#000000;stroke-width:0.8;"/>
      </defs>
      <g>
       <use style="stroke:#000000;stroke-width:0.8;" x="135" xlink:href="#m4ce4425fb8" y="278.574536"/>
      </g>
     </g>
     <g id="text_8">
      <!-- −10 -->
      <g transform="translate(106.895313 282.373755)scale(0.1 -0.1)">
       <use xlink:href="#DejaVuSans-8722"/>
       <use x="83.789062" xlink:href="#DejaVuSans-49"/>
       <use x="147.412109" xlink:href="#DejaVuSans-48"/>
      </g>
     </g>
    </g>
    <g id="ytick_2">
     <g id="line2d_9">
      <g>
       <use style="stroke:#000000;stroke-width:0.8;" x="135" xlink:href="#m4ce4425fb8" y="238.888401"/>
      </g>
     </g>
     <g id="text_9">
      <!-- 0 -->
      <g transform="translate(121.6375 242.68762)scale(0.1 -0.1)">
       <use xlink:href="#DejaVuSans-48"/>
      </g>
     </g>
    </g>
    <g id="ytick_3">
     <g id="line2d_10">
      <g>
       <use style="stroke:#000000;stroke-width:0.8;" x="135" xlink:href="#m4ce4425fb8" y="199.202266"/>
      </g>
     </g>
     <g id="text_10">
      <!-- 10 -->
      <g transform="translate(115.275 203.001485)scale(0.1 -0.1)">
       <use xlink:href="#DejaVuSans-49"/>
       <use x="63.623047" xlink:href="#DejaVuSans-48"/>
      </g>
     </g>
    </g>
    <g id="ytick_4">
     <g id="line2d_11">
      <g>
       <use style="stroke:#000000;stroke-width:0.8;" x="135" xlink:href="#m4ce4425fb8" y="159.516131"/>
      </g>
     </g>
     <g id="text_11">
      <!-- 20 -->
      <g transform="translate(115.275 163.31535)scale(0.1 -0.1)">
       <use xlink:href="#DejaVuSans-50"/>
       <use x="63.623047" xlink:href="#DejaVuSans-48"/>
      </g>
     </g>
    </g>
    <g id="ytick_5">
     <g id="line2d_12">
      <g>
       <use style="stroke:#000000;stroke-width:0.8;" x="135" xlink:href="#m4ce4425fb8" y="119.829996"/>
      </g>
     </g>
     <g id="text_12">
      <!-- 30 -->
      <g transform="translate(115.275 123.629215)scale(0.1 -0.1)">
       <use xlink:href="#DejaVuSans-51"/>
       <use x="63.623047" xlink:href="#DejaVuSans-48"/>
      </g>
     </g>
    </g>
    <g id="ytick_6">
     <g id="line2d_13">
      <g>
       <use style="stroke:#000000;stroke-width:0.8;" x="135" xlink:href="#m4ce4425fb8" y="80.143861"/>
      </g>
     </g>
     <g id="text_13">
      <!-- 40 -->
      <g transform="translate(115.275 83.943079)scale(0.1 -0.1)">
       <use xlink:href="#DejaVuSans-52"/>
       <use x="63.623047" xlink:href="#DejaVuSans-48"/>
      </g>
     </g>
    </g>
   </g>
   <g id="line2d_14">
    <path clip-path="url(#p0933754f7c)" d="M 146.18984 286.699614 
L 153.409091 282.42533 
L 160.628342 278.151046 
L 167.847594 273.876762 
L 175.066845 269.602478 
L 182.286096 265.328194 
L 189.505348 261.05391 
L 196.724599 256.779626 
L 203.94385 252.505342 
L 211.163102 248.231058 
L 218.382353 243.956774 
L 225.601604 239.68249 
L 232.820856 235.408206 
L 240.040107 231.133922 
L 247.259358 226.859638 
L 254.47861 222.585354 
L 261.697861 218.31107 
L 268.917112 214.036786 
L 276.136364 209.762502 
L 283.355615 205.488218 
L 290.574866 201.213934 
L 297.794118 196.93965 
L 305.013369 192.665366 
L 312.23262 188.391082 
L 319.451872 184.116798 
L 326.671123 179.842514 
L 333.890374 175.56823 
L 341.109626 171.293946 
L 348.328877 167.019662 
L 355.548128 162.745378 
L 362.76738 158.471093 
L 369.986631 154.196809 
" style="fill:none;stroke:#ffc100;stroke-linecap:square;stroke-width:1.5;"/>
   </g>
   <g id="patch_3">
    <path d="M 135 315 
L 135 43.2 
" style="fill:none;stroke:#000000;stroke-linecap:square;stroke-linejoin:miter;stroke-width:0.8;"/>
   </g>
   <g id="patch_4">
    <path d="M 381.176471 315 
L 381.176471 43.2 
" style="fill:none;stroke:#000000;stroke-linecap:square;stroke-linejoin:miter;stroke-width:0.8;"/>
   </g>
   <g id="patch_5">
    <path d="M 135 315 
L 381.176471 315 
" style="fill:none;stroke:#000000;stroke-linecap:square;stroke-linejoin:miter;stroke-width:0.8;"/>
   </g>
   <g id="patch_6">
    <path d="M 135 43.2 
L 381.176471 43.2 
" style="fill:none;stroke:#000000;stroke-linecap:square;stroke-linejoin:miter;stroke-width:0.8;"/>
   </g>
   <g id="text_14">
    <!-- Weak regressor -->
    <defs>
     <path d="M 3.328125 72.90625 
L 13.28125 72.90625 
L 28.609375 11.28125 
L 43.890625 72.90625 
L 54.984375 72.90625 
L 70.3125 11.28125 
L 85.59375 72.90625 
L 95.609375 72.90625 
L 77.296875 0 
L 64.890625 0 
L 49.515625 63.28125 
L 33.984375 0 
L 21.578125 0 
z
" id="DejaVuSans-87"/>
     <path d="M 56.203125 29.59375 
L 56.203125 25.203125 
L 14.890625 25.203125 
Q 15.484375 15.921875 20.484375 11.0625 
Q 25.484375 6.203125 34.421875 6.203125 
Q 39.59375 6.203125 44.453125 7.46875 
Q 49.3125 8.734375 54.109375 11.28125 
L 54.109375 2.78125 
Q 49.265625 0.734375 44.1875 -0.34375 
Q 39.109375 -1.421875 33.890625 -1.421875 
Q 20.796875 -1.421875 13.15625 6.1875 
Q 5.515625 13.8125 5.515625 26.8125 
Q 5.515625 40.234375 12.765625 48.109375 
Q 20.015625 56 32.328125 56 
Q 43.359375 56 49.78125 48.890625 
Q 56.203125 41.796875 56.203125 29.59375 
z
M 47.21875 32.234375 
Q 47.125 39.59375 43.09375 43.984375 
Q 39.0625 48.390625 32.421875 48.390625 
Q 24.90625 48.390625 20.390625 44.140625 
Q 15.875 39.890625 15.1875 32.171875 
z
" id="DejaVuSans-101"/>
     <path d="M 34.28125 27.484375 
Q 23.390625 27.484375 19.1875 25 
Q 14.984375 22.515625 14.984375 16.5 
Q 14.984375 11.71875 18.140625 8.90625 
Q 21.296875 6.109375 26.703125 6.109375 
Q 34.1875 6.109375 38.703125 11.40625 
Q 43.21875 16.703125 43.21875 25.484375 
L 43.21875 27.484375 
z
M 52.203125 31.203125 
L 52.203125 0 
L 43.21875 0 
L 43.21875 8.296875 
Q 40.140625 3.328125 35.546875 0.953125 
Q 30.953125 -1.421875 24.3125 -1.421875 
Q 15.921875 -1.421875 10.953125 3.296875 
Q 6 8.015625 6 15.921875 
Q 6 25.140625 12.171875 29.828125 
Q 18.359375 34.515625 30.609375 34.515625 
L 43.21875 34.515625 
L 43.21875 35.40625 
Q 43.21875 41.609375 39.140625 45 
Q 35.0625 48.390625 27.6875 48.390625 
Q 23 48.390625 18.546875 47.265625 
Q 14.109375 46.140625 10.015625 43.890625 
L 10.015625 52.203125 
Q 14.9375 54.109375 19.578125 55.046875 
Q 24.21875 56 28.609375 56 
Q 40.484375 56 46.34375 49.84375 
Q 52.203125 43.703125 52.203125 31.203125 
z
" id="DejaVuSans-97"/>
     <path d="M 9.078125 75.984375 
L 18.109375 75.984375 
L 18.109375 31.109375 
L 44.921875 54.6875 
L 56.390625 54.6875 
L 27.390625 29.109375 
L 57.625 0 
L 45.90625 0 
L 18.109375 26.703125 
L 18.109375 0 
L 9.078125 0 
z
" id="DejaVuSans-107"/>
     <path id="DejaVuSans-32"/>
     <path d="M 41.109375 46.296875 
Q 39.59375 47.171875 37.8125 47.578125 
Q 36.03125 48 33.890625 48 
Q 26.265625 48 22.1875 43.046875 
Q 18.109375 38.09375 18.109375 28.8125 
L 18.109375 0 
L 9.078125 0 
L 9.078125 54.6875 
L 18.109375 54.6875 
L 18.109375 46.1875 
Q 20.953125 51.171875 25.484375 53.578125 
Q 30.03125 56 36.53125 56 
Q 37.453125 56 38.578125 55.875 
Q 39.703125 55.765625 41.0625 55.515625 
z
" id="DejaVuSans-114"/>
     <path d="M 45.40625 27.984375 
Q 45.40625 37.75 41.375 43.109375 
Q 37.359375 48.484375 30.078125 48.484375 
Q 22.859375 48.484375 18.828125 43.109375 
Q 14.796875 37.75 14.796875 27.984375 
Q 14.796875 18.265625 18.828125 12.890625 
Q 22.859375 7.515625 30.078125 7.515625 
Q 37.359375 7.515625 41.375 12.890625 
Q 45.40625 18.265625 45.40625 27.984375 
z
M 54.390625 6.78125 
Q 54.390625 -7.171875 48.1875 -13.984375 
Q 42 -20.796875 29.203125 -20.796875 
Q 24.46875 -20.796875 20.265625 -20.09375 
Q 16.0625 -19.390625 12.109375 -17.921875 
L 12.109375 -9.1875 
Q 16.0625 -11.328125 19.921875 -12.34375 
Q 23.78125 -13.375 27.78125 -13.375 
Q 36.625 -13.375 41.015625 -8.765625 
Q 45.40625 -4.15625 45.40625 5.171875 
L 45.40625 9.625 
Q 42.625 4.78125 38.28125 2.390625 
Q 33.9375 0 27.875 0 
Q 17.828125 0 11.671875 7.65625 
Q 5.515625 15.328125 5.515625 27.984375 
Q 5.515625 40.671875 11.671875 48.328125 
Q 17.828125 56 27.875 56 
Q 33.9375 56 38.28125 53.609375 
Q 42.625 51.21875 45.40625 46.390625 
L 45.40625 54.6875 
L 54.390625 54.6875 
z
" id="DejaVuSans-103"/>
     <path d="M 44.28125 53.078125 
L 44.28125 44.578125 
Q 40.484375 46.53125 36.375 47.5 
Q 32.28125 48.484375 27.875 48.484375 
Q 21.1875 48.484375 17.84375 46.4375 
Q 14.5 44.390625 14.5 40.28125 
Q 14.5 37.15625 16.890625 35.375 
Q 19.28125 33.59375 26.515625 31.984375 
L 29.59375 31.296875 
Q 39.15625 29.25 43.1875 25.515625 
Q 47.21875 21.78125 47.21875 15.09375 
Q 47.21875 7.46875 41.1875 3.015625 
Q 35.15625 -1.421875 24.609375 -1.421875 
Q 20.21875 -1.421875 15.453125 -0.5625 
Q 10.6875 0.296875 5.421875 2 
L 5.421875 11.28125 
Q 10.40625 8.6875 15.234375 7.390625 
Q 20.0625 6.109375 24.8125 6.109375 
Q 31.15625 6.109375 34.5625 8.28125 
Q 37.984375 10.453125 37.984375 14.40625 
Q 37.984375 18.0625 35.515625 20.015625 
Q 33.0625 21.96875 24.703125 23.78125 
L 21.578125 24.515625 
Q 13.234375 26.265625 9.515625 29.90625 
Q 5.8125 33.546875 5.8125 39.890625 
Q 5.8125 47.609375 11.28125 51.796875 
Q 16.75 56 26.8125 56 
Q 31.78125 56 36.171875 55.265625 
Q 40.578125 54.546875 44.28125 53.078125 
z
" id="DejaVuSans-115"/>
     <path d="M 30.609375 48.390625 
Q 23.390625 48.390625 19.1875 42.75 
Q 14.984375 37.109375 14.984375 27.296875 
Q 14.984375 17.484375 19.15625 11.84375 
Q 23.34375 6.203125 30.609375 6.203125 
Q 37.796875 6.203125 41.984375 11.859375 
Q 46.1875 17.53125 46.1875 27.296875 
Q 46.1875 37.015625 41.984375 42.703125 
Q 37.796875 48.390625 30.609375 48.390625 
z
M 30.609375 56 
Q 42.328125 56 49.015625 48.375 
Q 55.71875 40.765625 55.71875 27.296875 
Q 55.71875 13.875 49.015625 6.21875 
Q 42.328125 -1.421875 30.609375 -1.421875 
Q 18.84375 -1.421875 12.171875 6.21875 
Q 5.515625 13.875 5.515625 27.296875 
Q 5.515625 40.765625 12.171875 48.375 
Q 18.84375 56 30.609375 56 
z
" id="DejaVuSans-111"/>
    </defs>
    <g transform="translate(191.020235 37.2)scale(0.1728 -0.1728)">
     <use xlink:href="#DejaVuSans-87"/>
     <use x="93.001953" xlink:href="#DejaVuSans-101"/>
     <use x="154.525391" xlink:href="#DejaVuSans-97"/>
     <use x="215.804688" xlink:href="#DejaVuSans-107"/>
     <use x="273.714844" xlink:href="#DejaVuSans-32"/>
     <use x="305.501953" xlink:href="#DejaVuSans-114"/>
     <use x="344.365234" xlink:href="#DejaVuSans-101"/>
     <use x="405.888672" xlink:href="#DejaVuSans-103"/>
     <use x="469.365234" xlink:href="#DejaVuSans-114"/>
     <use x="508.228516" xlink:href="#DejaVuSans-101"/>
     <use x="569.751953" xlink:href="#DejaVuSans-115"/>
     <use x="621.851562" xlink:href="#DejaVuSans-115"/>
     <use x="673.951172" xlink:href="#DejaVuSans-111"/>
     <use x="735.132812" xlink:href="#DejaVuSans-114"/>
    </g>
   </g>
   <g id="legend_1">
    <g id="patch_7">
     <path d="M 143.4 88.0275 
L 207.7575 88.0275 
Q 210.1575 88.0275 210.1575 85.6275 
L 210.1575 51.6 
Q 210.1575 49.2 207.7575 49.2 
L 143.4 49.2 
Q 141 49.2 141 51.6 
L 141 85.6275 
Q 141 88.0275 143.4 88.0275 
z
" style="fill:#ffffff;opacity:0.8;stroke:#cccccc;stroke-linejoin:miter;"/>
    </g>
    <g id="PathCollection_3">
     <g>
      <use style="fill:#ffc100;fill-opacity:0.75;stroke:#e06a27;stroke-opacity:0.75;" x="157.8" xlink:href="#m26ed2a0896" y="59.968125"/>
     </g>
    </g>
    <g id="text_15">
     <!-- train   -->
     <defs>
      <path d="M 18.3125 70.21875 
L 18.3125 54.6875 
L 36.8125 54.6875 
L 36.8125 47.703125 
L 18.3125 47.703125 
L 18.3125 18.015625 
Q 18.3125 11.328125 20.140625 9.421875 
Q 21.96875 7.515625 27.59375 7.515625 
L 36.8125 7.515625 
L 36.8125 0 
L 27.59375 0 
Q 17.1875 0 13.234375 3.875 
Q 9.28125 7.765625 9.28125 18.015625 
L 9.28125 47.703125 
L 2.6875 47.703125 
L 2.6875 54.6875 
L 9.28125 54.6875 
L 9.28125 70.21875 
z
" id="DejaVuSans-116"/>
      <path d="M 9.421875 54.6875 
L 18.40625 54.6875 
L 18.40625 0 
L 9.421875 0 
z
M 9.421875 75.984375 
L 18.40625 75.984375 
L 18.40625 64.59375 
L 9.421875 64.59375 
z
" id="DejaVuSans-105"/>
      <path d="M 54.890625 33.015625 
L 54.890625 0 
L 45.90625 0 
L 45.90625 32.71875 
Q 45.90625 40.484375 42.875 44.328125 
Q 39.84375 48.1875 33.796875 48.1875 
Q 26.515625 48.1875 22.3125 43.546875 
Q 18.109375 38.921875 18.109375 30.90625 
L 18.109375 0 
L 9.078125 0 
L 9.078125 54.6875 
L 18.109375 54.6875 
L 18.109375 46.1875 
Q 21.34375 51.125 25.703125 53.5625 
Q 30.078125 56 35.796875 56 
Q 45.21875 56 50.046875 50.171875 
Q 54.890625 44.34375 54.890625 33.015625 
z
" id="DejaVuSans-110"/>
     </defs>
     <g transform="translate(169.8 63.118125)scale(0.12 -0.12)">
      <use xlink:href="#DejaVuSans-116"/>
      <use x="39.208984" xlink:href="#DejaVuSans-114"/>
      <use x="80.322266" xlink:href="#DejaVuSans-97"/>
      <use x="141.601562" xlink:href="#DejaVuSans-105"/>
      <use x="169.384766" xlink:href="#DejaVuSans-110"/>
      <use x="232.763672" xlink:href="#DejaVuSans-32"/>
      <use x="264.550781" xlink:href="#DejaVuSans-32"/>
     </g>
    </g>
    <g id="PathCollection_4">
     <g>
      <use style="fill:#e06a27;fill-opacity:0.75;stroke:#e06a27;stroke-opacity:0.75;stroke-width:1.5;" x="157.8" xlink:href="#mf9ed34eacf" y="77.581875"/>
     </g>
    </g>
    <g id="text_16">
     <!-- test -->
     <g transform="translate(169.8 80.731875)scale(0.12 -0.12)">
      <use xlink:href="#DejaVuSans-116"/>
      <use x="39.208984" xlink:href="#DejaVuSans-101"/>
      <use x="100.732422" xlink:href="#DejaVuSans-115"/>
      <use x="152.832031" xlink:href="#DejaVuSans-116"/>
     </g>
    </g>
   </g>
  </g>
  <g id="axes_2">
   <g id="patch_8">
    <path d="M 430.411765 315 
L 676.588235 315 
L 676.588235 43.2 
L 430.411765 43.2 
z
" style="fill:#ffffff;"/>
   </g>
   <g id="PathCollection_5">
    <g clip-path="url(#pc2cb386e24)">
     <use style="fill:#ffc100;fill-opacity:0.75;stroke:#e06a27;stroke-opacity:0.75;" x="661.63125" xlink:href="#m26ed2a0896" y="82.886135"/>
     <use style="fill:#ffc100;fill-opacity:0.75;stroke:#e06a27;stroke-opacity:0.75;" x="474.198621" xlink:href="#m26ed2a0896" y="248.995412"/>
     <use style="fill:#ffc100;fill-opacity:0.75;stroke:#e06a27;stroke-opacity:0.75;" x="574.475267" xlink:href="#m26ed2a0896" y="256.745335"/>
     <use style="fill:#ffc100;fill-opacity:0.75;stroke:#e06a27;stroke-opacity:0.75;" x="609.229826" xlink:href="#m26ed2a0896" y="199.616541"/>
     <use style="fill:#ffc100;fill-opacity:0.75;stroke:#e06a27;stroke-opacity:0.75;" x="585.432612" xlink:href="#m26ed2a0896" y="232.897262"/>
     <use style="fill:#ffc100;fill-opacity:0.75;stroke:#e06a27;stroke-opacity:0.75;" x="469.675093" xlink:href="#m26ed2a0896" y="240.615882"/>
     <use style="fill:#ffc100;fill-opacity:0.75;stroke:#e06a27;stroke-opacity:0.75;" x="632.246301" xlink:href="#m26ed2a0896" y="172.854242"/>
     <use style="fill:#ffc100;fill-opacity:0.75;stroke:#e06a27;stroke-opacity:0.75;" x="475.45539" xlink:href="#m26ed2a0896" y="239.331858"/>
     <use style="fill:#ffc100;fill-opacity:0.75;stroke:#e06a27;stroke-opacity:0.75;" x="651.123249" xlink:href="#m26ed2a0896" y="100.22494"/>
     <use style="fill:#ffc100;fill-opacity:0.75;stroke:#e06a27;stroke-opacity:0.75;" x="611.430879" xlink:href="#m26ed2a0896" y="213.894707"/>
     <use style="fill:#ffc100;fill-opacity:0.75;stroke:#e06a27;stroke-opacity:0.75;" x="533.591967" xlink:href="#m26ed2a0896" y="275.313865"/>
     <use style="fill:#ffc100;fill-opacity:0.75;stroke:#e06a27;stroke-opacity:0.75;" x="452.839504" xlink:href="#m26ed2a0896" y="234.057666"/>
     <use style="fill:#ffc100;fill-opacity:0.75;stroke:#e06a27;stroke-opacity:0.75;" x="562.711012" xlink:href="#m26ed2a0896" y="240.454675"/>
     <use style="fill:#ffc100;fill-opacity:0.75;stroke:#e06a27;stroke-opacity:0.75;" x="538.41669" xlink:href="#m26ed2a0896" y="252.89466"/>
     <use style="fill:#ffc100;fill-opacity:0.75;stroke:#e06a27;stroke-opacity:0.75;" x="555.695055" xlink:href="#m26ed2a0896" y="265.22781"/>
    </g>
   </g>
   <g id="PathCollection_6">
    <g clip-path="url(#pc2cb386e24)">
     <use style="fill:#e06a27;fill-opacity:0.75;stroke:#e06a27;stroke-opacity:0.75;stroke-width:1.5;" x="483.267341" xlink:href="#mf9ed34eacf" y="262.447402"/>
     <use style="fill:#e06a27;fill-opacity:0.75;stroke:#e06a27;stroke-opacity:0.75;stroke-width:1.5;" x="583.389583" xlink:href="#mf9ed34eacf" y="242.745652"/>
     <use style="fill:#e06a27;fill-opacity:0.75;stroke:#e06a27;stroke-opacity:0.75;stroke-width:1.5;" x="477.994006" xlink:href="#mf9ed34eacf" y="247.182365"/>
     <use style="fill:#e06a27;fill-opacity:0.75;stroke:#e06a27;stroke-opacity:0.75;stroke-width:1.5;" x="555.863083" xlink:href="#mf9ed34eacf" y="254.306236"/>
     <use style="fill:#e06a27;fill-opacity:0.75;stroke:#e06a27;stroke-opacity:0.75;stroke-width:1.5;" x="626.790714" xlink:href="#mf9ed34eacf" y="153.886448"/>
     <use style="fill:#e06a27;fill-opacity:0.75;stroke:#e06a27;stroke-opacity:0.75;stroke-width:1.5;" x="554.96358" xlink:href="#mf9ed34eacf" y="250.081877"/>
     <use style="fill:#e06a27;fill-opacity:0.75;stroke:#e06a27;stroke-opacity:0.75;stroke-width:1.5;" x="448.820856" xlink:href="#mf9ed34eacf" y="249.581262"/>
     <use style="fill:#e06a27;fill-opacity:0.75;stroke:#e06a27;stroke-opacity:0.75;stroke-width:1.5;" x="565.213196" xlink:href="#mf9ed34eacf" y="250.712972"/>
     <use style="fill:#e06a27;fill-opacity:0.75;stroke:#e06a27;stroke-opacity:0.75;stroke-width:1.5;" x="536.167019" xlink:href="#mf9ed34eacf" y="261.656096"/>
     <use style="fill:#e06a27;fill-opacity:0.75;stroke:#e06a27;stroke-opacity:0.75;stroke-width:1.5;" x="542.325104" xlink:href="#mf9ed34eacf" y="256.639025"/>
     <use style="fill:#e06a27;fill-opacity:0.75;stroke:#e06a27;stroke-opacity:0.75;stroke-width:1.5;" x="503.5156" xlink:href="#mf9ed34eacf" y="257.444231"/>
     <use style="fill:#e06a27;fill-opacity:0.75;stroke:#e06a27;stroke-opacity:0.75;stroke-width:1.5;" x="482.005943" xlink:href="#mf9ed34eacf" y="251.546806"/>
     <use style="fill:#e06a27;fill-opacity:0.75;stroke:#e06a27;stroke-opacity:0.75;stroke-width:1.5;" x="570.884818" xlink:href="#mf9ed34eacf" y="256.130312"/>
     <use style="fill:#e06a27;fill-opacity:0.75;stroke:#e06a27;stroke-opacity:0.75;stroke-width:1.5;" x="539.532936" xlink:href="#mf9ed34eacf" y="251.565898"/>
     <use style="fill:#e06a27;fill-opacity:0.75;stroke:#e06a27;stroke-opacity:0.75;stroke-width:1.5;" x="500.398014" xlink:href="#mf9ed34eacf" y="230.297033"/>
    </g>
   </g>
   <g id="matplotlib.axis_3">
    <g id="xtick_8">
     <g id="line2d_15">
      <g>
       <use style="stroke:#000000;stroke-width:0.8;" x="447.247745" xlink:href="#m6a649e0618" y="315"/>
      </g>
     </g>
     <g id="text_17">
      <!-- −1 -->
      <g transform="translate(439.876651 329.598437)scale(0.1 -0.1)">
       <use xlink:href="#DejaVuSans-8722"/>
       <use x="83.789062" xlink:href="#DejaVuSans-49"/>
      </g>
     </g>
    </g>
    <g id="xtick_9">
     <g id="line2d_16">
      <g>
       <use style="stroke:#000000;stroke-width:0.8;" x="483.344002" xlink:href="#m6a649e0618" y="315"/>
      </g>
     </g>
     <g id="text_18">
      <!-- 0 -->
      <g transform="translate(480.162752 329.598437)scale(0.1 -0.1)">
       <use xlink:href="#DejaVuSans-48"/>
      </g>
     </g>
    </g>
    <g id="xtick_10">
     <g id="line2d_17">
      <g>
       <use style="stroke:#000000;stroke-width:0.8;" x="519.440258" xlink:href="#m6a649e0618" y="315"/>
      </g>
     </g>
     <g id="text_19">
      <!-- 1 -->
      <g transform="translate(516.259008 329.598437)scale(0.1 -0.1)">
       <use xlink:href="#DejaVuSans-49"/>
      </g>
     </g>
    </g>
    <g id="xtick_11">
     <g id="line2d_18">
      <g>
       <use style="stroke:#000000;stroke-width:0.8;" x="555.536515" xlink:href="#m6a649e0618" y="315"/>
      </g>
     </g>
     <g id="text_20">
      <!-- 2 -->
      <g transform="translate(552.355265 329.598437)scale(0.1 -0.1)">
       <use xlink:href="#DejaVuSans-50"/>
      </g>
     </g>
    </g>
    <g id="xtick_12">
     <g id="line2d_19">
      <g>
       <use style="stroke:#000000;stroke-width:0.8;" x="591.632772" xlink:href="#m6a649e0618" y="315"/>
      </g>
     </g>
     <g id="text_21">
      <!-- 3 -->
      <g transform="translate(588.451522 329.598437)scale(0.1 -0.1)">
       <use xlink:href="#DejaVuSans-51"/>
      </g>
     </g>
    </g>
    <g id="xtick_13">
     <g id="line2d_20">
      <g>
       <use style="stroke:#000000;stroke-width:0.8;" x="627.729028" xlink:href="#m6a649e0618" y="315"/>
      </g>
     </g>
     <g id="text_22">
      <!-- 4 -->
      <g transform="translate(624.547778 329.598437)scale(0.1 -0.1)">
       <use xlink:href="#DejaVuSans-52"/>
      </g>
     </g>
    </g>
    <g id="xtick_14">
     <g id="line2d_21">
      <g>
       <use style="stroke:#000000;stroke-width:0.8;" x="663.825285" xlink:href="#m6a649e0618" y="315"/>
      </g>
     </g>
     <g id="text_23">
      <!-- 5 -->
      <g transform="translate(660.644035 329.598437)scale(0.1 -0.1)">
       <use xlink:href="#DejaVuSans-53"/>
      </g>
     </g>
    </g>
   </g>
   <g id="matplotlib.axis_4">
    <g id="ytick_7">
     <g id="line2d_22">
      <g>
       <use style="stroke:#000000;stroke-width:0.8;" x="430.411765" xlink:href="#m4ce4425fb8" y="278.574536"/>
      </g>
     </g>
     <g id="text_24">
      <!-- −10 -->
      <g transform="translate(402.307077 282.373755)scale(0.1 -0.1)">
       <use xlink:href="#DejaVuSans-8722"/>
       <use x="83.789062" xlink:href="#DejaVuSans-49"/>
       <use x="147.412109" xlink:href="#DejaVuSans-48"/>
      </g>
     </g>
    </g>
    <g id="ytick_8">
     <g id="line2d_23">
      <g>
       <use style="stroke:#000000;stroke-width:0.8;" x="430.411765" xlink:href="#m4ce4425fb8" y="238.888401"/>
      </g>
     </g>
     <g id="text_25">
      <!-- 0 -->
      <g transform="translate(417.049265 242.68762)scale(0.1 -0.1)">
       <use xlink:href="#DejaVuSans-48"/>
      </g>
     </g>
    </g>
    <g id="ytick_9">
     <g id="line2d_24">
      <g>
       <use style="stroke:#000000;stroke-width:0.8;" x="430.411765" xlink:href="#m4ce4425fb8" y="199.202266"/>
      </g>
     </g>
     <g id="text_26">
      <!-- 10 -->
      <g transform="translate(410.686765 203.001485)scale(0.1 -0.1)">
       <use xlink:href="#DejaVuSans-49"/>
       <use x="63.623047" xlink:href="#DejaVuSans-48"/>
      </g>
     </g>
    </g>
    <g id="ytick_10">
     <g id="line2d_25">
      <g>
       <use style="stroke:#000000;stroke-width:0.8;" x="430.411765" xlink:href="#m4ce4425fb8" y="159.516131"/>
      </g>
     </g>
     <g id="text_27">
      <!-- 20 -->
      <g transform="translate(410.686765 163.31535)scale(0.1 -0.1)">
       <use xlink:href="#DejaVuSans-50"/>
       <use x="63.623047" xlink:href="#DejaVuSans-48"/>
      </g>
     </g>
    </g>
    <g id="ytick_11">
     <g id="line2d_26">
      <g>
       <use style="stroke:#000000;stroke-width:0.8;" x="430.411765" xlink:href="#m4ce4425fb8" y="119.829996"/>
      </g>
     </g>
     <g id="text_28">
      <!-- 30 -->
      <g transform="translate(410.686765 123.629215)scale(0.1 -0.1)">
       <use xlink:href="#DejaVuSans-51"/>
       <use x="63.623047" xlink:href="#DejaVuSans-48"/>
      </g>
     </g>
    </g>
    <g id="ytick_12">
     <g id="line2d_27">
      <g>
       <use style="stroke:#000000;stroke-width:0.8;" x="430.411765" xlink:href="#m4ce4425fb8" y="80.143861"/>
      </g>
     </g>
     <g id="text_29">
      <!-- 40 -->
      <g transform="translate(410.686765 83.943079)scale(0.1 -0.1)">
       <use xlink:href="#DejaVuSans-52"/>
       <use x="63.623047" xlink:href="#DejaVuSans-48"/>
      </g>
     </g>
    </g>
   </g>
   <g id="line2d_28">
    <path clip-path="url(#pc2cb386e24)" d="M 441.601604 206.342467 
L 448.820856 217.2069 
L 456.040107 227.070894 
L 463.259358 235.934449 
L 470.47861 243.797565 
L 477.697861 250.660243 
L 484.917112 256.522481 
L 492.136364 261.384281 
L 499.355615 265.245642 
L 506.574866 268.106564 
L 513.794118 269.967047 
L 521.013369 270.827092 
L 528.23262 270.686697 
L 535.451872 269.545864 
L 542.671123 267.404592 
L 549.890374 264.262881 
L 557.109626 260.120732 
L 564.328877 254.978143 
L 571.548128 248.835116 
L 578.76738 241.69165 
L 585.986631 233.547745 
L 593.205882 224.403401 
L 600.425134 214.258618 
L 607.644385 203.113397 
L 614.863636 190.967736 
L 622.082888 177.821637 
L 629.302139 163.675099 
L 636.52139 148.528123 
L 643.740642 132.380707 
L 650.959893 115.232853 
L 658.179144 97.084559 
L 665.398396 77.935827 
" style="fill:none;stroke:#ffc100;stroke-linecap:square;stroke-width:1.5;"/>
   </g>
   <g id="patch_9">
    <path d="M 430.411765 315 
L 430.411765 43.2 
" style="fill:none;stroke:#000000;stroke-linecap:square;stroke-linejoin:miter;stroke-width:0.8;"/>
   </g>
   <g id="patch_10">
    <path d="M 676.588235 315 
L 676.588235 43.2 
" style="fill:none;stroke:#000000;stroke-linecap:square;stroke-linejoin:miter;stroke-width:0.8;"/>
   </g>
   <g id="patch_11">
    <path d="M 430.411765 315 
L 676.588235 315 
" style="fill:none;stroke:#000000;stroke-linecap:square;stroke-linejoin:miter;stroke-width:0.8;"/>
   </g>
   <g id="patch_12">
    <path d="M 430.411765 43.2 
L 676.588235 43.2 
" style="fill:none;stroke:#000000;stroke-linecap:square;stroke-linejoin:miter;stroke-width:0.8;"/>
   </g>
   <g id="text_30">
    <!-- Normal regressor -->
    <defs>
     <path d="M 9.8125 72.90625 
L 23.09375 72.90625 
L 55.421875 11.921875 
L 55.421875 72.90625 
L 64.984375 72.90625 
L 64.984375 0 
L 51.703125 0 
L 19.390625 60.984375 
L 19.390625 0 
L 9.8125 0 
z
" id="DejaVuSans-78"/>
     <path d="M 52 44.1875 
Q 55.375 50.25 60.0625 53.125 
Q 64.75 56 71.09375 56 
Q 79.640625 56 84.28125 50.015625 
Q 88.921875 44.046875 88.921875 33.015625 
L 88.921875 0 
L 79.890625 0 
L 79.890625 32.71875 
Q 79.890625 40.578125 77.09375 44.375 
Q 74.3125 48.1875 68.609375 48.1875 
Q 61.625 48.1875 57.5625 43.546875 
Q 53.515625 38.921875 53.515625 30.90625 
L 53.515625 0 
L 44.484375 0 
L 44.484375 32.71875 
Q 44.484375 40.625 41.703125 44.40625 
Q 38.921875 48.1875 33.109375 48.1875 
Q 26.21875 48.1875 22.15625 43.53125 
Q 18.109375 38.875 18.109375 30.90625 
L 18.109375 0 
L 9.078125 0 
L 9.078125 54.6875 
L 18.109375 54.6875 
L 18.109375 46.1875 
Q 21.1875 51.21875 25.484375 53.609375 
Q 29.78125 56 35.6875 56 
Q 41.65625 56 45.828125 52.96875 
Q 50 49.953125 52 44.1875 
z
" id="DejaVuSans-109"/>
     <path d="M 9.421875 75.984375 
L 18.40625 75.984375 
L 18.40625 0 
L 9.421875 0 
z
" id="DejaVuSans-108"/>
    </defs>
    <g transform="translate(478.81935 37.2)scale(0.1728 -0.1728)">
     <use xlink:href="#DejaVuSans-78"/>
     <use x="74.804688" xlink:href="#DejaVuSans-111"/>
     <use x="135.986328" xlink:href="#DejaVuSans-114"/>
     <use x="175.349609" xlink:href="#DejaVuSans-109"/>
     <use x="272.761719" xlink:href="#DejaVuSans-97"/>
     <use x="334.041016" xlink:href="#DejaVuSans-108"/>
     <use x="361.824219" xlink:href="#DejaVuSans-32"/>
     <use x="393.611328" xlink:href="#DejaVuSans-114"/>
     <use x="432.474609" xlink:href="#DejaVuSans-101"/>
     <use x="493.998047" xlink:href="#DejaVuSans-103"/>
     <use x="557.474609" xlink:href="#DejaVuSans-114"/>
     <use x="596.337891" xlink:href="#DejaVuSans-101"/>
     <use x="657.861328" xlink:href="#DejaVuSans-115"/>
     <use x="709.960938" xlink:href="#DejaVuSans-115"/>
     <use x="762.060547" xlink:href="#DejaVuSans-111"/>
     <use x="823.242188" xlink:href="#DejaVuSans-114"/>
    </g>
   </g>
   <g id="legend_2">
    <g id="patch_13">
     <path d="M 438.811765 88.0275 
L 503.169265 88.0275 
Q 505.569265 88.0275 505.569265 85.6275 
L 505.569265 51.6 
Q 505.569265 49.2 503.169265 49.2 
L 438.811765 49.2 
Q 436.411765 49.2 436.411765 51.6 
L 436.411765 85.6275 
Q 436.411765 88.0275 438.811765 88.0275 
z
" style="fill:#ffffff;opacity:0.8;stroke:#cccccc;stroke-linejoin:miter;"/>
    </g>
    <g id="PathCollection_7">
     <g>
      <use style="fill:#ffc100;fill-opacity:0.75;stroke:#e06a27;stroke-opacity:0.75;" x="453.211765" xlink:href="#m26ed2a0896" y="59.968125"/>
     </g>
    </g>
    <g id="text_31">
     <!-- train   -->
     <g transform="translate(465.211765 63.118125)scale(0.12 -0.12)">
      <use xlink:href="#DejaVuSans-116"/>
      <use x="39.208984" xlink:href="#DejaVuSans-114"/>
      <use x="80.322266" xlink:href="#DejaVuSans-97"/>
      <use x="141.601562" xlink:href="#DejaVuSans-105"/>
      <use x="169.384766" xlink:href="#DejaVuSans-110"/>
      <use x="232.763672" xlink:href="#DejaVuSans-32"/>
      <use x="264.550781" xlink:href="#DejaVuSans-32"/>
     </g>
    </g>
    <g id="PathCollection_8">
     <g>
      <use style="fill:#e06a27;fill-opacity:0.75;stroke:#e06a27;stroke-opacity:0.75;stroke-width:1.5;" x="453.211765" xlink:href="#mf9ed34eacf" y="77.581875"/>
     </g>
    </g>
    <g id="text_32">
     <!-- test -->
     <g transform="translate(465.211765 80.731875)scale(0.12 -0.12)">
      <use xlink:href="#DejaVuSans-116"/>
      <use x="39.208984" xlink:href="#DejaVuSans-101"/>
      <use x="100.732422" xlink:href="#DejaVuSans-115"/>
      <use x="152.832031" xlink:href="#DejaVuSans-116"/>
     </g>
    </g>
   </g>
  </g>
  <g id="axes_3">
   <g id="patch_14">
    <path d="M 725.823529 315 
L 972 315 
L 972 43.2 
L 725.823529 43.2 
z
" style="fill:#ffffff;"/>
   </g>
   <g id="PathCollection_9">
    <g clip-path="url(#p485120c39f)">
     <use style="fill:#ffc100;fill-opacity:0.75;stroke:#e06a27;stroke-opacity:0.75;" x="957.043015" xlink:href="#m26ed2a0896" y="82.886135"/>
     <use style="fill:#ffc100;fill-opacity:0.75;stroke:#e06a27;stroke-opacity:0.75;" x="769.610386" xlink:href="#m26ed2a0896" y="248.995412"/>
     <use style="fill:#ffc100;fill-opacity:0.75;stroke:#e06a27;stroke-opacity:0.75;" x="869.887032" xlink:href="#m26ed2a0896" y="256.745335"/>
     <use style="fill:#ffc100;fill-opacity:0.75;stroke:#e06a27;stroke-opacity:0.75;" x="904.64159" xlink:href="#m26ed2a0896" y="199.616541"/>
     <use style="fill:#ffc100;fill-opacity:0.75;stroke:#e06a27;stroke-opacity:0.75;" x="880.844377" xlink:href="#m26ed2a0896" y="232.897262"/>
     <use style="fill:#ffc100;fill-opacity:0.75;stroke:#e06a27;stroke-opacity:0.75;" x="765.086858" xlink:href="#m26ed2a0896" y="240.615882"/>
     <use style="fill:#ffc100;fill-opacity:0.75;stroke:#e06a27;stroke-opacity:0.75;" x="927.658066" xlink:href="#m26ed2a0896" y="172.854242"/>
     <use style="fill:#ffc100;fill-opacity:0.75;stroke:#e06a27;stroke-opacity:0.75;" x="770.867155" xlink:href="#m26ed2a0896" y="239.331858"/>
     <use style="fill:#ffc100;fill-opacity:0.75;stroke:#e06a27;stroke-opacity:0.75;" x="946.535014" xlink:href="#m26ed2a0896" y="100.22494"/>
     <use style="fill:#ffc100;fill-opacity:0.75;stroke:#e06a27;stroke-opacity:0.75;" x="906.842644" xlink:href="#m26ed2a0896" y="213.894707"/>
     <use style="fill:#ffc100;fill-opacity:0.75;stroke:#e06a27;stroke-opacity:0.75;" x="829.003731" xlink:href="#m26ed2a0896" y="275.313865"/>
     <use style="fill:#ffc100;fill-opacity:0.75;stroke:#e06a27;stroke-opacity:0.75;" x="748.251269" xlink:href="#m26ed2a0896" y="234.057666"/>
     <use style="fill:#ffc100;fill-opacity:0.75;stroke:#e06a27;stroke-opacity:0.75;" x="858.122776" xlink:href="#m26ed2a0896" y="240.454675"/>
     <use style="fill:#ffc100;fill-opacity:0.75;stroke:#e06a27;stroke-opacity:0.75;" x="833.828455" xlink:href="#m26ed2a0896" y="252.89466"/>
     <use style="fill:#ffc100;fill-opacity:0.75;stroke:#e06a27;stroke-opacity:0.75;" x="851.10682" xlink:href="#m26ed2a0896" y="265.22781"/>
    </g>
   </g>
   <g id="PathCollection_10">
    <g clip-path="url(#p485120c39f)">
     <use style="fill:#e06a27;fill-opacity:0.75;stroke:#e06a27;stroke-opacity:0.75;stroke-width:1.5;" x="778.679105" xlink:href="#mf9ed34eacf" y="262.447402"/>
     <use style="fill:#e06a27;fill-opacity:0.75;stroke:#e06a27;stroke-opacity:0.75;stroke-width:1.5;" x="878.801348" xlink:href="#mf9ed34eacf" y="242.745652"/>
     <use style="fill:#e06a27;fill-opacity:0.75;stroke:#e06a27;stroke-opacity:0.75;stroke-width:1.5;" x="773.405771" xlink:href="#mf9ed34eacf" y="247.182365"/>
     <use style="fill:#e06a27;fill-opacity:0.75;stroke:#e06a27;stroke-opacity:0.75;stroke-width:1.5;" x="851.274848" xlink:href="#mf9ed34eacf" y="254.306236"/>
     <use style="fill:#e06a27;fill-opacity:0.75;stroke:#e06a27;stroke-opacity:0.75;stroke-width:1.5;" x="922.202479" xlink:href="#mf9ed34eacf" y="153.886448"/>
     <use style="fill:#e06a27;fill-opacity:0.75;stroke:#e06a27;stroke-opacity:0.75;stroke-width:1.5;" x="850.375345" xlink:href="#mf9ed34eacf" y="250.081877"/>
     <use style="fill:#e06a27;fill-opacity:0.75;stroke:#e06a27;stroke-opacity:0.75;stroke-width:1.5;" x="744.23262" xlink:href="#mf9ed34eacf" y="249.581262"/>
     <use style="fill:#e06a27;fill-opacity:0.75;stroke:#e06a27;stroke-opacity:0.75;stroke-width:1.5;" x="860.624961" xlink:href="#mf9ed34eacf" y="250.712972"/>
     <use style="fill:#e06a27;fill-opacity:0.75;stroke:#e06a27;stroke-opacity:0.75;stroke-width:1.5;" x="831.578783" xlink:href="#mf9ed34eacf" y="261.656096"/>
     <use style="fill:#e06a27;fill-opacity:0.75;stroke:#e06a27;stroke-opacity:0.75;stroke-width:1.5;" x="837.736868" xlink:href="#mf9ed34eacf" y="256.639025"/>
     <use style="fill:#e06a27;fill-opacity:0.75;stroke:#e06a27;stroke-opacity:0.75;stroke-width:1.5;" x="798.927364" xlink:href="#mf9ed34eacf" y="257.444231"/>
     <use style="fill:#e06a27;fill-opacity:0.75;stroke:#e06a27;stroke-opacity:0.75;stroke-width:1.5;" x="777.417707" xlink:href="#mf9ed34eacf" y="251.546806"/>
     <use style="fill:#e06a27;fill-opacity:0.75;stroke:#e06a27;stroke-opacity:0.75;stroke-width:1.5;" x="866.296583" xlink:href="#mf9ed34eacf" y="256.130312"/>
     <use style="fill:#e06a27;fill-opacity:0.75;stroke:#e06a27;stroke-opacity:0.75;stroke-width:1.5;" x="834.944701" xlink:href="#mf9ed34eacf" y="251.565898"/>
     <use style="fill:#e06a27;fill-opacity:0.75;stroke:#e06a27;stroke-opacity:0.75;stroke-width:1.5;" x="795.809779" xlink:href="#mf9ed34eacf" y="230.297033"/>
    </g>
   </g>
   <g id="matplotlib.axis_5">
    <g id="xtick_15">
     <g id="line2d_29">
      <g>
       <use style="stroke:#000000;stroke-width:0.8;" x="742.65951" xlink:href="#m6a649e0618" y="315"/>
      </g>
     </g>
     <g id="text_33">
      <!-- −1 -->
      <g transform="translate(735.288416 329.598437)scale(0.1 -0.1)">
       <use xlink:href="#DejaVuSans-8722"/>
       <use x="83.789062" xlink:href="#DejaVuSans-49"/>
      </g>
     </g>
    </g>
    <g id="xtick_16">
     <g id="line2d_30">
      <g>
       <use style="stroke:#000000;stroke-width:0.8;" x="778.755766" xlink:href="#m6a649e0618" y="315"/>
      </g>
     </g>
     <g id="text_34">
      <!-- 0 -->
      <g transform="translate(775.574516 329.598437)scale(0.1 -0.1)">
       <use xlink:href="#DejaVuSans-48"/>
      </g>
     </g>
    </g>
    <g id="xtick_17">
     <g id="line2d_31">
      <g>
       <use style="stroke:#000000;stroke-width:0.8;" x="814.852023" xlink:href="#m6a649e0618" y="315"/>
      </g>
     </g>
     <g id="text_35">
      <!-- 1 -->
      <g transform="translate(811.670773 329.598437)scale(0.1 -0.1)">
       <use xlink:href="#DejaVuSans-49"/>
      </g>
     </g>
    </g>
    <g id="xtick_18">
     <g id="line2d_32">
      <g>
       <use style="stroke:#000000;stroke-width:0.8;" x="850.94828" xlink:href="#m6a649e0618" y="315"/>
      </g>
     </g>
     <g id="text_36">
      <!-- 2 -->
      <g transform="translate(847.76703 329.598437)scale(0.1 -0.1)">
       <use xlink:href="#DejaVuSans-50"/>
      </g>
     </g>
    </g>
    <g id="xtick_19">
     <g id="line2d_33">
      <g>
       <use style="stroke:#000000;stroke-width:0.8;" x="887.044536" xlink:href="#m6a649e0618" y="315"/>
      </g>
     </g>
     <g id="text_37">
      <!-- 3 -->
      <g transform="translate(883.863286 329.598437)scale(0.1 -0.1)">
       <use xlink:href="#DejaVuSans-51"/>
      </g>
     </g>
    </g>
    <g id="xtick_20">
     <g id="line2d_34">
      <g>
       <use style="stroke:#000000;stroke-width:0.8;" x="923.140793" xlink:href="#m6a649e0618" y="315"/>
      </g>
     </g>
     <g id="text_38">
      <!-- 4 -->
      <g transform="translate(919.959543 329.598437)scale(0.1 -0.1)">
       <use xlink:href="#DejaVuSans-52"/>
      </g>
     </g>
    </g>
    <g id="xtick_21">
     <g id="line2d_35">
      <g>
       <use style="stroke:#000000;stroke-width:0.8;" x="959.23705" xlink:href="#m6a649e0618" y="315"/>
      </g>
     </g>
     <g id="text_39">
      <!-- 5 -->
      <g transform="translate(956.0558 329.598437)scale(0.1 -0.1)">
       <use xlink:href="#DejaVuSans-53"/>
      </g>
     </g>
    </g>
   </g>
   <g id="matplotlib.axis_6">
    <g id="ytick_13">
     <g id="line2d_36">
      <g>
       <use style="stroke:#000000;stroke-width:0.8;" x="725.823529" xlink:href="#m4ce4425fb8" y="278.574536"/>
      </g>
     </g>
     <g id="text_40">
      <!-- −10 -->
      <g transform="translate(697.718842 282.373755)scale(0.1 -0.1)">
       <use xlink:href="#DejaVuSans-8722"/>
       <use x="83.789062" xlink:href="#DejaVuSans-49"/>
       <use x="147.412109" xlink:href="#DejaVuSans-48"/>
      </g>
     </g>
    </g>
    <g id="ytick_14">
     <g id="line2d_37">
      <g>
       <use style="stroke:#000000;stroke-width:0.8;" x="725.823529" xlink:href="#m4ce4425fb8" y="238.888401"/>
      </g>
     </g>
     <g id="text_41">
      <!-- 0 -->
      <g transform="translate(712.461029 242.68762)scale(0.1 -0.1)">
       <use xlink:href="#DejaVuSans-48"/>
      </g>
     </g>
    </g>
    <g id="ytick_15">
     <g id="line2d_38">
      <g>
       <use style="stroke:#000000;stroke-width:0.8;" x="725.823529" xlink:href="#m4ce4425fb8" y="199.202266"/>
      </g>
     </g>
     <g id="text_42">
      <!-- 10 -->
      <g transform="translate(706.098529 203.001485)scale(0.1 -0.1)">
       <use xlink:href="#DejaVuSans-49"/>
       <use x="63.623047" xlink:href="#DejaVuSans-48"/>
      </g>
     </g>
    </g>
    <g id="ytick_16">
     <g id="line2d_39">
      <g>
       <use style="stroke:#000000;stroke-width:0.8;" x="725.823529" xlink:href="#m4ce4425fb8" y="159.516131"/>
      </g>
     </g>
     <g id="text_43">
      <!-- 20 -->
      <g transform="translate(706.098529 163.31535)scale(0.1 -0.1)">
       <use xlink:href="#DejaVuSans-50"/>
       <use x="63.623047" xlink:href="#DejaVuSans-48"/>
      </g>
     </g>
    </g>
    <g id="ytick_17">
     <g id="line2d_40">
      <g>
       <use style="stroke:#000000;stroke-width:0.8;" x="725.823529" xlink:href="#m4ce4425fb8" y="119.829996"/>
      </g>
     </g>
     <g id="text_44">
      <!-- 30 -->
      <g transform="translate(706.098529 123.629215)scale(0.1 -0.1)">
       <use xlink:href="#DejaVuSans-51"/>
       <use x="63.623047" xlink:href="#DejaVuSans-48"/>
      </g>
     </g>
    </g>
    <g id="ytick_18">
     <g id="line2d_41">
      <g>
       <use style="stroke:#000000;stroke-width:0.8;" x="725.823529" xlink:href="#m4ce4425fb8" y="80.143861"/>
      </g>
     </g>
     <g id="text_45">
      <!-- 40 -->
      <g transform="translate(706.098529 83.943079)scale(0.1 -0.1)">
       <use xlink:href="#DejaVuSans-52"/>
       <use x="63.623047" xlink:href="#DejaVuSans-48"/>
      </g>
     </g>
    </g>
   </g>
   <g id="line2d_42">
    <path clip-path="url(#p485120c39f)" d="M 744.009249 -1 
L 744.23262 34.2687 
L 751.451872 287.753968 
L 758.671123 273.026965 
L 765.890374 240.484886 
L 773.109626 254.526689 
L 780.328877 302.278175 
L 787.548128 352.397948 
L 789.672187 361 
M 808.664459 361 
L 809.205882 359.280513 
L 816.425134 324.704951 
L 823.644385 290.800741 
L 830.863636 266.077999 
L 838.082888 253.498766 
L 845.302139 250.995524 
L 852.52139 253.474777 
L 859.740642 255.355709 
L 866.959893 252.76108 
L 874.179144 244.721342 
L 881.398396 233.105196 
L 888.617647 221.382131 
L 895.836898 212.686547 
L 903.05615 207.920586 
L 910.275401 204.735415 
L 917.494652 198.100174 
L 924.713904 182.735704 
L 931.933155 156.888283 
L 939.152406 125.678562 
L 946.371658 100.514365 
L 953.590909 88.734736 
L 960.81016 64.688209 
" style="fill:none;stroke:#ffc100;stroke-linecap:square;stroke-width:1.5;"/>
   </g>
   <g id="patch_15">
    <path d="M 725.823529 315 
L 725.823529 43.2 
" style="fill:none;stroke:#000000;stroke-linecap:square;stroke-linejoin:miter;stroke-width:0.8;"/>
   </g>
   <g id="patch_16">
    <path d="M 972 315 
L 972 43.2 
" style="fill:none;stroke:#000000;stroke-linecap:square;stroke-linejoin:miter;stroke-width:0.8;"/>
   </g>
   <g id="patch_17">
    <path d="M 725.823529 315 
L 972 315 
" style="fill:none;stroke:#000000;stroke-linecap:square;stroke-linejoin:miter;stroke-width:0.8;"/>
   </g>
   <g id="patch_18">
    <path d="M 725.823529 43.2 
L 972 43.2 
" style="fill:none;stroke:#000000;stroke-linecap:square;stroke-linejoin:miter;stroke-width:0.8;"/>
   </g>
   <g id="text_46">
    <!-- Overfitted regressor -->
    <defs>
     <path d="M 39.40625 66.21875 
Q 28.65625 66.21875 22.328125 58.203125 
Q 16.015625 50.203125 16.015625 36.375 
Q 16.015625 22.609375 22.328125 14.59375 
Q 28.65625 6.59375 39.40625 6.59375 
Q 50.140625 6.59375 56.421875 14.59375 
Q 62.703125 22.609375 62.703125 36.375 
Q 62.703125 50.203125 56.421875 58.203125 
Q 50.140625 66.21875 39.40625 66.21875 
z
M 39.40625 74.21875 
Q 54.734375 74.21875 63.90625 63.9375 
Q 73.09375 53.65625 73.09375 36.375 
Q 73.09375 19.140625 63.90625 8.859375 
Q 54.734375 -1.421875 39.40625 -1.421875 
Q 24.03125 -1.421875 14.8125 8.828125 
Q 5.609375 19.09375 5.609375 36.375 
Q 5.609375 53.65625 14.8125 63.9375 
Q 24.03125 74.21875 39.40625 74.21875 
z
" id="DejaVuSans-79"/>
     <path d="M 2.984375 54.6875 
L 12.5 54.6875 
L 29.59375 8.796875 
L 46.6875 54.6875 
L 56.203125 54.6875 
L 35.6875 0 
L 23.484375 0 
z
" id="DejaVuSans-118"/>
     <path d="M 37.109375 75.984375 
L 37.109375 68.5 
L 28.515625 68.5 
Q 23.6875 68.5 21.796875 66.546875 
Q 19.921875 64.59375 19.921875 59.515625 
L 19.921875 54.6875 
L 34.71875 54.6875 
L 34.71875 47.703125 
L 19.921875 47.703125 
L 19.921875 0 
L 10.890625 0 
L 10.890625 47.703125 
L 2.296875 47.703125 
L 2.296875 54.6875 
L 10.890625 54.6875 
L 10.890625 58.5 
Q 10.890625 67.625 15.140625 71.796875 
Q 19.390625 75.984375 28.609375 75.984375 
z
" id="DejaVuSans-102"/>
     <path d="M 45.40625 46.390625 
L 45.40625 75.984375 
L 54.390625 75.984375 
L 54.390625 0 
L 45.40625 0 
L 45.40625 8.203125 
Q 42.578125 3.328125 38.25 0.953125 
Q 33.9375 -1.421875 27.875 -1.421875 
Q 17.96875 -1.421875 11.734375 6.484375 
Q 5.515625 14.40625 5.515625 27.296875 
Q 5.515625 40.1875 11.734375 48.09375 
Q 17.96875 56 27.875 56 
Q 33.9375 56 38.25 53.625 
Q 42.578125 51.265625 45.40625 46.390625 
z
M 14.796875 27.296875 
Q 14.796875 17.390625 18.875 11.75 
Q 22.953125 6.109375 30.078125 6.109375 
Q 37.203125 6.109375 41.296875 11.75 
Q 45.40625 17.390625 45.40625 27.296875 
Q 45.40625 37.203125 41.296875 42.84375 
Q 37.203125 48.484375 30.078125 48.484375 
Q 22.953125 48.484375 18.875 42.84375 
Q 14.796875 37.203125 14.796875 27.296875 
z
" id="DejaVuSans-100"/>
    </defs>
    <g transform="translate(761.692315 37.2)scale(0.1728 -0.1728)">
     <use xlink:href="#DejaVuSans-79"/>
     <use x="78.710938" xlink:href="#DejaVuSans-118"/>
     <use x="137.890625" xlink:href="#DejaVuSans-101"/>
     <use x="199.414062" xlink:href="#DejaVuSans-114"/>
     <use x="240.527344" xlink:href="#DejaVuSans-102"/>
     <use x="275.732422" xlink:href="#DejaVuSans-105"/>
     <use x="303.515625" xlink:href="#DejaVuSans-116"/>
     <use x="342.724609" xlink:href="#DejaVuSans-116"/>
     <use x="381.933594" xlink:href="#DejaVuSans-101"/>
     <use x="443.457031" xlink:href="#DejaVuSans-100"/>
     <use x="506.933594" xlink:href="#DejaVuSans-32"/>
     <use x="538.720703" xlink:href="#DejaVuSans-114"/>
     <use x="577.583984" xlink:href="#DejaVuSans-101"/>
     <use x="639.107422" xlink:href="#DejaVuSans-103"/>
     <use x="702.583984" xlink:href="#DejaVuSans-114"/>
     <use x="741.447266" xlink:href="#DejaVuSans-101"/>
     <use x="802.970703" xlink:href="#DejaVuSans-115"/>
     <use x="855.070312" xlink:href="#DejaVuSans-115"/>
     <use x="907.169922" xlink:href="#DejaVuSans-111"/>
     <use x="968.351562" xlink:href="#DejaVuSans-114"/>
    </g>
   </g>
   <g id="legend_3">
    <g id="patch_19">
     <path d="M 734.223529 88.0275 
L 798.581029 88.0275 
Q 800.981029 88.0275 800.981029 85.6275 
L 800.981029 51.6 
Q 800.981029 49.2 798.581029 49.2 
L 734.223529 49.2 
Q 731.823529 49.2 731.823529 51.6 
L 731.823529 85.6275 
Q 731.823529 88.0275 734.223529 88.0275 
z
" style="fill:#ffffff;opacity:0.8;stroke:#cccccc;stroke-linejoin:miter;"/>
    </g>
    <g id="PathCollection_11">
     <g>
      <use style="fill:#ffc100;fill-opacity:0.75;stroke:#e06a27;stroke-opacity:0.75;" x="748.623529" xlink:href="#m26ed2a0896" y="59.968125"/>
     </g>
    </g>
    <g id="text_47">
     <!-- train   -->
     <g transform="translate(760.623529 63.118125)scale(0.12 -0.12)">
      <use xlink:href="#DejaVuSans-116"/>
      <use x="39.208984" xlink:href="#DejaVuSans-114"/>
      <use x="80.322266" xlink:href="#DejaVuSans-97"/>
      <use x="141.601562" xlink:href="#DejaVuSans-105"/>
      <use x="169.384766" xlink:href="#DejaVuSans-110"/>
      <use x="232.763672" xlink:href="#DejaVuSans-32"/>
      <use x="264.550781" xlink:href="#DejaVuSans-32"/>
     </g>
    </g>
    <g id="PathCollection_12">
     <g>
      <use style="fill:#e06a27;fill-opacity:0.75;stroke:#e06a27;stroke-opacity:0.75;stroke-width:1.5;" x="748.623529" xlink:href="#mf9ed34eacf" y="77.581875"/>
     </g>
    </g>
    <g id="text_48">
     <!-- test -->
     <g transform="translate(760.623529 80.731875)scale(0.12 -0.12)">
      <use xlink:href="#DejaVuSans-116"/>
      <use x="39.208984" xlink:href="#DejaVuSans-101"/>
      <use x="100.732422" xlink:href="#DejaVuSans-115"/>
      <use x="152.832031" xlink:href="#DejaVuSans-116"/>
     </g>
    </g>
   </g>
  </g>
 </g>
 <defs>
  <clipPath id="p0933754f7c">
   <rect height="271.8" width="246.176471" x="135" y="43.2"/>
  </clipPath>
  <clipPath id="pc2cb386e24">
   <rect height="271.8" width="246.176471" x="430.411765" y="43.2"/>
  </clipPath>
  <clipPath id="p485120c39f">
   <rect height="271.8" width="246.176471" x="725.823529" y="43.2"/>
  </clipPath>
 </defs>
</svg>
