<?xml version="1.0" encoding="utf-8" standalone="no"?>
<!DOCTYPE svg PUBLIC "-//W3C//DTD SVG 1.1//EN"
  "http://www.w3.org/Graphics/SVG/1.1/DTD/svg11.dtd">
<!-- Created with matplotlib (https://matplotlib.org/) -->
<svg height="288pt" version="1.1" viewBox="0 0 432 288" width="432pt" xmlns="http://www.w3.org/2000/svg" xmlns:xlink="http://www.w3.org/1999/xlink">
 <defs>
  <style type="text/css">
*{stroke-linecap:butt;stroke-linejoin:round;}
  </style>
 </defs>
 <g id="figure_1">
  <g id="patch_1">
   <path d="M 0 288 
L 432 288 
L 432 0 
L 0 0 
z
" style="fill:#ffffff;"/>
  </g>
  <g id="axes_1">
   <g id="patch_2">
    <path d="M 54 252 
L 388.8 252 
L 388.8 34.56 
L 54 34.56 
z
" style="fill:#ffffff;"/>
   </g>
   <g id="matplotlib.axis_1">
    <g id="xtick_1">
     <g id="line2d_1"/>
     <g id="text_1">
      <!-- 0.0 -->
      <defs>
       <path d="M 4.15625 35.296875 
Q 4.15625 48 6.765625 55.734375 
Q 9.375 63.484375 14.515625 67.671875 
Q 19.671875 71.875 27.484375 71.875 
Q 33.25 71.875 37.59375 69.546875 
Q 41.9375 67.234375 44.765625 62.859375 
Q 47.609375 58.5 49.21875 52.21875 
Q 50.828125 45.953125 50.828125 35.296875 
Q 50.828125 22.703125 48.234375 14.96875 
Q 45.65625 7.234375 40.5 3 
Q 35.359375 -1.21875 27.484375 -1.21875 
Q 17.140625 -1.21875 11.234375 6.203125 
Q 4.15625 15.140625 4.15625 35.296875 
z
M 13.1875 35.296875 
Q 13.1875 17.671875 17.3125 11.828125 
Q 21.4375 6 27.484375 6 
Q 33.546875 6 37.671875 11.859375 
Q 41.796875 17.71875 41.796875 35.296875 
Q 41.796875 52.984375 37.671875 58.78125 
Q 33.546875 64.59375 27.390625 64.59375 
Q 21.34375 64.59375 17.71875 59.46875 
Q 13.1875 52.9375 13.1875 35.296875 
z
" id="ArialMT-48"/>
       <path d="M 9.078125 0 
L 9.078125 10.015625 
L 19.09375 10.015625 
L 19.09375 0 
z
" id="ArialMT-46"/>
      </defs>
      <g style="fill:#262626;" transform="translate(47.05 262.657812)scale(0.1 -0.1)">
       <use xlink:href="#ArialMT-48"/>
       <use x="55.615234" xlink:href="#ArialMT-46"/>
       <use x="83.398438" xlink:href="#ArialMT-48"/>
      </g>
     </g>
    </g>
    <g id="xtick_2">
     <g id="line2d_2"/>
     <g id="text_2">
      <!-- 0.2 -->
      <defs>
       <path d="M 50.34375 8.453125 
L 50.34375 0 
L 3.03125 0 
Q 2.9375 3.171875 4.046875 6.109375 
Q 5.859375 10.9375 9.828125 15.625 
Q 13.8125 20.3125 21.34375 26.46875 
Q 33.015625 36.03125 37.109375 41.625 
Q 41.21875 47.21875 41.21875 52.203125 
Q 41.21875 57.421875 37.46875 61 
Q 33.734375 64.59375 27.734375 64.59375 
Q 21.390625 64.59375 17.578125 60.78125 
Q 13.765625 56.984375 13.71875 50.25 
L 4.6875 51.171875 
Q 5.609375 61.28125 11.65625 66.578125 
Q 17.71875 71.875 27.9375 71.875 
Q 38.234375 71.875 44.234375 66.15625 
Q 50.25 60.453125 50.25 52 
Q 50.25 47.703125 48.484375 43.546875 
Q 46.734375 39.40625 42.65625 34.8125 
Q 38.578125 30.21875 29.109375 22.21875 
Q 21.1875 15.578125 18.9375 13.203125 
Q 16.703125 10.84375 15.234375 8.453125 
z
" id="ArialMT-50"/>
      </defs>
      <g style="fill:#262626;" transform="translate(114.01 262.657812)scale(0.1 -0.1)">
       <use xlink:href="#ArialMT-48"/>
       <use x="55.615234" xlink:href="#ArialMT-46"/>
       <use x="83.398438" xlink:href="#ArialMT-50"/>
      </g>
     </g>
    </g>
    <g id="xtick_3">
     <g id="line2d_3"/>
     <g id="text_3">
      <!-- 0.4 -->
      <defs>
       <path d="M 32.328125 0 
L 32.328125 17.140625 
L 1.265625 17.140625 
L 1.265625 25.203125 
L 33.9375 71.578125 
L 41.109375 71.578125 
L 41.109375 25.203125 
L 50.78125 25.203125 
L 50.78125 17.140625 
L 41.109375 17.140625 
L 41.109375 0 
z
M 32.328125 25.203125 
L 32.328125 57.46875 
L 9.90625 25.203125 
z
" id="ArialMT-52"/>
      </defs>
      <g style="fill:#262626;" transform="translate(180.97 262.657812)scale(0.1 -0.1)">
       <use xlink:href="#ArialMT-48"/>
       <use x="55.615234" xlink:href="#ArialMT-46"/>
       <use x="83.398438" xlink:href="#ArialMT-52"/>
      </g>
     </g>
    </g>
    <g id="xtick_4">
     <g id="line2d_4"/>
     <g id="text_4">
      <!-- 0.6 -->
      <defs>
       <path d="M 49.75 54.046875 
L 41.015625 53.375 
Q 39.84375 58.546875 37.703125 60.890625 
Q 34.125 64.65625 28.90625 64.65625 
Q 24.703125 64.65625 21.53125 62.3125 
Q 17.390625 59.28125 14.984375 53.46875 
Q 12.59375 47.65625 12.5 36.921875 
Q 15.671875 41.75 20.265625 44.09375 
Q 24.859375 46.4375 29.890625 46.4375 
Q 38.671875 46.4375 44.84375 39.96875 
Q 51.03125 33.5 51.03125 23.25 
Q 51.03125 16.5 48.125 10.71875 
Q 45.21875 4.9375 40.140625 1.859375 
Q 35.0625 -1.21875 28.609375 -1.21875 
Q 17.625 -1.21875 10.6875 6.859375 
Q 3.765625 14.9375 3.765625 33.5 
Q 3.765625 54.25 11.421875 63.671875 
Q 18.109375 71.875 29.4375 71.875 
Q 37.890625 71.875 43.28125 67.140625 
Q 48.6875 62.40625 49.75 54.046875 
z
M 13.875 23.1875 
Q 13.875 18.65625 15.796875 14.5 
Q 17.71875 10.359375 21.1875 8.171875 
Q 24.65625 6 28.46875 6 
Q 34.03125 6 38.03125 10.484375 
Q 42.046875 14.984375 42.046875 22.703125 
Q 42.046875 30.125 38.078125 34.390625 
Q 34.125 38.671875 28.125 38.671875 
Q 22.171875 38.671875 18.015625 34.390625 
Q 13.875 30.125 13.875 23.1875 
z
" id="ArialMT-54"/>
      </defs>
      <g style="fill:#262626;" transform="translate(247.93 262.657812)scale(0.1 -0.1)">
       <use xlink:href="#ArialMT-48"/>
       <use x="55.615234" xlink:href="#ArialMT-46"/>
       <use x="83.398438" xlink:href="#ArialMT-54"/>
      </g>
     </g>
    </g>
    <g id="xtick_5">
     <g id="line2d_5"/>
     <g id="text_5">
      <!-- 0.8 -->
      <defs>
       <path d="M 17.671875 38.8125 
Q 12.203125 40.828125 9.5625 44.53125 
Q 6.9375 48.25 6.9375 53.421875 
Q 6.9375 61.234375 12.546875 66.546875 
Q 18.171875 71.875 27.484375 71.875 
Q 36.859375 71.875 42.578125 66.421875 
Q 48.296875 60.984375 48.296875 53.171875 
Q 48.296875 48.1875 45.671875 44.5 
Q 43.0625 40.828125 37.75 38.8125 
Q 44.34375 36.671875 47.78125 31.875 
Q 51.21875 27.09375 51.21875 20.453125 
Q 51.21875 11.28125 44.71875 5.03125 
Q 38.234375 -1.21875 27.640625 -1.21875 
Q 17.046875 -1.21875 10.546875 5.046875 
Q 4.046875 11.328125 4.046875 20.703125 
Q 4.046875 27.6875 7.59375 32.390625 
Q 11.140625 37.109375 17.671875 38.8125 
z
M 15.921875 53.71875 
Q 15.921875 48.640625 19.1875 45.40625 
Q 22.46875 42.1875 27.6875 42.1875 
Q 32.765625 42.1875 36.015625 45.375 
Q 39.265625 48.578125 39.265625 53.21875 
Q 39.265625 58.0625 35.90625 61.359375 
Q 32.5625 64.65625 27.59375 64.65625 
Q 22.5625 64.65625 19.234375 61.421875 
Q 15.921875 58.203125 15.921875 53.71875 
z
M 13.09375 20.65625 
Q 13.09375 16.890625 14.875 13.375 
Q 16.65625 9.859375 20.171875 7.921875 
Q 23.6875 6 27.734375 6 
Q 34.03125 6 38.125 10.046875 
Q 42.234375 14.109375 42.234375 20.359375 
Q 42.234375 26.703125 38.015625 30.859375 
Q 33.796875 35.015625 27.4375 35.015625 
Q 21.234375 35.015625 17.15625 30.90625 
Q 13.09375 26.8125 13.09375 20.65625 
z
" id="ArialMT-56"/>
      </defs>
      <g style="fill:#262626;" transform="translate(314.89 262.657812)scale(0.1 -0.1)">
       <use xlink:href="#ArialMT-48"/>
       <use x="55.615234" xlink:href="#ArialMT-46"/>
       <use x="83.398438" xlink:href="#ArialMT-56"/>
      </g>
     </g>
    </g>
    <g id="xtick_6">
     <g id="line2d_6"/>
     <g id="text_6">
      <!-- 1.0 -->
      <defs>
       <path d="M 37.25 0 
L 28.46875 0 
L 28.46875 56 
Q 25.296875 52.984375 20.140625 49.953125 
Q 14.984375 46.921875 10.890625 45.40625 
L 10.890625 53.90625 
Q 18.265625 57.375 23.78125 62.296875 
Q 29.296875 67.234375 31.59375 71.875 
L 37.25 71.875 
z
" id="ArialMT-49"/>
      </defs>
      <g style="fill:#262626;" transform="translate(381.85 262.657812)scale(0.1 -0.1)">
       <use xlink:href="#ArialMT-49"/>
       <use x="55.615234" xlink:href="#ArialMT-46"/>
       <use x="83.398438" xlink:href="#ArialMT-48"/>
      </g>
     </g>
    </g>
   </g>
   <g id="matplotlib.axis_2">
    <g id="ytick_1">
     <g id="line2d_7"/>
     <g id="text_7">
      <!-- 0 -->
      <g style="fill:#262626;" transform="translate(44.939062 245.69527)scale(0.1 -0.1)">
       <use xlink:href="#ArialMT-48"/>
      </g>
     </g>
    </g>
    <g id="ytick_2">
     <g id="line2d_8"/>
     <g id="text_8">
      <!-- 1 -->
      <g style="fill:#262626;" transform="translate(44.939062 199.310919)scale(0.1 -0.1)">
       <use xlink:href="#ArialMT-49"/>
      </g>
     </g>
    </g>
    <g id="ytick_3">
     <g id="line2d_9"/>
     <g id="text_9">
      <!-- 2 -->
      <g style="fill:#262626;" transform="translate(44.939062 152.926568)scale(0.1 -0.1)">
       <use xlink:href="#ArialMT-50"/>
      </g>
     </g>
    </g>
    <g id="ytick_4">
     <g id="line2d_10"/>
     <g id="text_10">
      <!-- 3 -->
      <defs>
       <path d="M 4.203125 18.890625 
L 12.984375 20.0625 
Q 14.5 12.59375 18.140625 9.296875 
Q 21.78125 6 27 6 
Q 33.203125 6 37.46875 10.296875 
Q 41.75 14.59375 41.75 20.953125 
Q 41.75 27 37.796875 30.921875 
Q 33.84375 34.859375 27.734375 34.859375 
Q 25.25 34.859375 21.53125 33.890625 
L 22.515625 41.609375 
Q 23.390625 41.5 23.921875 41.5 
Q 29.546875 41.5 34.03125 44.421875 
Q 38.53125 47.359375 38.53125 53.46875 
Q 38.53125 58.296875 35.25 61.46875 
Q 31.984375 64.65625 26.8125 64.65625 
Q 21.6875 64.65625 18.265625 61.421875 
Q 14.84375 58.203125 13.875 51.765625 
L 5.078125 53.328125 
Q 6.6875 62.15625 12.390625 67.015625 
Q 18.109375 71.875 26.609375 71.875 
Q 32.46875 71.875 37.390625 69.359375 
Q 42.328125 66.84375 44.9375 62.5 
Q 47.5625 58.15625 47.5625 53.265625 
Q 47.5625 48.640625 45.0625 44.828125 
Q 42.578125 41.015625 37.703125 38.765625 
Q 44.046875 37.3125 47.5625 32.6875 
Q 51.078125 28.078125 51.078125 21.140625 
Q 51.078125 11.765625 44.234375 5.25 
Q 37.40625 -1.265625 26.953125 -1.265625 
Q 17.53125 -1.265625 11.296875 4.34375 
Q 5.078125 9.96875 4.203125 18.890625 
z
" id="ArialMT-51"/>
      </defs>
      <g style="fill:#262626;" transform="translate(44.939062 106.542217)scale(0.1 -0.1)">
       <use xlink:href="#ArialMT-51"/>
      </g>
     </g>
    </g>
    <g id="ytick_5">
     <g id="line2d_11"/>
     <g id="text_11">
      <!-- 4 -->
      <g style="fill:#262626;" transform="translate(44.939062 60.157866)scale(0.1 -0.1)">
       <use xlink:href="#ArialMT-52"/>
      </g>
     </g>
    </g>
   </g>
   <g id="line2d_12">
    <path clip-path="url(#pbca49d4067)" d="M 57.348 241.188677 
L 60.696 240.26099 
L 64.044 239.333303 
L 67.392 238.405616 
L 70.74 237.477929 
L 74.088 236.550242 
L 77.436 235.622555 
L 80.784 234.694867 
L 84.132 233.76718 
L 87.48 232.839493 
L 90.828 231.911806 
L 94.176 230.984119 
L 97.524 230.056432 
L 100.872 229.128745 
L 104.22 228.201058 
L 107.568 227.273371 
L 110.916 226.345684 
L 114.264 225.417997 
L 117.612 224.49031 
L 120.96 223.562623 
L 124.308 222.634936 
L 127.656 221.707249 
L 131.004 220.779562 
L 134.352 219.851875 
L 137.7 218.924188 
L 141.048 217.996501 
L 144.396 217.068814 
L 147.744 216.141127 
L 151.092 215.21344 
L 154.44 214.285753 
L 157.788 213.358066 
L 161.136 212.430379 
L 164.484 211.502692 
L 167.832 210.575005 
L 171.18 209.647318 
L 174.528 208.719631 
L 177.876 207.791944 
L 181.224 206.864257 
L 184.572 205.93657 
L 187.92 205.008883 
L 191.268 204.081196 
L 194.616 203.153509 
L 197.964 202.225822 
L 201.312 201.298135 
L 204.66 200.370448 
L 208.008 199.442761 
L 211.356 198.515074 
L 214.704 197.587387 
L 218.052 196.6597 
L 221.4 195.732013 
L 224.748 194.804326 
L 228.096 193.876639 
L 231.444 192.948952 
L 234.792 192.021265 
L 238.14 191.093578 
L 241.488 190.165891 
L 244.836 189.238204 
L 248.184 188.310517 
L 251.532 187.382829 
L 254.88 186.455142 
L 258.228 185.527455 
L 261.576 184.599768 
L 264.924 183.672081 
L 268.272 182.744394 
L 271.62 181.816707 
L 274.968 180.88902 
L 278.316 179.961333 
L 281.664 179.033646 
L 285.012 178.105959 
L 288.36 177.178272 
L 291.708 176.250585 
L 295.056 175.322898 
L 298.404 174.395211 
L 301.752 173.467524 
L 305.1 172.539837 
L 308.448 171.61215 
L 311.796 170.684463 
L 315.144 169.756776 
L 318.492 168.829089 
L 321.84 167.901402 
L 325.188 166.973715 
L 328.536 166.046028 
L 331.884 165.118341 
L 335.232 164.190654 
L 338.58 163.262967 
L 341.928 162.33528 
L 345.276 161.407593 
L 348.624 160.479906 
L 351.972 159.552219 
L 355.32 158.624532 
L 358.668 157.696845 
L 362.016 156.769158 
L 365.364 155.841471 
L 368.712 154.913784 
L 372.06 153.986097 
L 375.408 153.05841 
L 378.756 152.130723 
L 382.104 151.203036 
L 385.452 150.275349 
" style="fill:none;stroke:#348fea;stroke-linecap:round;stroke-width:1.5;"/>
   </g>
   <g id="line2d_13">
    <path clip-path="url(#pbca49d4067)" d="M 57.348 239.361133 
L 60.696 236.661564 
L 64.044 234.017656 
L 67.392 231.429409 
L 70.74 228.896824 
L 74.088 226.419899 
L 77.436 223.998636 
L 80.784 221.633034 
L 84.132 219.323094 
L 87.48 217.068814 
L 90.828 214.870196 
L 94.176 212.727239 
L 97.524 210.639943 
L 100.872 208.608308 
L 104.22 206.632335 
L 107.568 204.712023 
L 110.916 202.847372 
L 114.264 201.038382 
L 117.612 199.285054 
L 120.96 197.587387 
L 124.308 195.945381 
L 127.656 194.359036 
L 131.004 192.828352 
L 134.352 191.35333 
L 137.7 189.933969 
L 141.048 188.570269 
L 144.396 187.26223 
L 147.744 186.009853 
L 151.092 184.813136 
L 154.44 183.672081 
L 157.788 182.586688 
L 161.136 181.556955 
L 164.484 180.582884 
L 167.832 179.664473 
L 171.18 178.801725 
L 174.528 177.994637 
L 177.876 177.24321 
L 181.224 176.547445 
L 184.572 175.907341 
L 187.92 175.322898 
L 191.268 174.794117 
L 194.616 174.320996 
L 197.964 173.903537 
L 201.312 173.541739 
L 204.66 173.235602 
L 208.008 172.985127 
L 211.356 172.790313 
L 214.704 172.65116 
L 218.052 172.567668 
L 221.4 172.539837 
L 224.748 172.567668 
L 228.096 172.65116 
L 231.444 172.790313 
L 234.792 172.985127 
L 238.14 173.235602 
L 241.488 173.541739 
L 244.836 173.903537 
L 248.184 174.320996 
L 251.532 174.794117 
L 254.88 175.322898 
L 258.228 175.907341 
L 261.576 176.547445 
L 264.924 177.24321 
L 268.272 177.994637 
L 271.62 178.801725 
L 274.968 179.664473 
L 278.316 180.582884 
L 281.664 181.556955 
L 285.012 182.586688 
L 288.36 183.672081 
L 291.708 184.813136 
L 295.056 186.009853 
L 298.404 187.26223 
L 301.752 188.570269 
L 305.1 189.933969 
L 308.448 191.35333 
L 311.796 192.828352 
L 315.144 194.359036 
L 318.492 195.945381 
L 321.84 197.587387 
L 325.188 199.285054 
L 328.536 201.038382 
L 331.884 202.847372 
L 335.232 204.712023 
L 338.58 206.632335 
L 341.928 208.608308 
L 345.276 210.639943 
L 348.624 212.727239 
L 351.972 214.870196 
L 355.32 217.068814 
L 358.668 219.323094 
L 362.016 221.633034 
L 365.364 223.998636 
L 368.712 226.419899 
L 372.06 228.896824 
L 375.408 231.429409 
L 378.756 234.017656 
L 382.104 236.661564 
L 385.452 239.361133 
" style="fill:none;stroke:#4cb9c0;stroke-linecap:round;stroke-width:1.5;"/>
   </g>
   <g id="line2d_14">
    <path clip-path="url(#pbca49d4067)" d="M 57.348 242.116364 
L 60.696 242.116364 
L 64.044 242.116364 
L 67.392 242.116364 
L 70.74 242.116364 
L 74.088 242.116364 
L 77.436 242.116363 
L 80.784 242.116363 
L 84.132 242.116362 
L 87.48 242.116359 
L 90.828 242.116353 
L 94.176 242.11634 
L 97.524 242.116317 
L 100.872 242.116273 
L 104.22 242.116197 
L 107.568 242.116069 
L 110.916 242.115861 
L 114.264 242.115534 
L 117.612 242.11503 
L 120.96 242.114274 
L 124.308 242.113162 
L 127.656 242.111559 
L 131.004 242.109287 
L 134.352 242.106119 
L 137.7 242.101766 
L 141.048 242.095864 
L 144.396 242.087961 
L 147.744 242.077502 
L 151.092 242.06381 
L 154.44 242.046064 
L 157.788 242.023281 
L 161.136 241.99429 
L 164.484 241.957705 
L 167.832 241.911899 
L 171.18 241.854973 
L 174.528 241.784724 
L 177.876 241.69861 
L 181.224 241.593717 
L 184.572 241.46672 
L 187.92 241.313845 
L 191.268 241.130831 
L 194.616 240.912892 
L 197.964 240.654674 
L 201.312 240.350219 
L 204.66 239.992926 
L 208.008 239.575517 
L 211.356 239.090002 
L 214.704 238.527651 
L 218.052 237.878968 
L 221.4 237.13367 
L 224.748 236.280679 
L 228.096 235.308114 
L 231.444 234.203296 
L 234.792 232.95277 
L 238.14 231.542325 
L 241.488 229.957049 
L 244.836 228.181384 
L 248.184 226.19921 
L 251.532 223.993946 
L 254.88 221.548679 
L 258.228 218.846315 
L 261.576 215.869769 
L 264.924 212.602176 
L 268.272 209.027151 
L 271.62 205.129081 
L 274.968 200.893467 
L 278.316 196.307309 
L 281.664 191.359549 
L 285.012 186.041571 
L 288.36 180.34776 
L 291.708 174.276135 
L 295.056 167.829047 
L 298.404 161.01397 
L 301.752 153.844358 
L 305.1 146.340617 
L 308.448 138.531156 
L 311.796 130.453559 
L 315.144 122.155862 
L 318.492 113.697954 
L 321.84 105.153115 
L 325.188 96.609681 
L 328.536 88.172867 
L 331.884 79.966749 
L 335.232 72.136402 
L 338.58 64.850235 
L 341.928 58.302499 
L 345.276 52.716006 
L 348.624 48.345058 
L 351.972 45.478605 
L 355.32 44.443636 
L 358.668 45.608828 
L 362.016 49.388458 
L 365.364 56.2466 
L 368.712 66.701616 
L 372.06 81.33096 
L 375.408 100.776308 
L 378.756 125.749044 
L 382.104 157.036096 
L 385.452 195.506169 
" style="fill:none;stroke:#97c804;stroke-linecap:round;stroke-width:1.5;"/>
   </g>
   <g id="line2d_15">
    <path clip-path="url(#pbca49d4067)" d="M 57.348 239.997718 
L 60.696 234.30287 
L 64.044 225.920912 
L 67.392 215.615103 
L 70.74 204.03561 
L 74.088 191.731277 
L 77.436 179.160476 
L 80.784 166.701096 
L 84.132 154.659713 
L 87.48 143.28 
L 90.828 132.750419 
L 94.176 123.211245 
L 97.524 114.760951 
L 100.872 107.462021 
L 104.22 101.346203 
L 107.568 96.419254 
L 110.916 92.665212 
L 114.264 90.050227 
L 117.612 88.525976 
L 120.96 88.032709 
L 124.308 88.501937 
L 127.656 89.858803 
L 131.004 92.024152 
L 134.352 94.916332 
L 137.7 98.452743 
L 141.048 102.551165 
L 144.396 107.130872 
L 147.744 112.11356 
L 151.092 117.424112 
L 154.44 122.991199 
L 157.788 128.74776 
L 161.136 134.631344 
L 164.484 140.584354 
L 167.832 146.554194 
L 171.18 152.493333 
L 174.528 158.359294 
L 177.876 164.114581 
L 181.224 169.726561 
L 184.572 175.167289 
L 187.92 180.413308 
L 191.268 185.445414 
L 194.616 190.248398 
L 197.964 194.810776 
L 201.312 199.124502 
L 204.66 203.184676 
L 208.008 206.989253 
L 211.356 210.538746 
L 214.704 213.83594 
L 218.052 216.885608 
L 221.4 219.694241 
L 224.748 222.269784 
L 228.096 224.621391 
L 231.444 226.75919 
L 234.792 228.694066 
L 238.14 230.437457 
L 241.488 232.001171 
L 244.836 233.397216 
L 248.184 234.637648 
L 251.532 235.734441 
L 254.88 236.69936 
L 258.228 237.543869 
L 261.576 238.279036 
L 264.924 238.915468 
L 268.272 239.463245 
L 271.62 239.931885 
L 274.968 240.330304 
L 278.316 240.666798 
L 281.664 240.949032 
L 285.012 241.184036 
L 288.36 241.378217 
L 291.708 241.537365 
L 295.056 241.666681 
L 298.404 241.770796 
L 301.752 241.853805 
L 305.1 241.919294 
L 308.448 241.970383 
L 311.796 242.009758 
L 315.144 242.039707 
L 318.492 242.062165 
L 321.84 242.078746 
L 325.188 242.090779 
L 328.536 242.09935 
L 331.884 242.10533 
L 335.232 242.109405 
L 338.58 242.112112 
L 341.928 242.113858 
L 345.276 242.114946 
L 348.624 242.115599 
L 351.972 242.115974 
L 355.32 242.116178 
L 358.668 242.116282 
L 362.016 242.116331 
L 365.364 242.116352 
L 368.712 242.11636 
L 372.06 242.116363 
L 375.408 242.116363 
L 378.756 242.116364 
L 382.104 242.116364 
L 385.452 242.116364 
" style="fill:none;stroke:#ffc100;stroke-linecap:round;stroke-width:1.5;"/>
   </g>
   <g id="line2d_16">
    <path clip-path="url(#pbca49d4067)" d="M 57.348 242.116364 
L 60.696 242.116364 
L 64.044 242.116363 
L 67.392 242.116356 
L 70.74 242.116311 
L 74.088 242.116116 
L 77.436 242.115464 
L 80.784 242.113648 
L 84.132 242.10926 
L 87.48 242.099763 
L 90.828 242.080965 
L 94.176 242.046393 
L 97.524 241.986615 
L 100.872 241.888551 
L 104.22 241.734831 
L 107.568 241.503261 
L 110.916 241.166452 
L 114.264 240.691684 
L 117.612 240.041031 
L 120.96 239.171807 
L 124.308 238.037328 
L 127.656 236.588013 
L 131.004 234.772796 
L 134.352 232.540818 
L 137.7 229.843342 
L 141.048 226.63584 
L 144.396 222.880147 
L 147.744 218.546624 
L 151.092 213.616213 
L 154.44 208.082309 
L 157.788 201.95235 
L 161.136 195.24905 
L 164.484 188.011199 
L 167.832 180.293985 
L 171.18 172.168791 
L 174.528 163.722456 
L 177.876 155.055995 
L 181.224 146.282805 
L 184.572 137.526399 
L 187.92 128.917722 
L 191.268 120.59214 
L 194.616 112.686172 
L 197.964 105.334083 
L 201.312 98.664442 
L 204.66 92.796746 
L 208.008 87.838235 
L 211.356 83.880986 
L 214.704 80.9994 
L 218.052 79.248146 
L 221.4 78.660646 
L 224.748 79.248146 
L 228.096 80.9994 
L 231.444 83.880986 
L 234.792 87.838235 
L 238.14 92.796746 
L 241.488 98.664442 
L 244.836 105.334083 
L 248.184 112.686172 
L 251.532 120.59214 
L 254.88 128.917722 
L 258.228 137.526399 
L 261.576 146.282805 
L 264.924 155.055995 
L 268.272 163.722456 
L 271.62 172.168791 
L 274.968 180.293985 
L 278.316 188.011199 
L 281.664 195.24905 
L 285.012 201.95235 
L 288.36 208.082309 
L 291.708 213.616213 
L 295.056 218.546624 
L 298.404 222.880147 
L 301.752 226.63584 
L 305.1 229.843342 
L 308.448 232.540818 
L 311.796 234.772796 
L 315.144 236.588013 
L 318.492 238.037328 
L 321.84 239.171807 
L 325.188 240.041031 
L 328.536 240.691684 
L 331.884 241.166452 
L 335.232 241.503261 
L 338.58 241.734831 
L 341.928 241.888551 
L 345.276 241.986615 
L 348.624 242.046393 
L 351.972 242.080965 
L 355.32 242.099763 
L 358.668 242.10926 
L 362.016 242.113648 
L 365.364 242.115464 
L 368.712 242.116116 
L 372.06 242.116311 
L 375.408 242.116356 
L 378.756 242.116363 
L 382.104 242.116364 
L 385.452 242.116364 
" style="fill:none;stroke:#e06a27;stroke-linecap:round;stroke-width:1.5;"/>
   </g>
   <g id="patch_3">
    <path d="M 54 252 
L 54 34.56 
" style="fill:none;stroke:#262626;stroke-linecap:square;stroke-linejoin:miter;stroke-width:1.25;"/>
   </g>
   <g id="patch_4">
    <path d="M 388.8 252 
L 388.8 34.56 
" style="fill:none;stroke:#262626;stroke-linecap:square;stroke-linejoin:miter;stroke-width:1.25;"/>
   </g>
   <g id="patch_5">
    <path d="M 54 252 
L 388.8 252 
" style="fill:none;stroke:#262626;stroke-linecap:square;stroke-linejoin:miter;stroke-width:1.25;"/>
   </g>
   <g id="patch_6">
    <path d="M 54 34.56 
L 388.8 34.56 
" style="fill:none;stroke:#262626;stroke-linecap:square;stroke-linejoin:miter;stroke-width:1.25;"/>
   </g>
   <g id="text_12">
    <!-- Beta distribution -->
    <defs>
     <path d="M 7.328125 0 
L 7.328125 71.578125 
L 34.1875 71.578125 
Q 42.390625 71.578125 47.34375 69.40625 
Q 52.296875 67.234375 55.09375 62.71875 
Q 57.90625 58.203125 57.90625 53.265625 
Q 57.90625 48.6875 55.421875 44.625 
Q 52.9375 40.578125 47.90625 38.09375 
Q 54.390625 36.1875 57.875 31.59375 
Q 61.375 27 61.375 20.75 
Q 61.375 15.71875 59.25 11.390625 
Q 57.125 7.078125 54 4.734375 
Q 50.875 2.390625 46.15625 1.1875 
Q 41.453125 0 34.625 0 
z
M 16.796875 41.5 
L 32.28125 41.5 
Q 38.578125 41.5 41.3125 42.328125 
Q 44.921875 43.40625 46.75 45.890625 
Q 48.578125 48.390625 48.578125 52.15625 
Q 48.578125 55.71875 46.875 58.421875 
Q 45.171875 61.140625 41.984375 62.140625 
Q 38.8125 63.140625 31.109375 63.140625 
L 16.796875 63.140625 
z
M 16.796875 8.453125 
L 34.625 8.453125 
Q 39.203125 8.453125 41.0625 8.796875 
Q 44.34375 9.375 46.53125 10.734375 
Q 48.734375 12.109375 50.140625 14.71875 
Q 51.5625 17.328125 51.5625 20.75 
Q 51.5625 24.75 49.515625 27.703125 
Q 47.46875 30.671875 43.828125 31.859375 
Q 40.1875 33.0625 33.34375 33.0625 
L 16.796875 33.0625 
z
" id="ArialMT-66"/>
     <path d="M 42.09375 16.703125 
L 51.171875 15.578125 
Q 49.03125 7.625 43.21875 3.21875 
Q 37.40625 -1.171875 28.375 -1.171875 
Q 17 -1.171875 10.328125 5.828125 
Q 3.65625 12.84375 3.65625 25.484375 
Q 3.65625 38.578125 10.390625 45.796875 
Q 17.140625 53.03125 27.875 53.03125 
Q 38.28125 53.03125 44.875 45.953125 
Q 51.46875 38.875 51.46875 26.03125 
Q 51.46875 25.25 51.421875 23.6875 
L 12.75 23.6875 
Q 13.234375 15.140625 17.578125 10.59375 
Q 21.921875 6.0625 28.421875 6.0625 
Q 33.25 6.0625 36.671875 8.59375 
Q 40.09375 11.140625 42.09375 16.703125 
z
M 13.234375 30.90625 
L 42.1875 30.90625 
Q 41.609375 37.453125 38.875 40.71875 
Q 34.671875 45.796875 27.984375 45.796875 
Q 21.921875 45.796875 17.796875 41.75 
Q 13.671875 37.703125 13.234375 30.90625 
z
" id="ArialMT-101"/>
     <path d="M 25.78125 7.859375 
L 27.046875 0.09375 
Q 23.34375 -0.6875 20.40625 -0.6875 
Q 15.625 -0.6875 12.984375 0.828125 
Q 10.359375 2.34375 9.28125 4.8125 
Q 8.203125 7.28125 8.203125 15.1875 
L 8.203125 45.015625 
L 1.765625 45.015625 
L 1.765625 51.859375 
L 8.203125 51.859375 
L 8.203125 64.703125 
L 16.9375 69.96875 
L 16.9375 51.859375 
L 25.78125 51.859375 
L 25.78125 45.015625 
L 16.9375 45.015625 
L 16.9375 14.703125 
Q 16.9375 10.9375 17.40625 9.859375 
Q 17.875 8.796875 18.921875 8.15625 
Q 19.96875 7.515625 21.921875 7.515625 
Q 23.390625 7.515625 25.78125 7.859375 
z
" id="ArialMT-116"/>
     <path d="M 40.4375 6.390625 
Q 35.546875 2.25 31.03125 0.53125 
Q 26.515625 -1.171875 21.34375 -1.171875 
Q 12.796875 -1.171875 8.203125 3 
Q 3.609375 7.171875 3.609375 13.671875 
Q 3.609375 17.484375 5.34375 20.625 
Q 7.078125 23.78125 9.890625 25.6875 
Q 12.703125 27.59375 16.21875 28.5625 
Q 18.796875 29.25 24.03125 29.890625 
Q 34.671875 31.15625 39.703125 32.90625 
Q 39.75 34.71875 39.75 35.203125 
Q 39.75 40.578125 37.25 42.78125 
Q 33.890625 45.75 27.25 45.75 
Q 21.046875 45.75 18.09375 43.578125 
Q 15.140625 41.40625 13.71875 35.890625 
L 5.125 37.0625 
Q 6.296875 42.578125 8.984375 45.96875 
Q 11.671875 49.359375 16.75 51.1875 
Q 21.828125 53.03125 28.515625 53.03125 
Q 35.15625 53.03125 39.296875 51.46875 
Q 43.453125 49.90625 45.40625 47.53125 
Q 47.359375 45.171875 48.140625 41.546875 
Q 48.578125 39.3125 48.578125 33.453125 
L 48.578125 21.734375 
Q 48.578125 9.46875 49.140625 6.21875 
Q 49.703125 2.984375 51.375 0 
L 42.1875 0 
Q 40.828125 2.734375 40.4375 6.390625 
z
M 39.703125 26.03125 
Q 34.90625 24.078125 25.34375 22.703125 
Q 19.921875 21.921875 17.671875 20.9375 
Q 15.4375 19.96875 14.203125 18.09375 
Q 12.984375 16.21875 12.984375 13.921875 
Q 12.984375 10.40625 15.640625 8.0625 
Q 18.3125 5.71875 23.4375 5.71875 
Q 28.515625 5.71875 32.46875 7.9375 
Q 36.421875 10.15625 38.28125 14.015625 
Q 39.703125 17 39.703125 22.796875 
z
" id="ArialMT-97"/>
     <path id="ArialMT-32"/>
     <path d="M 40.234375 0 
L 40.234375 6.546875 
Q 35.296875 -1.171875 25.734375 -1.171875 
Q 19.53125 -1.171875 14.328125 2.25 
Q 9.125 5.671875 6.265625 11.796875 
Q 3.421875 17.921875 3.421875 25.875 
Q 3.421875 33.640625 6 39.96875 
Q 8.59375 46.296875 13.765625 49.65625 
Q 18.953125 53.03125 25.34375 53.03125 
Q 30.03125 53.03125 33.6875 51.046875 
Q 37.359375 49.078125 39.65625 45.90625 
L 39.65625 71.578125 
L 48.390625 71.578125 
L 48.390625 0 
z
M 12.453125 25.875 
Q 12.453125 15.921875 16.640625 10.984375 
Q 20.84375 6.0625 26.5625 6.0625 
Q 32.328125 6.0625 36.34375 10.765625 
Q 40.375 15.484375 40.375 25.140625 
Q 40.375 35.796875 36.265625 40.765625 
Q 32.171875 45.75 26.171875 45.75 
Q 20.3125 45.75 16.375 40.96875 
Q 12.453125 36.1875 12.453125 25.875 
z
" id="ArialMT-100"/>
     <path d="M 6.640625 61.46875 
L 6.640625 71.578125 
L 15.4375 71.578125 
L 15.4375 61.46875 
z
M 6.640625 0 
L 6.640625 51.859375 
L 15.4375 51.859375 
L 15.4375 0 
z
" id="ArialMT-105"/>
     <path d="M 3.078125 15.484375 
L 11.765625 16.84375 
Q 12.5 11.625 15.84375 8.84375 
Q 19.1875 6.0625 25.203125 6.0625 
Q 31.25 6.0625 34.171875 8.515625 
Q 37.109375 10.984375 37.109375 14.3125 
Q 37.109375 17.28125 34.515625 19 
Q 32.71875 20.171875 25.53125 21.96875 
Q 15.875 24.421875 12.140625 26.203125 
Q 8.40625 27.984375 6.46875 31.125 
Q 4.546875 34.28125 4.546875 38.09375 
Q 4.546875 41.546875 6.125 44.5 
Q 7.71875 47.46875 10.453125 49.421875 
Q 12.5 50.921875 16.03125 51.96875 
Q 19.578125 53.03125 23.640625 53.03125 
Q 29.734375 53.03125 34.34375 51.265625 
Q 38.96875 49.515625 41.15625 46.5 
Q 43.359375 43.5 44.1875 38.484375 
L 35.59375 37.3125 
Q 35.015625 41.3125 32.203125 43.546875 
Q 29.390625 45.796875 24.265625 45.796875 
Q 18.21875 45.796875 15.625 43.796875 
Q 13.03125 41.796875 13.03125 39.109375 
Q 13.03125 37.40625 14.109375 36.03125 
Q 15.1875 34.625 17.484375 33.6875 
Q 18.796875 33.203125 25.25 31.453125 
Q 34.578125 28.953125 38.25 27.359375 
Q 41.9375 25.78125 44.03125 22.75 
Q 46.140625 19.734375 46.140625 15.234375 
Q 46.140625 10.84375 43.578125 6.953125 
Q 41.015625 3.078125 36.171875 0.953125 
Q 31.34375 -1.171875 25.25 -1.171875 
Q 15.140625 -1.171875 9.84375 3.03125 
Q 4.546875 7.234375 3.078125 15.484375 
z
" id="ArialMT-115"/>
     <path d="M 6.5 0 
L 6.5 51.859375 
L 14.40625 51.859375 
L 14.40625 44 
Q 17.4375 49.515625 20 51.265625 
Q 22.5625 53.03125 25.640625 53.03125 
Q 30.078125 53.03125 34.671875 50.203125 
L 31.640625 42.046875 
Q 28.421875 43.953125 25.203125 43.953125 
Q 22.3125 43.953125 20.015625 42.21875 
Q 17.71875 40.484375 16.75 37.40625 
Q 15.28125 32.71875 15.28125 27.15625 
L 15.28125 0 
z
" id="ArialMT-114"/>
     <path d="M 14.703125 0 
L 6.546875 0 
L 6.546875 71.578125 
L 15.328125 71.578125 
L 15.328125 46.046875 
Q 20.90625 53.03125 29.546875 53.03125 
Q 34.328125 53.03125 38.59375 51.09375 
Q 42.875 49.171875 45.625 45.671875 
Q 48.390625 42.1875 49.953125 37.25 
Q 51.515625 32.328125 51.515625 26.703125 
Q 51.515625 13.375 44.921875 6.09375 
Q 38.328125 -1.171875 29.109375 -1.171875 
Q 19.921875 -1.171875 14.703125 6.5 
z
M 14.59375 26.3125 
Q 14.59375 17 17.140625 12.84375 
Q 21.296875 6.0625 28.375 6.0625 
Q 34.125 6.0625 38.328125 11.0625 
Q 42.53125 16.0625 42.53125 25.984375 
Q 42.53125 36.140625 38.5 40.96875 
Q 34.46875 45.796875 28.765625 45.796875 
Q 23 45.796875 18.796875 40.796875 
Q 14.59375 35.796875 14.59375 26.3125 
z
" id="ArialMT-98"/>
     <path d="M 40.578125 0 
L 40.578125 7.625 
Q 34.515625 -1.171875 24.125 -1.171875 
Q 19.53125 -1.171875 15.546875 0.578125 
Q 11.578125 2.34375 9.640625 5 
Q 7.71875 7.671875 6.9375 11.53125 
Q 6.390625 14.109375 6.390625 19.734375 
L 6.390625 51.859375 
L 15.1875 51.859375 
L 15.1875 23.09375 
Q 15.1875 16.21875 15.71875 13.8125 
Q 16.546875 10.359375 19.234375 8.375 
Q 21.921875 6.390625 25.875 6.390625 
Q 29.828125 6.390625 33.296875 8.421875 
Q 36.765625 10.453125 38.203125 13.9375 
Q 39.65625 17.4375 39.65625 24.078125 
L 39.65625 51.859375 
L 48.4375 51.859375 
L 48.4375 0 
z
" id="ArialMT-117"/>
     <path d="M 3.328125 25.921875 
Q 3.328125 40.328125 11.328125 47.265625 
Q 18.015625 53.03125 27.640625 53.03125 
Q 38.328125 53.03125 45.109375 46.015625 
Q 51.90625 39.015625 51.90625 26.65625 
Q 51.90625 16.65625 48.90625 10.90625 
Q 45.90625 5.171875 40.15625 2 
Q 34.421875 -1.171875 27.640625 -1.171875 
Q 16.75 -1.171875 10.03125 5.8125 
Q 3.328125 12.796875 3.328125 25.921875 
z
M 12.359375 25.921875 
Q 12.359375 15.96875 16.703125 11.015625 
Q 21.046875 6.0625 27.640625 6.0625 
Q 34.1875 6.0625 38.53125 11.03125 
Q 42.875 16.015625 42.875 26.21875 
Q 42.875 35.84375 38.5 40.796875 
Q 34.125 45.75 27.640625 45.75 
Q 21.046875 45.75 16.703125 40.8125 
Q 12.359375 35.890625 12.359375 25.921875 
z
" id="ArialMT-111"/>
     <path d="M 6.59375 0 
L 6.59375 51.859375 
L 14.5 51.859375 
L 14.5 44.484375 
Q 20.21875 53.03125 31 53.03125 
Q 35.6875 53.03125 39.625 51.34375 
Q 43.5625 49.65625 45.515625 46.921875 
Q 47.46875 44.1875 48.25 40.4375 
Q 48.734375 37.984375 48.734375 31.890625 
L 48.734375 0 
L 39.9375 0 
L 39.9375 31.546875 
Q 39.9375 36.921875 38.90625 39.578125 
Q 37.890625 42.234375 35.28125 43.8125 
Q 32.671875 45.40625 29.15625 45.40625 
Q 23.53125 45.40625 19.453125 41.84375 
Q 15.375 38.28125 15.375 28.328125 
L 15.375 0 
z
" id="ArialMT-110"/>
    </defs>
    <g style="fill:#262626;" transform="translate(178.377187 28.56)scale(0.12 -0.12)">
     <use xlink:href="#ArialMT-66"/>
     <use x="66.699219" xlink:href="#ArialMT-101"/>
     <use x="122.314453" xlink:href="#ArialMT-116"/>
     <use x="150.097656" xlink:href="#ArialMT-97"/>
     <use x="205.712891" xlink:href="#ArialMT-32"/>
     <use x="233.496094" xlink:href="#ArialMT-100"/>
     <use x="289.111328" xlink:href="#ArialMT-105"/>
     <use x="311.328125" xlink:href="#ArialMT-115"/>
     <use x="361.328125" xlink:href="#ArialMT-116"/>
     <use x="389.111328" xlink:href="#ArialMT-114"/>
     <use x="422.412109" xlink:href="#ArialMT-105"/>
     <use x="444.628906" xlink:href="#ArialMT-98"/>
     <use x="500.244141" xlink:href="#ArialMT-117"/>
     <use x="555.859375" xlink:href="#ArialMT-116"/>
     <use x="583.642578" xlink:href="#ArialMT-105"/>
     <use x="605.859375" xlink:href="#ArialMT-111"/>
     <use x="661.474609" xlink:href="#ArialMT-110"/>
    </g>
   </g>
   <g id="legend_1">
    <g id="line2d_17">
     <path d="M 63 114.03 
L 83 114.03 
" style="fill:none;stroke:#348fea;stroke-linecap:round;stroke-width:1.5;"/>
    </g>
    <g id="line2d_18"/>
    <g id="text_13">
     <!-- n_0=0, n_1=1 -->
     <defs>
      <path d="M -1.515625 -19.875 
L -1.515625 -13.53125 
L 56.734375 -13.53125 
L 56.734375 -19.875 
z
" id="ArialMT-95"/>
      <path d="M 52.828125 42.09375 
L 5.5625 42.09375 
L 5.5625 50.296875 
L 52.828125 50.296875 
z
M 52.828125 20.359375 
L 5.5625 20.359375 
L 5.5625 28.5625 
L 52.828125 28.5625 
z
" id="ArialMT-61"/>
      <path d="M 8.890625 0 
L 8.890625 10.015625 
L 18.890625 10.015625 
L 18.890625 0 
Q 18.890625 -5.515625 16.9375 -8.90625 
Q 14.984375 -12.3125 10.75 -14.15625 
L 8.296875 -10.40625 
Q 11.078125 -9.1875 12.390625 -6.8125 
Q 13.71875 -4.4375 13.875 0 
z
" id="ArialMT-44"/>
     </defs>
     <g style="fill:#262626;" transform="translate(91 117.53)scale(0.1 -0.1)">
      <use xlink:href="#ArialMT-110"/>
      <use x="55.615234" xlink:href="#ArialMT-95"/>
      <use x="111.230469" xlink:href="#ArialMT-48"/>
      <use x="166.845703" xlink:href="#ArialMT-61"/>
      <use x="225.244141" xlink:href="#ArialMT-48"/>
      <use x="280.859375" xlink:href="#ArialMT-44"/>
      <use x="308.642578" xlink:href="#ArialMT-32"/>
      <use x="336.425781" xlink:href="#ArialMT-110"/>
      <use x="392.041016" xlink:href="#ArialMT-95"/>
      <use x="447.65625" xlink:href="#ArialMT-49"/>
      <use x="503.271484" xlink:href="#ArialMT-61"/>
      <use x="561.669922" xlink:href="#ArialMT-49"/>
     </g>
    </g>
    <g id="line2d_19">
     <path d="M 63 128.205 
L 83 128.205 
" style="fill:none;stroke:#4cb9c0;stroke-linecap:round;stroke-width:1.5;"/>
    </g>
    <g id="line2d_20"/>
    <g id="text_14">
     <!-- n_0=1, n_1=1 -->
     <g style="fill:#262626;" transform="translate(91 131.705)scale(0.1 -0.1)">
      <use xlink:href="#ArialMT-110"/>
      <use x="55.615234" xlink:href="#ArialMT-95"/>
      <use x="111.230469" xlink:href="#ArialMT-48"/>
      <use x="166.845703" xlink:href="#ArialMT-61"/>
      <use x="225.244141" xlink:href="#ArialMT-49"/>
      <use x="280.859375" xlink:href="#ArialMT-44"/>
      <use x="308.642578" xlink:href="#ArialMT-32"/>
      <use x="336.425781" xlink:href="#ArialMT-110"/>
      <use x="392.041016" xlink:href="#ArialMT-95"/>
      <use x="447.65625" xlink:href="#ArialMT-49"/>
      <use x="503.271484" xlink:href="#ArialMT-61"/>
      <use x="561.669922" xlink:href="#ArialMT-49"/>
     </g>
    </g>
    <g id="line2d_21">
     <path d="M 63 142.38 
L 83 142.38 
" style="fill:none;stroke:#97c804;stroke-linecap:round;stroke-width:1.5;"/>
    </g>
    <g id="line2d_22"/>
    <g id="text_15">
     <!-- n_0=1, n_1=9 -->
     <defs>
      <path d="M 5.46875 16.546875 
L 13.921875 17.328125 
Q 14.984375 11.375 18.015625 8.6875 
Q 21.046875 6 25.78125 6 
Q 29.828125 6 32.875 7.859375 
Q 35.9375 9.71875 37.890625 12.8125 
Q 39.84375 15.921875 41.15625 21.1875 
Q 42.484375 26.46875 42.484375 31.9375 
Q 42.484375 32.515625 42.4375 33.6875 
Q 39.796875 29.5 35.234375 26.875 
Q 30.671875 24.265625 25.34375 24.265625 
Q 16.453125 24.265625 10.296875 30.703125 
Q 4.15625 37.15625 4.15625 47.703125 
Q 4.15625 58.59375 10.578125 65.234375 
Q 17 71.875 26.65625 71.875 
Q 33.640625 71.875 39.421875 68.109375 
Q 45.21875 64.359375 48.21875 57.390625 
Q 51.21875 50.4375 51.21875 37.25 
Q 51.21875 23.53125 48.234375 15.40625 
Q 45.265625 7.28125 39.375 3.03125 
Q 33.5 -1.21875 25.59375 -1.21875 
Q 17.1875 -1.21875 11.859375 3.4375 
Q 6.546875 8.109375 5.46875 16.546875 
z
M 41.453125 48.140625 
Q 41.453125 55.71875 37.421875 60.15625 
Q 33.40625 64.59375 27.734375 64.59375 
Q 21.875 64.59375 17.53125 59.8125 
Q 13.1875 55.03125 13.1875 47.40625 
Q 13.1875 40.578125 17.3125 36.296875 
Q 21.4375 32.03125 27.484375 32.03125 
Q 33.59375 32.03125 37.515625 36.296875 
Q 41.453125 40.578125 41.453125 48.140625 
z
" id="ArialMT-57"/>
     </defs>
     <g style="fill:#262626;" transform="translate(91 145.88)scale(0.1 -0.1)">
      <use xlink:href="#ArialMT-110"/>
      <use x="55.615234" xlink:href="#ArialMT-95"/>
      <use x="111.230469" xlink:href="#ArialMT-48"/>
      <use x="166.845703" xlink:href="#ArialMT-61"/>
      <use x="225.244141" xlink:href="#ArialMT-49"/>
      <use x="280.859375" xlink:href="#ArialMT-44"/>
      <use x="308.642578" xlink:href="#ArialMT-32"/>
      <use x="336.425781" xlink:href="#ArialMT-110"/>
      <use x="392.041016" xlink:href="#ArialMT-95"/>
      <use x="447.65625" xlink:href="#ArialMT-49"/>
      <use x="503.271484" xlink:href="#ArialMT-61"/>
      <use x="561.669922" xlink:href="#ArialMT-57"/>
     </g>
    </g>
    <g id="line2d_23">
     <path d="M 63 156.555 
L 83 156.555 
" style="fill:none;stroke:#ffc100;stroke-linecap:round;stroke-width:1.5;"/>
    </g>
    <g id="line2d_24"/>
    <g id="text_16">
     <!-- n_0=8, n_1=2 -->
     <g style="fill:#262626;" transform="translate(91 160.055)scale(0.1 -0.1)">
      <use xlink:href="#ArialMT-110"/>
      <use x="55.615234" xlink:href="#ArialMT-95"/>
      <use x="111.230469" xlink:href="#ArialMT-48"/>
      <use x="166.845703" xlink:href="#ArialMT-61"/>
      <use x="225.244141" xlink:href="#ArialMT-56"/>
      <use x="280.859375" xlink:href="#ArialMT-44"/>
      <use x="308.642578" xlink:href="#ArialMT-32"/>
      <use x="336.425781" xlink:href="#ArialMT-110"/>
      <use x="392.041016" xlink:href="#ArialMT-95"/>
      <use x="447.65625" xlink:href="#ArialMT-49"/>
      <use x="503.271484" xlink:href="#ArialMT-61"/>
      <use x="561.669922" xlink:href="#ArialMT-50"/>
     </g>
    </g>
    <g id="line2d_25">
     <path d="M 63 170.73 
L 83 170.73 
" style="fill:none;stroke:#e06a27;stroke-linecap:round;stroke-width:1.5;"/>
    </g>
    <g id="line2d_26"/>
    <g id="text_17">
     <!-- n_0=9, n_1=9 -->
     <g style="fill:#262626;" transform="translate(91 174.23)scale(0.1 -0.1)">
      <use xlink:href="#ArialMT-110"/>
      <use x="55.615234" xlink:href="#ArialMT-95"/>
      <use x="111.230469" xlink:href="#ArialMT-48"/>
      <use x="166.845703" xlink:href="#ArialMT-61"/>
      <use x="225.244141" xlink:href="#ArialMT-57"/>
      <use x="280.859375" xlink:href="#ArialMT-44"/>
      <use x="308.642578" xlink:href="#ArialMT-32"/>
      <use x="336.425781" xlink:href="#ArialMT-110"/>
      <use x="392.041016" xlink:href="#ArialMT-95"/>
      <use x="447.65625" xlink:href="#ArialMT-49"/>
      <use x="503.271484" xlink:href="#ArialMT-61"/>
      <use x="561.669922" xlink:href="#ArialMT-57"/>
     </g>
    </g>
   </g>
  </g>
 </g>
 <defs>
  <clipPath id="pbca49d4067">
   <rect height="217.44" width="334.8" x="54" y="34.56"/>
  </clipPath>
 </defs>
</svg>
