<?xml version="1.0" encoding="utf-8" standalone="no"?>
<!DOCTYPE svg PUBLIC "-//W3C//DTD SVG 1.1//EN"
  "http://www.w3.org/Graphics/SVG/1.1/DTD/svg11.dtd">
<!-- Created with matplotlib (https://matplotlib.org/) -->
<svg height="864pt" version="1.1" viewBox="0 0 864 864" width="864pt" xmlns="http://www.w3.org/2000/svg" xmlns:xlink="http://www.w3.org/1999/xlink">
 <defs>
  <style type="text/css">
*{stroke-linecap:butt;stroke-linejoin:round;}
  </style>
 </defs>
 <g id="figure_1">
  <g id="patch_1">
   <path d="M 0 864 
L 864 864 
L 864 0 
L 0 0 
z
" style="fill:#ffffff;"/>
  </g>
  <g id="axes_1">
   <g id="patch_2">
    <path d="M 108 400.189091 
L 412.363636 400.189091 
L 412.363636 103.68 
L 108 103.68 
z
" style="fill:#ffffff;"/>
   </g>
   <g id="matplotlib.axis_1">
    <g id="xtick_1">
     <g id="line2d_1"/>
     <g id="text_1">
      <!-- −1.5 -->
      <defs>
       <path d="M 52.828125 31.203125 
L 5.5625 31.203125 
L 5.5625 39.40625 
L 52.828125 39.40625 
z
" id="ArialMT-8722"/>
       <path d="M 37.25 0 
L 28.46875 0 
L 28.46875 56 
Q 25.296875 52.984375 20.140625 49.953125 
Q 14.984375 46.921875 10.890625 45.40625 
L 10.890625 53.90625 
Q 18.265625 57.375 23.78125 62.296875 
Q 29.296875 67.234375 31.59375 71.875 
L 37.25 71.875 
z
" id="ArialMT-49"/>
       <path d="M 9.078125 0 
L 9.078125 10.015625 
L 19.09375 10.015625 
L 19.09375 0 
z
" id="ArialMT-46"/>
       <path d="M 4.15625 18.75 
L 13.375 19.53125 
Q 14.40625 12.796875 18.140625 9.390625 
Q 21.875 6 27.15625 6 
Q 33.5 6 37.890625 10.78125 
Q 42.28125 15.578125 42.28125 23.484375 
Q 42.28125 31 38.0625 35.34375 
Q 33.84375 39.703125 27 39.703125 
Q 22.75 39.703125 19.328125 37.765625 
Q 15.921875 35.84375 13.96875 32.765625 
L 5.71875 33.84375 
L 12.640625 70.609375 
L 48.25 70.609375 
L 48.25 62.203125 
L 19.671875 62.203125 
L 15.828125 42.96875 
Q 22.265625 47.46875 29.34375 47.46875 
Q 38.71875 47.46875 45.15625 40.96875 
Q 51.609375 34.46875 51.609375 24.265625 
Q 51.609375 14.546875 45.953125 7.46875 
Q 39.0625 -1.21875 27.15625 -1.21875 
Q 17.390625 -1.21875 11.203125 4.25 
Q 5.03125 9.71875 4.15625 18.75 
z
" id="ArialMT-53"/>
      </defs>
      <g style="fill:#262626;" transform="translate(109.213786 410.846903)scale(0.1 -0.1)">
       <use xlink:href="#ArialMT-8722"/>
       <use x="58.398438" xlink:href="#ArialMT-49"/>
       <use x="114.013672" xlink:href="#ArialMT-46"/>
       <use x="141.796875" xlink:href="#ArialMT-53"/>
      </g>
     </g>
    </g>
    <g id="xtick_2">
     <g id="line2d_2"/>
     <g id="text_2">
      <!-- −1.0 -->
      <defs>
       <path d="M 4.15625 35.296875 
Q 4.15625 48 6.765625 55.734375 
Q 9.375 63.484375 14.515625 67.671875 
Q 19.671875 71.875 27.484375 71.875 
Q 33.25 71.875 37.59375 69.546875 
Q 41.9375 67.234375 44.765625 62.859375 
Q 47.609375 58.5 49.21875 52.21875 
Q 50.828125 45.953125 50.828125 35.296875 
Q 50.828125 22.703125 48.234375 14.96875 
Q 45.65625 7.234375 40.5 3 
Q 35.359375 -1.21875 27.484375 -1.21875 
Q 17.140625 -1.21875 11.234375 6.203125 
Q 4.15625 15.140625 4.15625 35.296875 
z
M 13.1875 35.296875 
Q 13.1875 17.671875 17.3125 11.828125 
Q 21.4375 6 27.484375 6 
Q 33.546875 6 37.671875 11.859375 
Q 41.796875 17.71875 41.796875 35.296875 
Q 41.796875 52.984375 37.671875 58.78125 
Q 33.546875 64.59375 27.390625 64.59375 
Q 21.34375 64.59375 17.71875 59.46875 
Q 13.1875 52.9375 13.1875 35.296875 
z
" id="ArialMT-48"/>
      </defs>
      <g style="fill:#262626;" transform="translate(145.620919 410.846903)scale(0.1 -0.1)">
       <use xlink:href="#ArialMT-8722"/>
       <use x="58.398438" xlink:href="#ArialMT-49"/>
       <use x="114.013672" xlink:href="#ArialMT-46"/>
       <use x="141.796875" xlink:href="#ArialMT-48"/>
      </g>
     </g>
    </g>
    <g id="xtick_3">
     <g id="line2d_3"/>
     <g id="text_3">
      <!-- −0.5 -->
      <g style="fill:#262626;" transform="translate(182.028053 410.846903)scale(0.1 -0.1)">
       <use xlink:href="#ArialMT-8722"/>
       <use x="58.398438" xlink:href="#ArialMT-48"/>
       <use x="114.013672" xlink:href="#ArialMT-46"/>
       <use x="141.796875" xlink:href="#ArialMT-53"/>
      </g>
     </g>
    </g>
    <g id="xtick_4">
     <g id="line2d_4"/>
     <g id="text_4">
      <!-- 0.0 -->
      <g style="fill:#262626;" transform="translate(221.355499 410.846903)scale(0.1 -0.1)">
       <use xlink:href="#ArialMT-48"/>
       <use x="55.615234" xlink:href="#ArialMT-46"/>
       <use x="83.398438" xlink:href="#ArialMT-48"/>
      </g>
     </g>
    </g>
    <g id="xtick_5">
     <g id="line2d_5"/>
     <g id="text_5">
      <!-- 0.5 -->
      <g style="fill:#262626;" transform="translate(257.762632 410.846903)scale(0.1 -0.1)">
       <use xlink:href="#ArialMT-48"/>
       <use x="55.615234" xlink:href="#ArialMT-46"/>
       <use x="83.398438" xlink:href="#ArialMT-53"/>
      </g>
     </g>
    </g>
    <g id="xtick_6">
     <g id="line2d_6"/>
     <g id="text_6">
      <!-- 1.0 -->
      <g style="fill:#262626;" transform="translate(294.169766 410.846903)scale(0.1 -0.1)">
       <use xlink:href="#ArialMT-49"/>
       <use x="55.615234" xlink:href="#ArialMT-46"/>
       <use x="83.398438" xlink:href="#ArialMT-48"/>
      </g>
     </g>
    </g>
    <g id="xtick_7">
     <g id="line2d_7"/>
     <g id="text_7">
      <!-- 1.5 -->
      <g style="fill:#262626;" transform="translate(330.576899 410.846903)scale(0.1 -0.1)">
       <use xlink:href="#ArialMT-49"/>
       <use x="55.615234" xlink:href="#ArialMT-46"/>
       <use x="83.398438" xlink:href="#ArialMT-53"/>
      </g>
     </g>
    </g>
    <g id="xtick_8">
     <g id="line2d_8"/>
     <g id="text_8">
      <!-- 2.0 -->
      <defs>
       <path d="M 50.34375 8.453125 
L 50.34375 0 
L 3.03125 0 
Q 2.9375 3.171875 4.046875 6.109375 
Q 5.859375 10.9375 9.828125 15.625 
Q 13.8125 20.3125 21.34375 26.46875 
Q 33.015625 36.03125 37.109375 41.625 
Q 41.21875 47.21875 41.21875 52.203125 
Q 41.21875 57.421875 37.46875 61 
Q 33.734375 64.59375 27.734375 64.59375 
Q 21.390625 64.59375 17.578125 60.78125 
Q 13.765625 56.984375 13.71875 50.25 
L 4.6875 51.171875 
Q 5.609375 61.28125 11.65625 66.578125 
Q 17.71875 71.875 27.9375 71.875 
Q 38.234375 71.875 44.234375 66.15625 
Q 50.25 60.453125 50.25 52 
Q 50.25 47.703125 48.484375 43.546875 
Q 46.734375 39.40625 42.65625 34.8125 
Q 38.578125 30.21875 29.109375 22.21875 
Q 21.1875 15.578125 18.9375 13.203125 
Q 16.703125 10.84375 15.234375 8.453125 
z
" id="ArialMT-50"/>
      </defs>
      <g style="fill:#262626;" transform="translate(366.984033 410.846903)scale(0.1 -0.1)">
       <use xlink:href="#ArialMT-50"/>
       <use x="55.615234" xlink:href="#ArialMT-46"/>
       <use x="83.398438" xlink:href="#ArialMT-48"/>
      </g>
     </g>
    </g>
    <g id="xtick_9">
     <g id="line2d_9"/>
     <g id="text_9">
      <!-- 2.5 -->
      <g style="fill:#262626;" transform="translate(403.391166 410.846903)scale(0.1 -0.1)">
       <use xlink:href="#ArialMT-50"/>
       <use x="55.615234" xlink:href="#ArialMT-46"/>
       <use x="83.398438" xlink:href="#ArialMT-53"/>
      </g>
     </g>
    </g>
   </g>
   <g id="matplotlib.axis_2">
    <g id="ytick_1">
     <g id="line2d_10"/>
     <g id="text_10">
      <!-- −2 -->
      <g style="fill:#262626;" transform="translate(93.098438 403.767997)scale(0.1 -0.1)">
       <use xlink:href="#ArialMT-8722"/>
       <use x="58.398438" xlink:href="#ArialMT-50"/>
      </g>
     </g>
    </g>
    <g id="ytick_2">
     <g id="line2d_11"/>
     <g id="text_11">
      <!-- 0 -->
      <g style="fill:#262626;" transform="translate(98.939063 361.409556)scale(0.1 -0.1)">
       <use xlink:href="#ArialMT-48"/>
      </g>
     </g>
    </g>
    <g id="ytick_3">
     <g id="line2d_12"/>
     <g id="text_12">
      <!-- 2 -->
      <g style="fill:#262626;" transform="translate(98.939063 319.051114)scale(0.1 -0.1)">
       <use xlink:href="#ArialMT-50"/>
      </g>
     </g>
    </g>
    <g id="ytick_4">
     <g id="line2d_13"/>
     <g id="text_13">
      <!-- 4 -->
      <defs>
       <path d="M 32.328125 0 
L 32.328125 17.140625 
L 1.265625 17.140625 
L 1.265625 25.203125 
L 33.9375 71.578125 
L 41.109375 71.578125 
L 41.109375 25.203125 
L 50.78125 25.203125 
L 50.78125 17.140625 
L 41.109375 17.140625 
L 41.109375 0 
z
M 32.328125 25.203125 
L 32.328125 57.46875 
L 9.90625 25.203125 
z
" id="ArialMT-52"/>
      </defs>
      <g style="fill:#262626;" transform="translate(98.939063 276.692672)scale(0.1 -0.1)">
       <use xlink:href="#ArialMT-52"/>
      </g>
     </g>
    </g>
    <g id="ytick_5">
     <g id="line2d_14"/>
     <g id="text_14">
      <!-- 6 -->
      <defs>
       <path d="M 49.75 54.046875 
L 41.015625 53.375 
Q 39.84375 58.546875 37.703125 60.890625 
Q 34.125 64.65625 28.90625 64.65625 
Q 24.703125 64.65625 21.53125 62.3125 
Q 17.390625 59.28125 14.984375 53.46875 
Q 12.59375 47.65625 12.5 36.921875 
Q 15.671875 41.75 20.265625 44.09375 
Q 24.859375 46.4375 29.890625 46.4375 
Q 38.671875 46.4375 44.84375 39.96875 
Q 51.03125 33.5 51.03125 23.25 
Q 51.03125 16.5 48.125 10.71875 
Q 45.21875 4.9375 40.140625 1.859375 
Q 35.0625 -1.21875 28.609375 -1.21875 
Q 17.625 -1.21875 10.6875 6.859375 
Q 3.765625 14.9375 3.765625 33.5 
Q 3.765625 54.25 11.421875 63.671875 
Q 18.109375 71.875 29.4375 71.875 
Q 37.890625 71.875 43.28125 67.140625 
Q 48.6875 62.40625 49.75 54.046875 
z
M 13.875 23.1875 
Q 13.875 18.65625 15.796875 14.5 
Q 17.71875 10.359375 21.1875 8.171875 
Q 24.65625 6 28.46875 6 
Q 34.03125 6 38.03125 10.484375 
Q 42.046875 14.984375 42.046875 22.703125 
Q 42.046875 30.125 38.078125 34.390625 
Q 34.125 38.671875 28.125 38.671875 
Q 22.171875 38.671875 18.015625 34.390625 
Q 13.875 30.125 13.875 23.1875 
z
" id="ArialMT-54"/>
      </defs>
      <g style="fill:#262626;" transform="translate(98.939063 234.334231)scale(0.1 -0.1)">
       <use xlink:href="#ArialMT-54"/>
      </g>
     </g>
    </g>
    <g id="ytick_6">
     <g id="line2d_15"/>
     <g id="text_15">
      <!-- 8 -->
      <defs>
       <path d="M 17.671875 38.8125 
Q 12.203125 40.828125 9.5625 44.53125 
Q 6.9375 48.25 6.9375 53.421875 
Q 6.9375 61.234375 12.546875 66.546875 
Q 18.171875 71.875 27.484375 71.875 
Q 36.859375 71.875 42.578125 66.421875 
Q 48.296875 60.984375 48.296875 53.171875 
Q 48.296875 48.1875 45.671875 44.5 
Q 43.0625 40.828125 37.75 38.8125 
Q 44.34375 36.671875 47.78125 31.875 
Q 51.21875 27.09375 51.21875 20.453125 
Q 51.21875 11.28125 44.71875 5.03125 
Q 38.234375 -1.21875 27.640625 -1.21875 
Q 17.046875 -1.21875 10.546875 5.046875 
Q 4.046875 11.328125 4.046875 20.703125 
Q 4.046875 27.6875 7.59375 32.390625 
Q 11.140625 37.109375 17.671875 38.8125 
z
M 15.921875 53.71875 
Q 15.921875 48.640625 19.1875 45.40625 
Q 22.46875 42.1875 27.6875 42.1875 
Q 32.765625 42.1875 36.015625 45.375 
Q 39.265625 48.578125 39.265625 53.21875 
Q 39.265625 58.0625 35.90625 61.359375 
Q 32.5625 64.65625 27.59375 64.65625 
Q 22.5625 64.65625 19.234375 61.421875 
Q 15.921875 58.203125 15.921875 53.71875 
z
M 13.09375 20.65625 
Q 13.09375 16.890625 14.875 13.375 
Q 16.65625 9.859375 20.171875 7.921875 
Q 23.6875 6 27.734375 6 
Q 34.03125 6 38.125 10.046875 
Q 42.234375 14.109375 42.234375 20.359375 
Q 42.234375 26.703125 38.015625 30.859375 
Q 33.796875 35.015625 27.4375 35.015625 
Q 21.234375 35.015625 17.15625 30.90625 
Q 13.09375 26.8125 13.09375 20.65625 
z
" id="ArialMT-56"/>
      </defs>
      <g style="fill:#262626;" transform="translate(98.939063 191.975789)scale(0.1 -0.1)">
       <use xlink:href="#ArialMT-56"/>
      </g>
     </g>
    </g>
    <g id="ytick_7">
     <g id="line2d_16"/>
     <g id="text_16">
      <!-- 10 -->
      <g style="fill:#262626;" transform="translate(93.378125 149.617348)scale(0.1 -0.1)">
       <use xlink:href="#ArialMT-49"/>
       <use x="55.615234" xlink:href="#ArialMT-48"/>
      </g>
     </g>
    </g>
    <g id="ytick_8">
     <g id="line2d_17"/>
     <g id="text_17">
      <!-- 12 -->
      <g style="fill:#262626;" transform="translate(93.378125 107.258906)scale(0.1 -0.1)">
       <use xlink:href="#ArialMT-49"/>
       <use x="55.615234" xlink:href="#ArialMT-50"/>
      </g>
     </g>
    </g>
   </g>
   <g id="PathCollection_1">
    <defs>
     <path d="M 0 3 
C 0.795609 3 1.55874 2.683901 2.12132 2.12132 
C 2.683901 1.55874 3 0.795609 3 0 
C 3 -0.795609 2.683901 -1.55874 2.12132 -2.12132 
C 1.55874 -2.683901 0.795609 -3 0 -3 
C -0.795609 -3 -1.55874 -2.683901 -2.12132 -2.12132 
C -2.683901 -1.55874 -3 -0.795609 -3 0 
C -3 0.795609 -2.683901 1.55874 -2.12132 2.12132 
C -1.55874 2.683901 -0.795609 3 0 3 
z
" id="ma2f37f775b" style="stroke:#3b4856;"/>
    </defs>
    <g clip-path="url(#pf302d78e56)">
     <use style="fill:#3b4856;stroke:#3b4856;" x="345.876829" xlink:href="#ma2f37f775b" y="237.160716"/>
     <use style="fill:#3b4856;stroke:#3b4856;" x="312.436867" xlink:href="#ma2f37f775b" y="321.875266"/>
     <use style="fill:#3b4856;stroke:#3b4856;" x="294.004689" xlink:href="#ma2f37f775b" y="312.738878"/>
     <use style="fill:#3b4856;stroke:#3b4856;" x="334.391088" xlink:href="#ma2f37f775b" y="272.240912"/>
    </g>
   </g>
   <g id="line2d_18">
    <path clip-path="url(#pf302d78e56)" d="M 121.834711 389.331327 
L 136.397564 383.807886 
L 150.960418 379.358481 
L 165.523271 375.629915 
L 180.086124 372.268988 
L 194.648978 368.922505 
L 209.211831 365.237267 
L 223.774685 360.860076 
L 238.337538 355.437734 
L 252.900391 348.617045 
L 267.463245 340.04481 
L 282.026098 329.367831 
L 296.588952 316.232911 
L 311.151805 300.286853 
L 325.714659 281.176457 
L 340.277512 258.548528 
L 354.840365 232.049866 
L 369.403219 201.327275 
L 383.966072 166.027556 
L 398.528926 125.797512 
" style="fill:none;stroke:#ffc100;stroke-linecap:round;stroke-width:1.5;"/>
   </g>
   <g id="line2d_19">
    <path clip-path="url(#pf302d78e56)" d="M 121.834711 287.286594 
L 136.397564 294.40516 
L 150.960418 302.409537 
L 165.523271 310.816018 
L 180.086124 319.1409 
L 194.648978 326.900476 
L 209.211831 333.611043 
L 223.774685 338.788895 
L 238.337538 341.950327 
L 252.900391 342.611634 
L 267.463245 340.289111 
L 282.026098 334.499053 
L 296.588952 324.757755 
L 311.151805 310.581513 
L 325.714659 291.48662 
L 340.277512 266.989373 
L 354.840365 236.606066 
L 369.403219 199.852994 
L 383.966072 156.246452 
L 398.528926 105.302735 
" style="fill:none;stroke:#ffc100;stroke-linecap:round;stroke-width:1.5;"/>
   </g>
   <g id="line2d_20">
    <path clip-path="url(#pf302d78e56)" d="M 121.834711 502.968664 
L 136.397564 460.15129 
L 150.960418 426.94046 
L 165.523271 402.008901 
L 180.086124 384.029341 
L 194.648978 371.674509 
L 209.211831 363.617131 
L 223.774685 358.529935 
L 238.337538 355.085649 
L 252.900391 351.957001 
L 267.463245 347.816717 
L 282.026098 341.337527 
L 296.588952 331.192157 
L 311.151805 316.053334 
L 325.714659 294.593788 
L 340.277512 265.486245 
L 354.840365 227.403433 
L 369.403219 179.01808 
L 383.966072 119.002913 
L 398.528926 46.03066 
" style="fill:none;stroke:#ffc100;stroke-linecap:round;stroke-width:1.5;"/>
   </g>
   <g id="line2d_21">
    <path clip-path="url(#pf302d78e56)" d="M 121.834711 365.010557 
L 136.397564 355.966531 
L 150.960418 349.18418 
L 165.523271 344.205025 
L 180.086124 340.570585 
L 194.648978 337.82238 
L 209.211831 335.501929 
L 223.774685 333.150752 
L 238.337538 330.31037 
L 252.900391 326.522302 
L 267.463245 321.328067 
L 282.026098 314.269186 
L 296.588952 304.887179 
L 311.151805 292.723564 
L 325.714659 277.319863 
L 340.277512 258.217594 
L 354.840365 234.958278 
L 369.403219 207.083434 
L 383.966072 174.134582 
L 398.528926 135.653242 
" style="fill:none;stroke:#ffc100;stroke-linecap:round;stroke-width:1.5;"/>
   </g>
   <g id="line2d_22">
    <path clip-path="url(#pf302d78e56)" d="M 121.834711 474.613619 
L 136.397564 436.026896 
L 150.960418 405.659392 
L 165.523271 382.437684 
L 180.086124 365.288347 
L 194.648978 353.137958 
L 209.211831 344.913091 
L 223.774685 339.540324 
L 238.337538 335.94623 
L 252.900391 333.057386 
L 267.463245 329.800369 
L 282.026098 325.101752 
L 296.588952 317.888113 
L 311.151805 307.086027 
L 325.714659 291.622069 
L 340.277512 270.422815 
L 354.840365 242.414841 
L 369.403219 206.524723 
L 383.966072 161.679036 
L 398.528926 106.804357 
" style="fill:none;stroke:#ffc100;stroke-linecap:round;stroke-width:1.5;"/>
   </g>
   <g id="line2d_23">
    <path clip-path="url(#pf302d78e56)" d="M 121.834711 383.168942 
L 136.397564 372.066836 
L 150.960418 366.312699 
L 165.523271 364.748376 
L 180.086124 366.215711 
L 194.648978 369.55655 
L 209.211831 373.612738 
L 223.774685 377.22612 
L 238.337538 379.238541 
L 252.900391 378.491846 
L 267.463245 373.82788 
L 282.026098 364.088488 
L 296.588952 348.115516 
L 311.151805 324.750807 
L 325.714659 292.836208 
L 340.277512 251.213564 
L 354.840365 198.724719 
L 369.403219 134.211518 
L 383.966072 56.515807 
L 393.066759 -1 
" style="fill:none;stroke:#ffc100;stroke-linecap:round;stroke-width:1.5;"/>
   </g>
   <g id="line2d_24">
    <path clip-path="url(#pf302d78e56)" d="M 121.834711 369.075574 
L 136.397564 355.862231 
L 150.960418 347.194068 
L 165.523271 342.199516 
L 180.086124 340.007009 
L 194.648978 339.744978 
L 209.211831 340.541858 
L 223.774685 341.52608 
L 238.337538 341.826078 
L 252.900391 340.570284 
L 267.463245 336.887131 
L 282.026098 329.905052 
L 296.588952 318.75248 
L 311.151805 302.557847 
L 325.714659 280.449586 
L 340.277512 251.55613 
L 354.840365 215.005912 
L 369.403219 169.927364 
L 383.966072 115.44892 
L 398.528926 50.699012 
" style="fill:none;stroke:#ffc100;stroke-linecap:round;stroke-width:1.5;"/>
   </g>
   <g id="line2d_25">
    <path clip-path="url(#pf302d78e56)" d="M 121.834711 411.256846 
L 136.397564 380.766965 
L 150.960418 359.691978 
L 165.523271 346.511248 
L 180.086124 339.704137 
L 194.648978 337.750008 
L 209.211831 339.128224 
L 223.774685 342.318146 
L 238.337538 345.799138 
L 252.900391 348.050561 
L 267.463245 347.55178 
L 282.026098 342.782155 
L 296.588952 332.22105 
L 311.151805 314.347828 
L 325.714659 287.64185 
L 340.277512 250.582479 
L 354.840365 201.649079 
L 369.403219 139.321011 
L 383.966072 62.077637 
L 393.771763 -1 
" style="fill:none;stroke:#ffc100;stroke-linecap:round;stroke-width:1.5;"/>
   </g>
   <g id="line2d_26">
    <path clip-path="url(#pf302d78e56)" d="M 121.834711 468.36427 
L 136.397564 438.62524 
L 150.960418 414.937675 
L 165.523271 396.408442 
L 180.086124 382.144405 
L 194.648978 371.25243 
L 209.211831 362.839383 
L 223.774685 356.012129 
L 238.337538 349.877532 
L 252.900391 343.54246 
L 267.463245 336.113777 
L 282.026098 326.698348 
L 296.588952 314.403039 
L 311.151805 298.334716 
L 325.714659 277.600244 
L 340.277512 251.306488 
L 354.840365 218.560314 
L 369.403219 178.468587 
L 383.966072 130.138172 
L 398.528926 72.675936 
" style="fill:none;stroke:#ffc100;stroke-linecap:round;stroke-width:1.5;"/>
   </g>
   <g id="line2d_27">
    <path clip-path="url(#pf302d78e56)" d="M 121.834711 318.110887 
L 136.397564 319.988959 
L 150.960418 322.562227 
L 165.523271 325.451747 
L 180.086124 328.278579 
L 194.648978 330.663778 
L 209.211831 332.228403 
L 223.774685 332.593511 
L 238.337538 331.380161 
L 252.900391 328.209408 
L 267.463245 322.702312 
L 282.026098 314.47993 
L 296.588952 303.163318 
L 311.151805 288.373535 
L 325.714659 269.731639 
L 340.277512 246.858686 
L 354.840365 219.375735 
L 369.403219 186.903842 
L 383.966072 149.064067 
L 398.528926 105.477465 
" style="fill:none;stroke:#ffc100;stroke-linecap:round;stroke-width:1.5;"/>
   </g>
   <g id="line2d_28">
    <path clip-path="url(#pf302d78e56)" d="M 121.834711 311.915763 
L 136.397564 302.222108 
L 150.960418 295.736404 
L 165.523271 291.95035 
L 180.086124 290.355645 
L 194.648978 290.443987 
L 209.211831 291.707075 
L 223.774685 293.636608 
L 238.337538 295.724284 
L 252.900391 297.461802 
L 267.463245 298.34086 
L 282.026098 297.853159 
L 296.588952 295.490395 
L 311.151805 290.744269 
L 325.714659 283.106478 
L 340.277512 272.068721 
L 354.840365 257.122697 
L 369.403219 237.760105 
L 383.966072 213.472643 
L 398.528926 183.75201 
" style="fill:none;stroke:#348fea;stroke-linecap:round;stroke-width:1.5;"/>
   </g>
   <g id="patch_3">
    <path d="M 108 400.189091 
L 108 103.68 
" style="fill:none;stroke:#262626;stroke-linecap:square;stroke-linejoin:miter;stroke-width:1.25;"/>
   </g>
   <g id="patch_4">
    <path d="M 412.363636 400.189091 
L 412.363636 103.68 
" style="fill:none;stroke:#262626;stroke-linecap:square;stroke-linejoin:miter;stroke-width:1.25;"/>
   </g>
   <g id="patch_5">
    <path d="M 108 400.189091 
L 412.363636 400.189091 
" style="fill:none;stroke:#262626;stroke-linecap:square;stroke-linejoin:miter;stroke-width:1.25;"/>
   </g>
   <g id="patch_6">
    <path d="M 108 103.68 
L 412.363636 103.68 
" style="fill:none;stroke:#262626;stroke-linecap:square;stroke-linejoin:miter;stroke-width:1.25;"/>
   </g>
   <g id="text_18">
    <!-- Trained on 4 points -->
    <defs>
     <path d="M 25.921875 0 
L 25.921875 63.140625 
L 2.34375 63.140625 
L 2.34375 71.578125 
L 59.078125 71.578125 
L 59.078125 63.140625 
L 35.40625 63.140625 
L 35.40625 0 
z
" id="ArialMT-84"/>
     <path d="M 6.5 0 
L 6.5 51.859375 
L 14.40625 51.859375 
L 14.40625 44 
Q 17.4375 49.515625 20 51.265625 
Q 22.5625 53.03125 25.640625 53.03125 
Q 30.078125 53.03125 34.671875 50.203125 
L 31.640625 42.046875 
Q 28.421875 43.953125 25.203125 43.953125 
Q 22.3125 43.953125 20.015625 42.21875 
Q 17.71875 40.484375 16.75 37.40625 
Q 15.28125 32.71875 15.28125 27.15625 
L 15.28125 0 
z
" id="ArialMT-114"/>
     <path d="M 40.4375 6.390625 
Q 35.546875 2.25 31.03125 0.53125 
Q 26.515625 -1.171875 21.34375 -1.171875 
Q 12.796875 -1.171875 8.203125 3 
Q 3.609375 7.171875 3.609375 13.671875 
Q 3.609375 17.484375 5.34375 20.625 
Q 7.078125 23.78125 9.890625 25.6875 
Q 12.703125 27.59375 16.21875 28.5625 
Q 18.796875 29.25 24.03125 29.890625 
Q 34.671875 31.15625 39.703125 32.90625 
Q 39.75 34.71875 39.75 35.203125 
Q 39.75 40.578125 37.25 42.78125 
Q 33.890625 45.75 27.25 45.75 
Q 21.046875 45.75 18.09375 43.578125 
Q 15.140625 41.40625 13.71875 35.890625 
L 5.125 37.0625 
Q 6.296875 42.578125 8.984375 45.96875 
Q 11.671875 49.359375 16.75 51.1875 
Q 21.828125 53.03125 28.515625 53.03125 
Q 35.15625 53.03125 39.296875 51.46875 
Q 43.453125 49.90625 45.40625 47.53125 
Q 47.359375 45.171875 48.140625 41.546875 
Q 48.578125 39.3125 48.578125 33.453125 
L 48.578125 21.734375 
Q 48.578125 9.46875 49.140625 6.21875 
Q 49.703125 2.984375 51.375 0 
L 42.1875 0 
Q 40.828125 2.734375 40.4375 6.390625 
z
M 39.703125 26.03125 
Q 34.90625 24.078125 25.34375 22.703125 
Q 19.921875 21.921875 17.671875 20.9375 
Q 15.4375 19.96875 14.203125 18.09375 
Q 12.984375 16.21875 12.984375 13.921875 
Q 12.984375 10.40625 15.640625 8.0625 
Q 18.3125 5.71875 23.4375 5.71875 
Q 28.515625 5.71875 32.46875 7.9375 
Q 36.421875 10.15625 38.28125 14.015625 
Q 39.703125 17 39.703125 22.796875 
z
" id="ArialMT-97"/>
     <path d="M 6.640625 61.46875 
L 6.640625 71.578125 
L 15.4375 71.578125 
L 15.4375 61.46875 
z
M 6.640625 0 
L 6.640625 51.859375 
L 15.4375 51.859375 
L 15.4375 0 
z
" id="ArialMT-105"/>
     <path d="M 6.59375 0 
L 6.59375 51.859375 
L 14.5 51.859375 
L 14.5 44.484375 
Q 20.21875 53.03125 31 53.03125 
Q 35.6875 53.03125 39.625 51.34375 
Q 43.5625 49.65625 45.515625 46.921875 
Q 47.46875 44.1875 48.25 40.4375 
Q 48.734375 37.984375 48.734375 31.890625 
L 48.734375 0 
L 39.9375 0 
L 39.9375 31.546875 
Q 39.9375 36.921875 38.90625 39.578125 
Q 37.890625 42.234375 35.28125 43.8125 
Q 32.671875 45.40625 29.15625 45.40625 
Q 23.53125 45.40625 19.453125 41.84375 
Q 15.375 38.28125 15.375 28.328125 
L 15.375 0 
z
" id="ArialMT-110"/>
     <path d="M 42.09375 16.703125 
L 51.171875 15.578125 
Q 49.03125 7.625 43.21875 3.21875 
Q 37.40625 -1.171875 28.375 -1.171875 
Q 17 -1.171875 10.328125 5.828125 
Q 3.65625 12.84375 3.65625 25.484375 
Q 3.65625 38.578125 10.390625 45.796875 
Q 17.140625 53.03125 27.875 53.03125 
Q 38.28125 53.03125 44.875 45.953125 
Q 51.46875 38.875 51.46875 26.03125 
Q 51.46875 25.25 51.421875 23.6875 
L 12.75 23.6875 
Q 13.234375 15.140625 17.578125 10.59375 
Q 21.921875 6.0625 28.421875 6.0625 
Q 33.25 6.0625 36.671875 8.59375 
Q 40.09375 11.140625 42.09375 16.703125 
z
M 13.234375 30.90625 
L 42.1875 30.90625 
Q 41.609375 37.453125 38.875 40.71875 
Q 34.671875 45.796875 27.984375 45.796875 
Q 21.921875 45.796875 17.796875 41.75 
Q 13.671875 37.703125 13.234375 30.90625 
z
" id="ArialMT-101"/>
     <path d="M 40.234375 0 
L 40.234375 6.546875 
Q 35.296875 -1.171875 25.734375 -1.171875 
Q 19.53125 -1.171875 14.328125 2.25 
Q 9.125 5.671875 6.265625 11.796875 
Q 3.421875 17.921875 3.421875 25.875 
Q 3.421875 33.640625 6 39.96875 
Q 8.59375 46.296875 13.765625 49.65625 
Q 18.953125 53.03125 25.34375 53.03125 
Q 30.03125 53.03125 33.6875 51.046875 
Q 37.359375 49.078125 39.65625 45.90625 
L 39.65625 71.578125 
L 48.390625 71.578125 
L 48.390625 0 
z
M 12.453125 25.875 
Q 12.453125 15.921875 16.640625 10.984375 
Q 20.84375 6.0625 26.5625 6.0625 
Q 32.328125 6.0625 36.34375 10.765625 
Q 40.375 15.484375 40.375 25.140625 
Q 40.375 35.796875 36.265625 40.765625 
Q 32.171875 45.75 26.171875 45.75 
Q 20.3125 45.75 16.375 40.96875 
Q 12.453125 36.1875 12.453125 25.875 
z
" id="ArialMT-100"/>
     <path id="ArialMT-32"/>
     <path d="M 3.328125 25.921875 
Q 3.328125 40.328125 11.328125 47.265625 
Q 18.015625 53.03125 27.640625 53.03125 
Q 38.328125 53.03125 45.109375 46.015625 
Q 51.90625 39.015625 51.90625 26.65625 
Q 51.90625 16.65625 48.90625 10.90625 
Q 45.90625 5.171875 40.15625 2 
Q 34.421875 -1.171875 27.640625 -1.171875 
Q 16.75 -1.171875 10.03125 5.8125 
Q 3.328125 12.796875 3.328125 25.921875 
z
M 12.359375 25.921875 
Q 12.359375 15.96875 16.703125 11.015625 
Q 21.046875 6.0625 27.640625 6.0625 
Q 34.1875 6.0625 38.53125 11.03125 
Q 42.875 16.015625 42.875 26.21875 
Q 42.875 35.84375 38.5 40.796875 
Q 34.125 45.75 27.640625 45.75 
Q 21.046875 45.75 16.703125 40.8125 
Q 12.359375 35.890625 12.359375 25.921875 
z
" id="ArialMT-111"/>
     <path d="M 6.59375 -19.875 
L 6.59375 51.859375 
L 14.59375 51.859375 
L 14.59375 45.125 
Q 17.4375 49.078125 21 51.046875 
Q 24.5625 53.03125 29.640625 53.03125 
Q 36.28125 53.03125 41.359375 49.609375 
Q 46.4375 46.1875 49.015625 39.953125 
Q 51.609375 33.734375 51.609375 26.3125 
Q 51.609375 18.359375 48.75 11.984375 
Q 45.90625 5.609375 40.453125 2.21875 
Q 35.015625 -1.171875 29 -1.171875 
Q 24.609375 -1.171875 21.109375 0.6875 
Q 17.625 2.546875 15.375 5.375 
L 15.375 -19.875 
z
M 14.546875 25.640625 
Q 14.546875 15.625 18.59375 10.84375 
Q 22.65625 6.0625 28.421875 6.0625 
Q 34.28125 6.0625 38.453125 11.015625 
Q 42.625 15.96875 42.625 26.375 
Q 42.625 36.28125 38.546875 41.203125 
Q 34.46875 46.140625 28.8125 46.140625 
Q 23.1875 46.140625 18.859375 40.890625 
Q 14.546875 35.640625 14.546875 25.640625 
z
" id="ArialMT-112"/>
     <path d="M 25.78125 7.859375 
L 27.046875 0.09375 
Q 23.34375 -0.6875 20.40625 -0.6875 
Q 15.625 -0.6875 12.984375 0.828125 
Q 10.359375 2.34375 9.28125 4.8125 
Q 8.203125 7.28125 8.203125 15.1875 
L 8.203125 45.015625 
L 1.765625 45.015625 
L 1.765625 51.859375 
L 8.203125 51.859375 
L 8.203125 64.703125 
L 16.9375 69.96875 
L 16.9375 51.859375 
L 25.78125 51.859375 
L 25.78125 45.015625 
L 16.9375 45.015625 
L 16.9375 14.703125 
Q 16.9375 10.9375 17.40625 9.859375 
Q 17.875 8.796875 18.921875 8.15625 
Q 19.96875 7.515625 21.921875 7.515625 
Q 23.390625 7.515625 25.78125 7.859375 
z
" id="ArialMT-116"/>
     <path d="M 3.078125 15.484375 
L 11.765625 16.84375 
Q 12.5 11.625 15.84375 8.84375 
Q 19.1875 6.0625 25.203125 6.0625 
Q 31.25 6.0625 34.171875 8.515625 
Q 37.109375 10.984375 37.109375 14.3125 
Q 37.109375 17.28125 34.515625 19 
Q 32.71875 20.171875 25.53125 21.96875 
Q 15.875 24.421875 12.140625 26.203125 
Q 8.40625 27.984375 6.46875 31.125 
Q 4.546875 34.28125 4.546875 38.09375 
Q 4.546875 41.546875 6.125 44.5 
Q 7.71875 47.46875 10.453125 49.421875 
Q 12.5 50.921875 16.03125 51.96875 
Q 19.578125 53.03125 23.640625 53.03125 
Q 29.734375 53.03125 34.34375 51.265625 
Q 38.96875 49.515625 41.15625 46.5 
Q 43.359375 43.5 44.1875 38.484375 
L 35.59375 37.3125 
Q 35.015625 41.3125 32.203125 43.546875 
Q 29.390625 45.796875 24.265625 45.796875 
Q 18.21875 45.796875 15.625 43.796875 
Q 13.03125 41.796875 13.03125 39.109375 
Q 13.03125 37.40625 14.109375 36.03125 
Q 15.1875 34.625 17.484375 33.6875 
Q 18.796875 33.203125 25.25 31.453125 
Q 34.578125 28.953125 38.25 27.359375 
Q 41.9375 25.78125 44.03125 22.75 
Q 46.140625 19.734375 46.140625 15.234375 
Q 46.140625 10.84375 43.578125 6.953125 
Q 41.015625 3.078125 36.171875 0.953125 
Q 31.34375 -1.171875 25.25 -1.171875 
Q 15.140625 -1.171875 9.84375 3.03125 
Q 4.546875 7.234375 3.078125 15.484375 
z
" id="ArialMT-115"/>
    </defs>
    <g style="fill:#262626;" transform="translate(209.044943 97.68)scale(0.12 -0.12)">
     <use xlink:href="#ArialMT-84"/>
     <use x="57.333984" xlink:href="#ArialMT-114"/>
     <use x="90.634766" xlink:href="#ArialMT-97"/>
     <use x="146.25" xlink:href="#ArialMT-105"/>
     <use x="168.466797" xlink:href="#ArialMT-110"/>
     <use x="224.082031" xlink:href="#ArialMT-101"/>
     <use x="279.697266" xlink:href="#ArialMT-100"/>
     <use x="335.3125" xlink:href="#ArialMT-32"/>
     <use x="363.095703" xlink:href="#ArialMT-111"/>
     <use x="418.710938" xlink:href="#ArialMT-110"/>
     <use x="474.326172" xlink:href="#ArialMT-32"/>
     <use x="502.109375" xlink:href="#ArialMT-52"/>
     <use x="557.724609" xlink:href="#ArialMT-32"/>
     <use x="585.507812" xlink:href="#ArialMT-112"/>
     <use x="641.123047" xlink:href="#ArialMT-111"/>
     <use x="696.738281" xlink:href="#ArialMT-105"/>
     <use x="718.955078" xlink:href="#ArialMT-110"/>
     <use x="774.570312" xlink:href="#ArialMT-116"/>
     <use x="802.353516" xlink:href="#ArialMT-115"/>
    </g>
   </g>
   <g id="legend_1">
    <g id="line2d_29">
     <path d="M 117 116.337812 
L 137 116.337812 
" style="fill:none;stroke:#ffc100;stroke-linecap:round;stroke-width:1.5;"/>
    </g>
    <g id="line2d_30"/>
    <g id="text_19">
     <!-- pred -->
     <g style="fill:#262626;" transform="translate(145 119.837812)scale(0.1 -0.1)">
      <use xlink:href="#ArialMT-112"/>
      <use x="55.615234" xlink:href="#ArialMT-114"/>
      <use x="88.916016" xlink:href="#ArialMT-101"/>
      <use x="144.53125" xlink:href="#ArialMT-100"/>
     </g>
    </g>
    <g id="line2d_31">
     <path d="M 117 130.483125 
L 137 130.483125 
" style="fill:none;stroke:#348fea;stroke-linecap:round;stroke-width:1.5;"/>
    </g>
    <g id="line2d_32"/>
    <g id="text_20">
     <!-- true -->
     <defs>
      <path d="M 40.578125 0 
L 40.578125 7.625 
Q 34.515625 -1.171875 24.125 -1.171875 
Q 19.53125 -1.171875 15.546875 0.578125 
Q 11.578125 2.34375 9.640625 5 
Q 7.71875 7.671875 6.9375 11.53125 
Q 6.390625 14.109375 6.390625 19.734375 
L 6.390625 51.859375 
L 15.1875 51.859375 
L 15.1875 23.09375 
Q 15.1875 16.21875 15.71875 13.8125 
Q 16.546875 10.359375 19.234375 8.375 
Q 21.921875 6.390625 25.875 6.390625 
Q 29.828125 6.390625 33.296875 8.421875 
Q 36.765625 10.453125 38.203125 13.9375 
Q 39.65625 17.4375 39.65625 24.078125 
L 39.65625 51.859375 
L 48.4375 51.859375 
L 48.4375 0 
z
" id="ArialMT-117"/>
     </defs>
     <g style="fill:#262626;" transform="translate(145 133.983125)scale(0.1 -0.1)">
      <use xlink:href="#ArialMT-116"/>
      <use x="27.783203" xlink:href="#ArialMT-114"/>
      <use x="61.083984" xlink:href="#ArialMT-117"/>
      <use x="116.699219" xlink:href="#ArialMT-101"/>
     </g>
    </g>
    <g id="PathCollection_2">
     <g>
      <use style="fill:#3b4856;stroke:#3b4856;" x="127" xlink:href="#ma2f37f775b" y="145.503437"/>
     </g>
    </g>
    <g id="text_21">
     <!-- training points -->
     <defs>
      <path d="M 4.984375 -4.296875 
L 13.53125 -5.5625 
Q 14.0625 -9.515625 16.5 -11.328125 
Q 19.78125 -13.765625 25.4375 -13.765625 
Q 31.546875 -13.765625 34.859375 -11.328125 
Q 38.1875 -8.890625 39.359375 -4.5 
Q 40.046875 -1.8125 39.984375 6.78125 
Q 34.234375 0 25.640625 0 
Q 14.9375 0 9.078125 7.71875 
Q 3.21875 15.4375 3.21875 26.21875 
Q 3.21875 33.640625 5.90625 39.90625 
Q 8.59375 46.1875 13.6875 49.609375 
Q 18.796875 53.03125 25.6875 53.03125 
Q 34.859375 53.03125 40.828125 45.609375 
L 40.828125 51.859375 
L 48.921875 51.859375 
L 48.921875 7.03125 
Q 48.921875 -5.078125 46.453125 -10.125 
Q 44 -15.1875 38.640625 -18.109375 
Q 33.296875 -21.046875 25.484375 -21.046875 
Q 16.21875 -21.046875 10.5 -16.875 
Q 4.78125 -12.703125 4.984375 -4.296875 
z
M 12.25 26.859375 
Q 12.25 16.65625 16.296875 11.96875 
Q 20.359375 7.28125 26.46875 7.28125 
Q 32.515625 7.28125 36.609375 11.9375 
Q 40.71875 16.609375 40.71875 26.5625 
Q 40.71875 36.078125 36.5 40.90625 
Q 32.28125 45.75 26.3125 45.75 
Q 20.453125 45.75 16.34375 40.984375 
Q 12.25 36.234375 12.25 26.859375 
z
" id="ArialMT-103"/>
     </defs>
     <g style="fill:#262626;" transform="translate(145 148.128437)scale(0.1 -0.1)">
      <use xlink:href="#ArialMT-116"/>
      <use x="27.783203" xlink:href="#ArialMT-114"/>
      <use x="61.083984" xlink:href="#ArialMT-97"/>
      <use x="116.699219" xlink:href="#ArialMT-105"/>
      <use x="138.916016" xlink:href="#ArialMT-110"/>
      <use x="194.53125" xlink:href="#ArialMT-105"/>
      <use x="216.748047" xlink:href="#ArialMT-110"/>
      <use x="272.363281" xlink:href="#ArialMT-103"/>
      <use x="327.978516" xlink:href="#ArialMT-32"/>
      <use x="355.761719" xlink:href="#ArialMT-112"/>
      <use x="411.376953" xlink:href="#ArialMT-111"/>
      <use x="466.992188" xlink:href="#ArialMT-105"/>
      <use x="489.208984" xlink:href="#ArialMT-110"/>
      <use x="544.824219" xlink:href="#ArialMT-116"/>
      <use x="572.607422" xlink:href="#ArialMT-115"/>
     </g>
    </g>
   </g>
  </g>
  <g id="axes_2">
   <g id="patch_7">
    <path d="M 473.236364 400.189091 
L 777.6 400.189091 
L 777.6 103.68 
L 473.236364 103.68 
z
" style="fill:#ffffff;"/>
   </g>
   <g id="matplotlib.axis_3">
    <g id="xtick_10">
     <g id="line2d_33"/>
     <g id="text_22">
      <!-- −1.5 -->
      <g style="fill:#262626;" transform="translate(474.450149 410.846903)scale(0.1 -0.1)">
       <use xlink:href="#ArialMT-8722"/>
       <use x="58.398438" xlink:href="#ArialMT-49"/>
       <use x="114.013672" xlink:href="#ArialMT-46"/>
       <use x="141.796875" xlink:href="#ArialMT-53"/>
      </g>
     </g>
    </g>
    <g id="xtick_11">
     <g id="line2d_34"/>
     <g id="text_23">
      <!-- −1.0 -->
      <g style="fill:#262626;" transform="translate(510.857283 410.846903)scale(0.1 -0.1)">
       <use xlink:href="#ArialMT-8722"/>
       <use x="58.398438" xlink:href="#ArialMT-49"/>
       <use x="114.013672" xlink:href="#ArialMT-46"/>
       <use x="141.796875" xlink:href="#ArialMT-48"/>
      </g>
     </g>
    </g>
    <g id="xtick_12">
     <g id="line2d_35"/>
     <g id="text_24">
      <!-- −0.5 -->
      <g style="fill:#262626;" transform="translate(547.264416 410.846903)scale(0.1 -0.1)">
       <use xlink:href="#ArialMT-8722"/>
       <use x="58.398438" xlink:href="#ArialMT-48"/>
       <use x="114.013672" xlink:href="#ArialMT-46"/>
       <use x="141.796875" xlink:href="#ArialMT-53"/>
      </g>
     </g>
    </g>
    <g id="xtick_13">
     <g id="line2d_36"/>
     <g id="text_25">
      <!-- 0.0 -->
      <g style="fill:#262626;" transform="translate(586.591862 410.846903)scale(0.1 -0.1)">
       <use xlink:href="#ArialMT-48"/>
       <use x="55.615234" xlink:href="#ArialMT-46"/>
       <use x="83.398438" xlink:href="#ArialMT-48"/>
      </g>
     </g>
    </g>
    <g id="xtick_14">
     <g id="line2d_37"/>
     <g id="text_26">
      <!-- 0.5 -->
      <g style="fill:#262626;" transform="translate(622.998996 410.846903)scale(0.1 -0.1)">
       <use xlink:href="#ArialMT-48"/>
       <use x="55.615234" xlink:href="#ArialMT-46"/>
       <use x="83.398438" xlink:href="#ArialMT-53"/>
      </g>
     </g>
    </g>
    <g id="xtick_15">
     <g id="line2d_38"/>
     <g id="text_27">
      <!-- 1.0 -->
      <g style="fill:#262626;" transform="translate(659.406129 410.846903)scale(0.1 -0.1)">
       <use xlink:href="#ArialMT-49"/>
       <use x="55.615234" xlink:href="#ArialMT-46"/>
       <use x="83.398438" xlink:href="#ArialMT-48"/>
      </g>
     </g>
    </g>
    <g id="xtick_16">
     <g id="line2d_39"/>
     <g id="text_28">
      <!-- 1.5 -->
      <g style="fill:#262626;" transform="translate(695.813263 410.846903)scale(0.1 -0.1)">
       <use xlink:href="#ArialMT-49"/>
       <use x="55.615234" xlink:href="#ArialMT-46"/>
       <use x="83.398438" xlink:href="#ArialMT-53"/>
      </g>
     </g>
    </g>
    <g id="xtick_17">
     <g id="line2d_40"/>
     <g id="text_29">
      <!-- 2.0 -->
      <g style="fill:#262626;" transform="translate(732.220396 410.846903)scale(0.1 -0.1)">
       <use xlink:href="#ArialMT-50"/>
       <use x="55.615234" xlink:href="#ArialMT-46"/>
       <use x="83.398438" xlink:href="#ArialMT-48"/>
      </g>
     </g>
    </g>
    <g id="xtick_18">
     <g id="line2d_41"/>
     <g id="text_30">
      <!-- 2.5 -->
      <g style="fill:#262626;" transform="translate(768.62753 410.846903)scale(0.1 -0.1)">
       <use xlink:href="#ArialMT-50"/>
       <use x="55.615234" xlink:href="#ArialMT-46"/>
       <use x="83.398438" xlink:href="#ArialMT-53"/>
      </g>
     </g>
    </g>
   </g>
   <g id="matplotlib.axis_4">
    <g id="ytick_9">
     <g id="line2d_42"/>
     <g id="text_31">
      <!-- −2 -->
      <g style="fill:#262626;" transform="translate(458.334801 403.767997)scale(0.1 -0.1)">
       <use xlink:href="#ArialMT-8722"/>
       <use x="58.398438" xlink:href="#ArialMT-50"/>
      </g>
     </g>
    </g>
    <g id="ytick_10">
     <g id="line2d_43"/>
     <g id="text_32">
      <!-- 0 -->
      <g style="fill:#262626;" transform="translate(464.175426 361.409556)scale(0.1 -0.1)">
       <use xlink:href="#ArialMT-48"/>
      </g>
     </g>
    </g>
    <g id="ytick_11">
     <g id="line2d_44"/>
     <g id="text_33">
      <!-- 2 -->
      <g style="fill:#262626;" transform="translate(464.175426 319.051114)scale(0.1 -0.1)">
       <use xlink:href="#ArialMT-50"/>
      </g>
     </g>
    </g>
    <g id="ytick_12">
     <g id="line2d_45"/>
     <g id="text_34">
      <!-- 4 -->
      <g style="fill:#262626;" transform="translate(464.175426 276.692672)scale(0.1 -0.1)">
       <use xlink:href="#ArialMT-52"/>
      </g>
     </g>
    </g>
    <g id="ytick_13">
     <g id="line2d_46"/>
     <g id="text_35">
      <!-- 6 -->
      <g style="fill:#262626;" transform="translate(464.175426 234.334231)scale(0.1 -0.1)">
       <use xlink:href="#ArialMT-54"/>
      </g>
     </g>
    </g>
    <g id="ytick_14">
     <g id="line2d_47"/>
     <g id="text_36">
      <!-- 8 -->
      <g style="fill:#262626;" transform="translate(464.175426 191.975789)scale(0.1 -0.1)">
       <use xlink:href="#ArialMT-56"/>
      </g>
     </g>
    </g>
    <g id="ytick_15">
     <g id="line2d_48"/>
     <g id="text_37">
      <!-- 10 -->
      <g style="fill:#262626;" transform="translate(458.614489 149.617348)scale(0.1 -0.1)">
       <use xlink:href="#ArialMT-49"/>
       <use x="55.615234" xlink:href="#ArialMT-48"/>
      </g>
     </g>
    </g>
    <g id="ytick_16">
     <g id="line2d_49"/>
     <g id="text_38">
      <!-- 12 -->
      <g style="fill:#262626;" transform="translate(458.614489 107.258906)scale(0.1 -0.1)">
       <use xlink:href="#ArialMT-49"/>
       <use x="55.615234" xlink:href="#ArialMT-50"/>
      </g>
     </g>
    </g>
   </g>
   <g id="PathCollection_3">
    <g clip-path="url(#p0f5ffb3d4d)">
     <use style="fill:#3b4856;stroke:#3b4856;" x="711.113193" xlink:href="#ma2f37f775b" y="237.160716"/>
     <use style="fill:#3b4856;stroke:#3b4856;" x="677.67323" xlink:href="#ma2f37f775b" y="321.875266"/>
     <use style="fill:#3b4856;stroke:#3b4856;" x="659.241053" xlink:href="#ma2f37f775b" y="312.738878"/>
     <use style="fill:#3b4856;stroke:#3b4856;" x="699.627452" xlink:href="#ma2f37f775b" y="272.240912"/>
     <use style="fill:#3b4856;stroke:#3b4856;" x="545.220792" xlink:href="#ma2f37f775b" y="260.378667"/>
     <use style="fill:#3b4856;stroke:#3b4856;" x="736.113916" xlink:href="#ma2f37f775b" y="289.008533"/>
     <use style="fill:#3b4856;stroke:#3b4856;" x="605.28363" xlink:href="#ma2f37f775b" y="303.177935"/>
     <use style="fill:#3b4856;stroke:#3b4856;" x="668.896654" xlink:href="#ma2f37f775b" y="252.363759"/>
    </g>
   </g>
   <g id="line2d_50">
    <path clip-path="url(#p0f5ffb3d4d)" d="M 487.071074 179.939763 
L 501.633928 211.550288 
L 516.196781 237.672547 
L 530.759635 258.753461 
L 545.322488 275.23995 
L 559.885341 287.578932 
L 574.448195 296.217328 
L 589.011048 301.602058 
L 603.573902 304.180042 
L 618.136755 304.398199 
L 632.699609 302.703448 
L 647.262462 299.542711 
L 661.825315 295.362906 
L 676.388169 290.610953 
L 690.951022 285.733773 
L 705.513876 281.178284 
L 720.076729 277.391407 
L 734.639582 274.820061 
L 749.202436 273.911167 
L 763.765289 275.111644 
" style="fill:none;stroke:#ffc100;stroke-linecap:round;stroke-width:1.5;"/>
   </g>
   <g id="line2d_51">
    <path clip-path="url(#p0f5ffb3d4d)" d="M 487.071074 260.12631 
L 501.633928 277.535934 
L 516.196781 291.510162 
L 530.759635 302.279039 
L 545.322488 310.072611 
L 559.885341 315.120923 
L 574.448195 317.65402 
L 589.011048 317.901947 
L 603.573902 316.09475 
L 618.136755 312.462472 
L 632.699609 307.23516 
L 647.262462 300.642859 
L 661.825315 292.915613 
L 676.388169 284.283468 
L 690.951022 274.976469 
L 705.513876 265.224661 
L 720.076729 255.25809 
L 734.639582 245.3068 
L 749.202436 235.600836 
L 763.765289 226.370244 
" style="fill:none;stroke:#ffc100;stroke-linecap:round;stroke-width:1.5;"/>
   </g>
   <g id="line2d_52">
    <path clip-path="url(#p0f5ffb3d4d)" d="M 487.071074 244.691895 
L 501.633928 266.5693 
L 516.196781 284.677326 
L 530.759635 299.209248 
L 545.322488 310.358339 
L 559.885341 318.317876 
L 574.448195 323.281133 
L 589.011048 325.441384 
L 603.573902 324.991905 
L 618.136755 322.12597 
L 632.699609 317.036854 
L 647.262462 309.917833 
L 661.825315 300.962181 
L 676.388169 290.363173 
L 690.951022 278.314083 
L 705.513876 265.008187 
L 720.076729 250.63876 
L 734.639582 235.399076 
L 749.202436 219.48241 
L 763.765289 203.082037 
" style="fill:none;stroke:#ffc100;stroke-linecap:round;stroke-width:1.5;"/>
   </g>
   <g id="line2d_53">
    <path clip-path="url(#p0f5ffb3d4d)" d="M 487.071074 209.818852 
L 501.633928 246.082749 
L 516.196781 273.924344 
L 530.759635 294.252847 
L 545.322488 307.977471 
L 559.885341 316.007428 
L 574.448195 319.251928 
L 589.011048 318.620183 
L 603.573902 315.021406 
L 618.136755 309.364807 
L 632.699609 302.559599 
L 647.262462 295.514993 
L 661.825315 289.1402 
L 676.388169 284.344432 
L 690.951022 282.036902 
L 705.513876 283.12682 
L 720.076729 288.523398 
L 734.639582 299.135848 
L 749.202436 315.873381 
L 763.765289 339.645209 
" style="fill:none;stroke:#ffc100;stroke-linecap:round;stroke-width:1.5;"/>
   </g>
   <g id="line2d_54">
    <path clip-path="url(#p0f5ffb3d4d)" d="M 487.071074 187.795539 
L 501.633928 227.051947 
L 516.196781 257.55498 
L 530.759635 280.237136 
L 545.322488 296.030908 
L 559.885341 305.868794 
L 574.448195 310.683288 
L 589.011048 311.406886 
L 603.573902 308.972085 
L 618.136755 304.311379 
L 632.699609 298.357265 
L 647.262462 292.042237 
L 661.825315 286.298793 
L 676.388169 282.059426 
L 690.951022 280.256634 
L 705.513876 281.822912 
L 720.076729 287.690755 
L 734.639582 298.792659 
L 749.202436 316.06112 
L 763.765289 340.428633 
" style="fill:none;stroke:#ffc100;stroke-linecap:round;stroke-width:1.5;"/>
   </g>
   <g id="line2d_55">
    <path clip-path="url(#p0f5ffb3d4d)" d="M 487.071074 222.05107 
L 501.633928 244.276667 
L 516.196781 262.911653 
L 530.759635 278.163681 
L 545.322488 290.240403 
L 559.885341 299.349472 
L 574.448195 305.698542 
L 589.011048 309.495265 
L 603.573902 310.947295 
L 618.136755 310.262284 
L 632.699609 307.647885 
L 647.262462 303.311752 
L 661.825315 297.461537 
L 676.388169 290.304893 
L 690.951022 282.049473 
L 705.513876 272.902931 
L 720.076729 263.072919 
L 734.639582 252.76709 
L 749.202436 242.193097 
L 763.765289 231.558593 
" style="fill:none;stroke:#ffc100;stroke-linecap:round;stroke-width:1.5;"/>
   </g>
   <g id="line2d_56">
    <path clip-path="url(#p0f5ffb3d4d)" d="M 487.071074 211.581053 
L 501.633928 243.142671 
L 516.196781 268.059899 
L 530.759635 286.967513 
L 545.322488 300.500289 
L 559.885341 309.293002 
L 574.448195 313.980427 
L 589.011048 315.197339 
L 603.573902 313.578515 
L 618.136755 309.75873 
L 632.699609 304.372759 
L 647.262462 298.055377 
L 661.825315 291.441361 
L 676.388169 285.165485 
L 690.951022 279.862524 
L 705.513876 276.167255 
L 720.076729 274.714453 
L 734.639582 276.138893 
L 749.202436 281.075351 
L 763.765289 290.158602 
" style="fill:none;stroke:#ffc100;stroke-linecap:round;stroke-width:1.5;"/>
   </g>
   <g id="line2d_57">
    <path clip-path="url(#p0f5ffb3d4d)" d="M 487.071074 197.424879 
L 501.633928 225.608832 
L 516.196781 248.556712 
L 530.759635 266.706316 
L 545.322488 280.495442 
L 559.885341 290.361888 
L 574.448195 296.743453 
L 589.011048 300.077934 
L 603.573902 300.80313 
L 618.136755 299.356838 
L 632.699609 296.176857 
L 647.262462 291.700985 
L 661.825315 286.367019 
L 676.388169 280.612759 
L 690.951022 274.876001 
L 705.513876 269.594544 
L 720.076729 265.206186 
L 734.639582 262.148726 
L 749.202436 260.859961 
L 763.765289 261.777689 
" style="fill:none;stroke:#ffc100;stroke-linecap:round;stroke-width:1.5;"/>
   </g>
   <g id="line2d_58">
    <path clip-path="url(#p0f5ffb3d4d)" d="M 487.071074 90.245921 
L 501.633928 156.718594 
L 516.196781 210.106525 
L 530.759635 251.652819 
L 545.322488 282.600584 
L 559.885341 304.192927 
L 574.448195 317.672955 
L 589.011048 324.283775 
L 603.573902 325.268493 
L 618.136755 321.870217 
L 632.699609 315.332054 
L 647.262462 306.89711 
L 661.825315 297.808493 
L 676.388169 289.30931 
L 690.951022 282.642667 
L 705.513876 279.051672 
L 720.076729 279.779431 
L 734.639582 286.069052 
L 749.202436 299.163641 
L 763.765289 320.306306 
" style="fill:none;stroke:#ffc100;stroke-linecap:round;stroke-width:1.5;"/>
   </g>
   <g id="line2d_59">
    <path clip-path="url(#p0f5ffb3d4d)" d="M 487.071074 255.959271 
L 501.633928 267.16816 
L 516.196781 277.736701 
L 530.759635 287.487494 
L 545.322488 296.243139 
L 559.885341 303.826236 
L 574.448195 310.059387 
L 589.011048 314.765192 
L 603.573902 317.766251 
L 618.136755 318.885164 
L 632.699609 317.944532 
L 647.262462 314.766956 
L 661.825315 309.175036 
L 676.388169 300.991372 
L 690.951022 290.038564 
L 705.513876 276.139214 
L 720.076729 259.115922 
L 734.639582 238.791288 
L 749.202436 214.987912 
L 763.765289 187.528395 
" style="fill:none;stroke:#ffc100;stroke-linecap:round;stroke-width:1.5;"/>
   </g>
   <g id="line2d_60">
    <path clip-path="url(#p0f5ffb3d4d)" d="M 487.071074 311.915763 
L 501.633928 302.222108 
L 516.196781 295.736404 
L 530.759635 291.95035 
L 545.322488 290.355645 
L 559.885341 290.443987 
L 574.448195 291.707075 
L 589.011048 293.636608 
L 603.573902 295.724284 
L 618.136755 297.461802 
L 632.699609 298.34086 
L 647.262462 297.853159 
L 661.825315 295.490395 
L 676.388169 290.744269 
L 690.951022 283.106478 
L 705.513876 272.068721 
L 720.076729 257.122697 
L 734.639582 237.760105 
L 749.202436 213.472643 
L 763.765289 183.75201 
" style="fill:none;stroke:#348fea;stroke-linecap:round;stroke-width:1.5;"/>
   </g>
   <g id="patch_8">
    <path d="M 473.236364 400.189091 
L 473.236364 103.68 
" style="fill:none;stroke:#262626;stroke-linecap:square;stroke-linejoin:miter;stroke-width:1.25;"/>
   </g>
   <g id="patch_9">
    <path d="M 777.6 400.189091 
L 777.6 103.68 
" style="fill:none;stroke:#262626;stroke-linecap:square;stroke-linejoin:miter;stroke-width:1.25;"/>
   </g>
   <g id="patch_10">
    <path d="M 473.236364 400.189091 
L 777.6 400.189091 
" style="fill:none;stroke:#262626;stroke-linecap:square;stroke-linejoin:miter;stroke-width:1.25;"/>
   </g>
   <g id="patch_11">
    <path d="M 473.236364 103.68 
L 777.6 103.68 
" style="fill:none;stroke:#262626;stroke-linecap:square;stroke-linejoin:miter;stroke-width:1.25;"/>
   </g>
   <g id="text_39">
    <!-- Trained on 8 points -->
    <g style="fill:#262626;" transform="translate(574.281307 97.68)scale(0.12 -0.12)">
     <use xlink:href="#ArialMT-84"/>
     <use x="57.333984" xlink:href="#ArialMT-114"/>
     <use x="90.634766" xlink:href="#ArialMT-97"/>
     <use x="146.25" xlink:href="#ArialMT-105"/>
     <use x="168.466797" xlink:href="#ArialMT-110"/>
     <use x="224.082031" xlink:href="#ArialMT-101"/>
     <use x="279.697266" xlink:href="#ArialMT-100"/>
     <use x="335.3125" xlink:href="#ArialMT-32"/>
     <use x="363.095703" xlink:href="#ArialMT-111"/>
     <use x="418.710938" xlink:href="#ArialMT-110"/>
     <use x="474.326172" xlink:href="#ArialMT-32"/>
     <use x="502.109375" xlink:href="#ArialMT-56"/>
     <use x="557.724609" xlink:href="#ArialMT-32"/>
     <use x="585.507812" xlink:href="#ArialMT-112"/>
     <use x="641.123047" xlink:href="#ArialMT-111"/>
     <use x="696.738281" xlink:href="#ArialMT-105"/>
     <use x="718.955078" xlink:href="#ArialMT-110"/>
     <use x="774.570312" xlink:href="#ArialMT-116"/>
     <use x="802.353516" xlink:href="#ArialMT-115"/>
    </g>
   </g>
   <g id="legend_2">
    <g id="line2d_61">
     <path d="M 678.34375 116.337812 
L 698.34375 116.337812 
" style="fill:none;stroke:#ffc100;stroke-linecap:round;stroke-width:1.5;"/>
    </g>
    <g id="line2d_62"/>
    <g id="text_40">
     <!-- pred -->
     <g style="fill:#262626;" transform="translate(706.34375 119.837812)scale(0.1 -0.1)">
      <use xlink:href="#ArialMT-112"/>
      <use x="55.615234" xlink:href="#ArialMT-114"/>
      <use x="88.916016" xlink:href="#ArialMT-101"/>
      <use x="144.53125" xlink:href="#ArialMT-100"/>
     </g>
    </g>
    <g id="line2d_63">
     <path d="M 678.34375 130.483125 
L 698.34375 130.483125 
" style="fill:none;stroke:#348fea;stroke-linecap:round;stroke-width:1.5;"/>
    </g>
    <g id="line2d_64"/>
    <g id="text_41">
     <!-- true -->
     <g style="fill:#262626;" transform="translate(706.34375 133.983125)scale(0.1 -0.1)">
      <use xlink:href="#ArialMT-116"/>
      <use x="27.783203" xlink:href="#ArialMT-114"/>
      <use x="61.083984" xlink:href="#ArialMT-117"/>
      <use x="116.699219" xlink:href="#ArialMT-101"/>
     </g>
    </g>
    <g id="PathCollection_4">
     <g>
      <use style="fill:#3b4856;stroke:#3b4856;" x="688.34375" xlink:href="#ma2f37f775b" y="145.503437"/>
     </g>
    </g>
    <g id="text_42">
     <!-- training points -->
     <g style="fill:#262626;" transform="translate(706.34375 148.128437)scale(0.1 -0.1)">
      <use xlink:href="#ArialMT-116"/>
      <use x="27.783203" xlink:href="#ArialMT-114"/>
      <use x="61.083984" xlink:href="#ArialMT-97"/>
      <use x="116.699219" xlink:href="#ArialMT-105"/>
      <use x="138.916016" xlink:href="#ArialMT-110"/>
      <use x="194.53125" xlink:href="#ArialMT-105"/>
      <use x="216.748047" xlink:href="#ArialMT-110"/>
      <use x="272.363281" xlink:href="#ArialMT-103"/>
      <use x="327.978516" xlink:href="#ArialMT-32"/>
      <use x="355.761719" xlink:href="#ArialMT-112"/>
      <use x="411.376953" xlink:href="#ArialMT-111"/>
      <use x="466.992188" xlink:href="#ArialMT-105"/>
      <use x="489.208984" xlink:href="#ArialMT-110"/>
      <use x="544.824219" xlink:href="#ArialMT-116"/>
      <use x="572.607422" xlink:href="#ArialMT-115"/>
     </g>
    </g>
   </g>
  </g>
  <g id="axes_3">
   <g id="patch_12">
    <path d="M 108 756 
L 412.363636 756 
L 412.363636 459.490909 
L 108 459.490909 
z
" style="fill:#ffffff;"/>
   </g>
   <g id="matplotlib.axis_5">
    <g id="xtick_19">
     <g id="line2d_65"/>
     <g id="text_43">
      <!-- −1.5 -->
      <g style="fill:#262626;" transform="translate(109.213786 766.657812)scale(0.1 -0.1)">
       <use xlink:href="#ArialMT-8722"/>
       <use x="58.398438" xlink:href="#ArialMT-49"/>
       <use x="114.013672" xlink:href="#ArialMT-46"/>
       <use x="141.796875" xlink:href="#ArialMT-53"/>
      </g>
     </g>
    </g>
    <g id="xtick_20">
     <g id="line2d_66"/>
     <g id="text_44">
      <!-- −1.0 -->
      <g style="fill:#262626;" transform="translate(145.620919 766.657812)scale(0.1 -0.1)">
       <use xlink:href="#ArialMT-8722"/>
       <use x="58.398438" xlink:href="#ArialMT-49"/>
       <use x="114.013672" xlink:href="#ArialMT-46"/>
       <use x="141.796875" xlink:href="#ArialMT-48"/>
      </g>
     </g>
    </g>
    <g id="xtick_21">
     <g id="line2d_67"/>
     <g id="text_45">
      <!-- −0.5 -->
      <g style="fill:#262626;" transform="translate(182.028053 766.657812)scale(0.1 -0.1)">
       <use xlink:href="#ArialMT-8722"/>
       <use x="58.398438" xlink:href="#ArialMT-48"/>
       <use x="114.013672" xlink:href="#ArialMT-46"/>
       <use x="141.796875" xlink:href="#ArialMT-53"/>
      </g>
     </g>
    </g>
    <g id="xtick_22">
     <g id="line2d_68"/>
     <g id="text_46">
      <!-- 0.0 -->
      <g style="fill:#262626;" transform="translate(221.355499 766.657812)scale(0.1 -0.1)">
       <use xlink:href="#ArialMT-48"/>
       <use x="55.615234" xlink:href="#ArialMT-46"/>
       <use x="83.398438" xlink:href="#ArialMT-48"/>
      </g>
     </g>
    </g>
    <g id="xtick_23">
     <g id="line2d_69"/>
     <g id="text_47">
      <!-- 0.5 -->
      <g style="fill:#262626;" transform="translate(257.762632 766.657812)scale(0.1 -0.1)">
       <use xlink:href="#ArialMT-48"/>
       <use x="55.615234" xlink:href="#ArialMT-46"/>
       <use x="83.398438" xlink:href="#ArialMT-53"/>
      </g>
     </g>
    </g>
    <g id="xtick_24">
     <g id="line2d_70"/>
     <g id="text_48">
      <!-- 1.0 -->
      <g style="fill:#262626;" transform="translate(294.169766 766.657812)scale(0.1 -0.1)">
       <use xlink:href="#ArialMT-49"/>
       <use x="55.615234" xlink:href="#ArialMT-46"/>
       <use x="83.398438" xlink:href="#ArialMT-48"/>
      </g>
     </g>
    </g>
    <g id="xtick_25">
     <g id="line2d_71"/>
     <g id="text_49">
      <!-- 1.5 -->
      <g style="fill:#262626;" transform="translate(330.576899 766.657812)scale(0.1 -0.1)">
       <use xlink:href="#ArialMT-49"/>
       <use x="55.615234" xlink:href="#ArialMT-46"/>
       <use x="83.398438" xlink:href="#ArialMT-53"/>
      </g>
     </g>
    </g>
    <g id="xtick_26">
     <g id="line2d_72"/>
     <g id="text_50">
      <!-- 2.0 -->
      <g style="fill:#262626;" transform="translate(366.984033 766.657812)scale(0.1 -0.1)">
       <use xlink:href="#ArialMT-50"/>
       <use x="55.615234" xlink:href="#ArialMT-46"/>
       <use x="83.398438" xlink:href="#ArialMT-48"/>
      </g>
     </g>
    </g>
    <g id="xtick_27">
     <g id="line2d_73"/>
     <g id="text_51">
      <!-- 2.5 -->
      <g style="fill:#262626;" transform="translate(403.391166 766.657812)scale(0.1 -0.1)">
       <use xlink:href="#ArialMT-50"/>
       <use x="55.615234" xlink:href="#ArialMT-46"/>
       <use x="83.398438" xlink:href="#ArialMT-53"/>
      </g>
     </g>
    </g>
   </g>
   <g id="matplotlib.axis_6">
    <g id="ytick_17">
     <g id="line2d_74"/>
     <g id="text_52">
      <!-- −2 -->
      <g style="fill:#262626;" transform="translate(93.098438 759.578906)scale(0.1 -0.1)">
       <use xlink:href="#ArialMT-8722"/>
       <use x="58.398438" xlink:href="#ArialMT-50"/>
      </g>
     </g>
    </g>
    <g id="ytick_18">
     <g id="line2d_75"/>
     <g id="text_53">
      <!-- 0 -->
      <g style="fill:#262626;" transform="translate(98.939063 717.220465)scale(0.1 -0.1)">
       <use xlink:href="#ArialMT-48"/>
      </g>
     </g>
    </g>
    <g id="ytick_19">
     <g id="line2d_76"/>
     <g id="text_54">
      <!-- 2 -->
      <g style="fill:#262626;" transform="translate(98.939063 674.862023)scale(0.1 -0.1)">
       <use xlink:href="#ArialMT-50"/>
      </g>
     </g>
    </g>
    <g id="ytick_20">
     <g id="line2d_77"/>
     <g id="text_55">
      <!-- 4 -->
      <g style="fill:#262626;" transform="translate(98.939063 632.503582)scale(0.1 -0.1)">
       <use xlink:href="#ArialMT-52"/>
      </g>
     </g>
    </g>
    <g id="ytick_21">
     <g id="line2d_78"/>
     <g id="text_56">
      <!-- 6 -->
      <g style="fill:#262626;" transform="translate(98.939063 590.14514)scale(0.1 -0.1)">
       <use xlink:href="#ArialMT-54"/>
      </g>
     </g>
    </g>
    <g id="ytick_22">
     <g id="line2d_79"/>
     <g id="text_57">
      <!-- 8 -->
      <g style="fill:#262626;" transform="translate(98.939063 547.786698)scale(0.1 -0.1)">
       <use xlink:href="#ArialMT-56"/>
      </g>
     </g>
    </g>
    <g id="ytick_23">
     <g id="line2d_80"/>
     <g id="text_58">
      <!-- 10 -->
      <g style="fill:#262626;" transform="translate(93.378125 505.428257)scale(0.1 -0.1)">
       <use xlink:href="#ArialMT-49"/>
       <use x="55.615234" xlink:href="#ArialMT-48"/>
      </g>
     </g>
    </g>
    <g id="ytick_24">
     <g id="line2d_81"/>
     <g id="text_59">
      <!-- 12 -->
      <g style="fill:#262626;" transform="translate(93.378125 463.069815)scale(0.1 -0.1)">
       <use xlink:href="#ArialMT-49"/>
       <use x="55.615234" xlink:href="#ArialMT-50"/>
      </g>
     </g>
    </g>
   </g>
   <g id="PathCollection_5">
    <g clip-path="url(#pc19e62a577)">
     <use style="fill:#3b4856;stroke:#3b4856;" x="345.876829" xlink:href="#ma2f37f775b" y="592.971625"/>
     <use style="fill:#3b4856;stroke:#3b4856;" x="312.436867" xlink:href="#ma2f37f775b" y="677.686175"/>
     <use style="fill:#3b4856;stroke:#3b4856;" x="294.004689" xlink:href="#ma2f37f775b" y="668.549787"/>
     <use style="fill:#3b4856;stroke:#3b4856;" x="334.391088" xlink:href="#ma2f37f775b" y="628.051821"/>
     <use style="fill:#3b4856;stroke:#3b4856;" x="179.984428" xlink:href="#ma2f37f775b" y="616.189576"/>
     <use style="fill:#3b4856;stroke:#3b4856;" x="370.877552" xlink:href="#ma2f37f775b" y="644.819442"/>
     <use style="fill:#3b4856;stroke:#3b4856;" x="240.047266" xlink:href="#ma2f37f775b" y="658.988844"/>
     <use style="fill:#3b4856;stroke:#3b4856;" x="303.660291" xlink:href="#ma2f37f775b" y="608.174668"/>
     <use style="fill:#3b4856;stroke:#3b4856;" x="186.944014" xlink:href="#ma2f37f775b" y="728.755109"/>
     <use style="fill:#3b4856;stroke:#3b4856;" x="360.089278" xlink:href="#ma2f37f775b" y="571.141901"/>
     <use style="fill:#3b4856;stroke:#3b4856;" x="266.846881" xlink:href="#ma2f37f775b" y="628.720946"/>
     <use style="fill:#3b4856;stroke:#3b4856;" x="217.938636" xlink:href="#ma2f37f775b" y="691.307627"/>
     <use style="fill:#3b4856;stroke:#3b4856;" x="201.940179" xlink:href="#ma2f37f775b" y="642.606132"/>
     <use style="fill:#3b4856;stroke:#3b4856;" x="214.645312" xlink:href="#ma2f37f775b" y="649.168568"/>
     <use style="fill:#3b4856;stroke:#3b4856;" x="246.776965" xlink:href="#ma2f37f775b" y="590.772437"/>
     <use style="fill:#3b4856;stroke:#3b4856;" x="351.918838" xlink:href="#ma2f37f775b" y="642.896757"/>
    </g>
   </g>
   <g id="line2d_82">
    <path clip-path="url(#pc19e62a577)" d="M 121.834711 633.469561 
L 136.397564 644.442147 
L 150.960418 652.834855 
L 165.523271 658.870895 
L 180.086124 662.773477 
L 194.648978 664.765809 
L 209.211831 665.071101 
L 223.774685 663.912562 
L 238.337538 661.513402 
L 252.900391 658.096828 
L 267.463245 653.886051 
L 282.026098 649.10428 
L 296.588952 643.974724 
L 311.151805 638.720592 
L 325.714659 633.565093 
L 340.277512 628.731437 
L 354.840365 624.442833 
L 369.403219 620.92249 
L 383.966072 618.393617 
L 398.528926 617.079423 
" style="fill:none;stroke:#ffc100;stroke-linecap:round;stroke-width:1.5;"/>
   </g>
   <g id="line2d_83">
    <path clip-path="url(#pc19e62a577)" d="M 121.834711 709.033246 
L 136.397564 703.230538 
L 150.960418 696.950111 
L 165.523271 690.322983 
L 180.086124 683.480172 
L 194.648978 676.552694 
L 209.211831 669.671568 
L 223.774685 662.967811 
L 238.337538 656.57244 
L 252.900391 650.616472 
L 267.463245 645.230926 
L 282.026098 640.546819 
L 296.588952 636.695167 
L 311.151805 633.806989 
L 325.714659 632.013303 
L 340.277512 631.445125 
L 354.840365 632.233472 
L 369.403219 634.509364 
L 383.966072 638.403816 
L 398.528926 644.047846 
" style="fill:none;stroke:#ffc100;stroke-linecap:round;stroke-width:1.5;"/>
   </g>
   <g id="line2d_84">
    <path clip-path="url(#pc19e62a577)" d="M 121.834711 594.577806 
L 136.397564 614.881168 
L 150.960418 630.334486 
L 165.523271 641.456338 
L 180.086124 648.765305 
L 194.648978 652.779968 
L 209.211831 654.018908 
L 223.774685 653.000704 
L 238.337538 650.243937 
L 252.900391 646.267188 
L 267.463245 641.589036 
L 282.026098 636.728063 
L 296.588952 632.202849 
L 311.151805 628.531974 
L 325.714659 626.234018 
L 340.277512 625.827563 
L 354.840365 627.831188 
L 369.403219 632.763473 
L 383.966072 641.143 
L 398.528926 653.488349 
" style="fill:none;stroke:#ffc100;stroke-linecap:round;stroke-width:1.5;"/>
   </g>
   <g id="line2d_85">
    <path clip-path="url(#pc19e62a577)" d="M 121.834711 656.193605 
L 136.397564 657.754938 
L 150.960418 659.204566 
L 165.523271 660.483357 
L 180.086124 661.532177 
L 194.648978 662.291891 
L 209.211831 662.703367 
L 223.774685 662.70747 
L 238.337538 662.245067 
L 252.900391 661.257024 
L 267.463245 659.684208 
L 282.026098 657.467484 
L 296.588952 654.54772 
L 311.151805 650.865782 
L 325.714659 646.362535 
L 340.277512 640.978846 
L 354.840365 634.655582 
L 369.403219 627.333608 
L 383.966072 618.953792 
L 398.528926 609.456999 
" style="fill:none;stroke:#ffc100;stroke-linecap:round;stroke-width:1.5;"/>
   </g>
   <g id="line2d_86">
    <path clip-path="url(#pc19e62a577)" d="M 121.834711 662.851357 
L 136.397564 661.21056 
L 150.960418 660.010984 
L 165.523271 659.127318 
L 180.086124 658.434254 
L 194.648978 657.806482 
L 209.211831 657.11869 
L 223.774685 656.245571 
L 238.337538 655.061813 
L 252.900391 653.442107 
L 267.463245 651.261143 
L 282.026098 648.393611 
L 296.588952 644.714202 
L 311.151805 640.097605 
L 325.714659 634.418511 
L 340.277512 627.551609 
L 354.840365 619.371591 
L 369.403219 609.753146 
L 383.966072 598.570964 
L 398.528926 585.699736 
" style="fill:none;stroke:#ffc100;stroke-linecap:round;stroke-width:1.5;"/>
   </g>
   <g id="line2d_87">
    <path clip-path="url(#pc19e62a577)" d="M 121.834711 725.840017 
L 136.397564 712.849227 
L 150.960418 701.335614 
L 165.523271 691.192126 
L 180.086124 682.311707 
L 194.648978 674.587304 
L 209.211831 667.911865 
L 223.774685 662.178333 
L 238.337538 657.279657 
L 252.900391 653.108783 
L 267.463245 649.558656 
L 282.026098 646.522223 
L 296.588952 643.89243 
L 311.151805 641.562223 
L 325.714659 639.424549 
L 340.277512 637.372354 
L 354.840365 635.298585 
L 369.403219 633.096186 
L 383.966072 630.658106 
L 398.528926 627.87729 
" style="fill:none;stroke:#ffc100;stroke-linecap:round;stroke-width:1.5;"/>
   </g>
   <g id="line2d_88">
    <path clip-path="url(#pc19e62a577)" d="M 121.834711 659.769396 
L 136.397564 660.521245 
L 150.960418 660.770846 
L 165.523271 660.509769 
L 180.086124 659.729583 
L 194.648978 658.421858 
L 209.211831 656.578163 
L 223.774685 654.190068 
L 238.337538 651.24914 
L 252.900391 647.746951 
L 267.463245 643.67507 
L 282.026098 639.025065 
L 296.588952 633.788506 
L 311.151805 627.956962 
L 325.714659 621.522004 
L 340.277512 614.475199 
L 354.840365 606.808118 
L 369.403219 598.51233 
L 383.966072 589.579403 
L 398.528926 580.000909 
" style="fill:none;stroke:#ffc100;stroke-linecap:round;stroke-width:1.5;"/>
   </g>
   <g id="line2d_89">
    <path clip-path="url(#pc19e62a577)" d="M 121.834711 593.299905 
L 136.397564 619.938533 
L 150.960418 640.351717 
L 165.523271 655.171298 
L 180.086124 665.029114 
L 194.648978 670.557003 
L 209.211831 672.386807 
L 223.774685 671.150362 
L 238.337538 667.479509 
L 252.900391 662.006086 
L 267.463245 655.361933 
L 282.026098 648.178889 
L 296.588952 641.088793 
L 311.151805 634.723483 
L 325.714659 629.7148 
L 340.277512 626.694581 
L 354.840365 626.294667 
L 369.403219 629.146896 
L 383.966072 635.883107 
L 398.528926 647.135139 
" style="fill:none;stroke:#ffc100;stroke-linecap:round;stroke-width:1.5;"/>
   </g>
   <g id="line2d_90">
    <path clip-path="url(#pc19e62a577)" d="M 121.834711 727.1232 
L 136.397564 712.970031 
L 150.960418 700.747159 
L 165.523271 690.231249 
L 180.086124 681.198968 
L 194.648978 673.426982 
L 209.211831 666.691958 
L 223.774685 660.770561 
L 238.337538 655.439458 
L 252.900391 650.475316 
L 267.463245 645.654799 
L 282.026098 640.754575 
L 296.588952 635.55131 
L 311.151805 629.82167 
L 325.714659 623.342322 
L 340.277512 615.889931 
L 354.840365 607.241163 
L 369.403219 597.172686 
L 383.966072 585.461165 
L 398.528926 571.883266 
" style="fill:none;stroke:#ffc100;stroke-linecap:round;stroke-width:1.5;"/>
   </g>
   <g id="line2d_91">
    <path clip-path="url(#pc19e62a577)" d="M 121.834711 594.932587 
L 136.397564 619.135951 
L 150.960418 637.597059 
L 165.523271 650.901896 
L 180.086124 659.636442 
L 194.648978 664.386679 
L 209.211831 665.738589 
L 223.774685 664.278156 
L 238.337538 660.59136 
L 252.900391 655.264183 
L 267.463245 648.882608 
L 282.026098 642.032617 
L 296.588952 635.300192 
L 311.151805 629.271315 
L 325.714659 624.531968 
L 340.277512 621.668133 
L 354.840365 621.265791 
L 369.403219 623.910926 
L 383.966072 630.189519 
L 398.528926 640.687552 
" style="fill:none;stroke:#ffc100;stroke-linecap:round;stroke-width:1.5;"/>
   </g>
   <g id="line2d_92">
    <path clip-path="url(#pc19e62a577)" d="M 121.834711 667.726672 
L 136.397564 658.033017 
L 150.960418 651.547313 
L 165.523271 647.761259 
L 180.086124 646.166554 
L 194.648978 646.254896 
L 209.211831 647.517984 
L 223.774685 649.447517 
L 238.337538 651.535193 
L 252.900391 653.272711 
L 267.463245 654.15177 
L 282.026098 653.664068 
L 296.588952 651.301304 
L 311.151805 646.555178 
L 325.714659 638.917387 
L 340.277512 627.87963 
L 354.840365 612.933606 
L 369.403219 593.571014 
L 383.966072 569.283552 
L 398.528926 539.562919 
" style="fill:none;stroke:#348fea;stroke-linecap:round;stroke-width:1.5;"/>
   </g>
   <g id="patch_13">
    <path d="M 108 756 
L 108 459.490909 
" style="fill:none;stroke:#262626;stroke-linecap:square;stroke-linejoin:miter;stroke-width:1.25;"/>
   </g>
   <g id="patch_14">
    <path d="M 412.363636 756 
L 412.363636 459.490909 
" style="fill:none;stroke:#262626;stroke-linecap:square;stroke-linejoin:miter;stroke-width:1.25;"/>
   </g>
   <g id="patch_15">
    <path d="M 108 756 
L 412.363636 756 
" style="fill:none;stroke:#262626;stroke-linecap:square;stroke-linejoin:miter;stroke-width:1.25;"/>
   </g>
   <g id="patch_16">
    <path d="M 108 459.490909 
L 412.363636 459.490909 
" style="fill:none;stroke:#262626;stroke-linecap:square;stroke-linejoin:miter;stroke-width:1.25;"/>
   </g>
   <g id="text_60">
    <!-- Trained on 16 points -->
    <g style="fill:#262626;" transform="translate(205.708381 453.490909)scale(0.12 -0.12)">
     <use xlink:href="#ArialMT-84"/>
     <use x="57.333984" xlink:href="#ArialMT-114"/>
     <use x="90.634766" xlink:href="#ArialMT-97"/>
     <use x="146.25" xlink:href="#ArialMT-105"/>
     <use x="168.466797" xlink:href="#ArialMT-110"/>
     <use x="224.082031" xlink:href="#ArialMT-101"/>
     <use x="279.697266" xlink:href="#ArialMT-100"/>
     <use x="335.3125" xlink:href="#ArialMT-32"/>
     <use x="363.095703" xlink:href="#ArialMT-111"/>
     <use x="418.710938" xlink:href="#ArialMT-110"/>
     <use x="474.326172" xlink:href="#ArialMT-32"/>
     <use x="502.109375" xlink:href="#ArialMT-49"/>
     <use x="557.724609" xlink:href="#ArialMT-54"/>
     <use x="613.339844" xlink:href="#ArialMT-32"/>
     <use x="641.123047" xlink:href="#ArialMT-112"/>
     <use x="696.738281" xlink:href="#ArialMT-111"/>
     <use x="752.353516" xlink:href="#ArialMT-105"/>
     <use x="774.570312" xlink:href="#ArialMT-110"/>
     <use x="830.185547" xlink:href="#ArialMT-116"/>
     <use x="857.96875" xlink:href="#ArialMT-115"/>
    </g>
   </g>
   <g id="legend_3">
    <g id="line2d_93">
     <path d="M 313.107386 472.148722 
L 333.107386 472.148722 
" style="fill:none;stroke:#ffc100;stroke-linecap:round;stroke-width:1.5;"/>
    </g>
    <g id="line2d_94"/>
    <g id="text_61">
     <!-- pred -->
     <g style="fill:#262626;" transform="translate(341.107386 475.648722)scale(0.1 -0.1)">
      <use xlink:href="#ArialMT-112"/>
      <use x="55.615234" xlink:href="#ArialMT-114"/>
      <use x="88.916016" xlink:href="#ArialMT-101"/>
      <use x="144.53125" xlink:href="#ArialMT-100"/>
     </g>
    </g>
    <g id="line2d_95">
     <path d="M 313.107386 486.294034 
L 333.107386 486.294034 
" style="fill:none;stroke:#348fea;stroke-linecap:round;stroke-width:1.5;"/>
    </g>
    <g id="line2d_96"/>
    <g id="text_62">
     <!-- true -->
     <g style="fill:#262626;" transform="translate(341.107386 489.794034)scale(0.1 -0.1)">
      <use xlink:href="#ArialMT-116"/>
      <use x="27.783203" xlink:href="#ArialMT-114"/>
      <use x="61.083984" xlink:href="#ArialMT-117"/>
      <use x="116.699219" xlink:href="#ArialMT-101"/>
     </g>
    </g>
    <g id="PathCollection_6">
     <g>
      <use style="fill:#3b4856;stroke:#3b4856;" x="323.107386" xlink:href="#ma2f37f775b" y="501.314347"/>
     </g>
    </g>
    <g id="text_63">
     <!-- training points -->
     <g style="fill:#262626;" transform="translate(341.107386 503.939347)scale(0.1 -0.1)">
      <use xlink:href="#ArialMT-116"/>
      <use x="27.783203" xlink:href="#ArialMT-114"/>
      <use x="61.083984" xlink:href="#ArialMT-97"/>
      <use x="116.699219" xlink:href="#ArialMT-105"/>
      <use x="138.916016" xlink:href="#ArialMT-110"/>
      <use x="194.53125" xlink:href="#ArialMT-105"/>
      <use x="216.748047" xlink:href="#ArialMT-110"/>
      <use x="272.363281" xlink:href="#ArialMT-103"/>
      <use x="327.978516" xlink:href="#ArialMT-32"/>
      <use x="355.761719" xlink:href="#ArialMT-112"/>
      <use x="411.376953" xlink:href="#ArialMT-111"/>
      <use x="466.992188" xlink:href="#ArialMT-105"/>
      <use x="489.208984" xlink:href="#ArialMT-110"/>
      <use x="544.824219" xlink:href="#ArialMT-116"/>
      <use x="572.607422" xlink:href="#ArialMT-115"/>
     </g>
    </g>
   </g>
  </g>
  <g id="axes_4">
   <g id="patch_17">
    <path d="M 473.236364 756 
L 777.6 756 
L 777.6 459.490909 
L 473.236364 459.490909 
z
" style="fill:#ffffff;"/>
   </g>
   <g id="matplotlib.axis_7">
    <g id="xtick_28">
     <g id="line2d_97"/>
     <g id="text_64">
      <!-- −1.5 -->
      <g style="fill:#262626;" transform="translate(474.450149 766.657812)scale(0.1 -0.1)">
       <use xlink:href="#ArialMT-8722"/>
       <use x="58.398438" xlink:href="#ArialMT-49"/>
       <use x="114.013672" xlink:href="#ArialMT-46"/>
       <use x="141.796875" xlink:href="#ArialMT-53"/>
      </g>
     </g>
    </g>
    <g id="xtick_29">
     <g id="line2d_98"/>
     <g id="text_65">
      <!-- −1.0 -->
      <g style="fill:#262626;" transform="translate(510.857283 766.657812)scale(0.1 -0.1)">
       <use xlink:href="#ArialMT-8722"/>
       <use x="58.398438" xlink:href="#ArialMT-49"/>
       <use x="114.013672" xlink:href="#ArialMT-46"/>
       <use x="141.796875" xlink:href="#ArialMT-48"/>
      </g>
     </g>
    </g>
    <g id="xtick_30">
     <g id="line2d_99"/>
     <g id="text_66">
      <!-- −0.5 -->
      <g style="fill:#262626;" transform="translate(547.264416 766.657812)scale(0.1 -0.1)">
       <use xlink:href="#ArialMT-8722"/>
       <use x="58.398438" xlink:href="#ArialMT-48"/>
       <use x="114.013672" xlink:href="#ArialMT-46"/>
       <use x="141.796875" xlink:href="#ArialMT-53"/>
      </g>
     </g>
    </g>
    <g id="xtick_31">
     <g id="line2d_100"/>
     <g id="text_67">
      <!-- 0.0 -->
      <g style="fill:#262626;" transform="translate(586.591862 766.657812)scale(0.1 -0.1)">
       <use xlink:href="#ArialMT-48"/>
       <use x="55.615234" xlink:href="#ArialMT-46"/>
       <use x="83.398438" xlink:href="#ArialMT-48"/>
      </g>
     </g>
    </g>
    <g id="xtick_32">
     <g id="line2d_101"/>
     <g id="text_68">
      <!-- 0.5 -->
      <g style="fill:#262626;" transform="translate(622.998996 766.657812)scale(0.1 -0.1)">
       <use xlink:href="#ArialMT-48"/>
       <use x="55.615234" xlink:href="#ArialMT-46"/>
       <use x="83.398438" xlink:href="#ArialMT-53"/>
      </g>
     </g>
    </g>
    <g id="xtick_33">
     <g id="line2d_102"/>
     <g id="text_69">
      <!-- 1.0 -->
      <g style="fill:#262626;" transform="translate(659.406129 766.657812)scale(0.1 -0.1)">
       <use xlink:href="#ArialMT-49"/>
       <use x="55.615234" xlink:href="#ArialMT-46"/>
       <use x="83.398438" xlink:href="#ArialMT-48"/>
      </g>
     </g>
    </g>
    <g id="xtick_34">
     <g id="line2d_103"/>
     <g id="text_70">
      <!-- 1.5 -->
      <g style="fill:#262626;" transform="translate(695.813263 766.657812)scale(0.1 -0.1)">
       <use xlink:href="#ArialMT-49"/>
       <use x="55.615234" xlink:href="#ArialMT-46"/>
       <use x="83.398438" xlink:href="#ArialMT-53"/>
      </g>
     </g>
    </g>
    <g id="xtick_35">
     <g id="line2d_104"/>
     <g id="text_71">
      <!-- 2.0 -->
      <g style="fill:#262626;" transform="translate(732.220396 766.657812)scale(0.1 -0.1)">
       <use xlink:href="#ArialMT-50"/>
       <use x="55.615234" xlink:href="#ArialMT-46"/>
       <use x="83.398438" xlink:href="#ArialMT-48"/>
      </g>
     </g>
    </g>
    <g id="xtick_36">
     <g id="line2d_105"/>
     <g id="text_72">
      <!-- 2.5 -->
      <g style="fill:#262626;" transform="translate(768.62753 766.657812)scale(0.1 -0.1)">
       <use xlink:href="#ArialMT-50"/>
       <use x="55.615234" xlink:href="#ArialMT-46"/>
       <use x="83.398438" xlink:href="#ArialMT-53"/>
      </g>
     </g>
    </g>
   </g>
   <g id="matplotlib.axis_8">
    <g id="ytick_25">
     <g id="line2d_106"/>
     <g id="text_73">
      <!-- −2 -->
      <g style="fill:#262626;" transform="translate(458.334801 759.578906)scale(0.1 -0.1)">
       <use xlink:href="#ArialMT-8722"/>
       <use x="58.398438" xlink:href="#ArialMT-50"/>
      </g>
     </g>
    </g>
    <g id="ytick_26">
     <g id="line2d_107"/>
     <g id="text_74">
      <!-- 0 -->
      <g style="fill:#262626;" transform="translate(464.175426 717.220465)scale(0.1 -0.1)">
       <use xlink:href="#ArialMT-48"/>
      </g>
     </g>
    </g>
    <g id="ytick_27">
     <g id="line2d_108"/>
     <g id="text_75">
      <!-- 2 -->
      <g style="fill:#262626;" transform="translate(464.175426 674.862023)scale(0.1 -0.1)">
       <use xlink:href="#ArialMT-50"/>
      </g>
     </g>
    </g>
    <g id="ytick_28">
     <g id="line2d_109"/>
     <g id="text_76">
      <!-- 4 -->
      <g style="fill:#262626;" transform="translate(464.175426 632.503582)scale(0.1 -0.1)">
       <use xlink:href="#ArialMT-52"/>
      </g>
     </g>
    </g>
    <g id="ytick_29">
     <g id="line2d_110"/>
     <g id="text_77">
      <!-- 6 -->
      <g style="fill:#262626;" transform="translate(464.175426 590.14514)scale(0.1 -0.1)">
       <use xlink:href="#ArialMT-54"/>
      </g>
     </g>
    </g>
    <g id="ytick_30">
     <g id="line2d_111"/>
     <g id="text_78">
      <!-- 8 -->
      <g style="fill:#262626;" transform="translate(464.175426 547.786698)scale(0.1 -0.1)">
       <use xlink:href="#ArialMT-56"/>
      </g>
     </g>
    </g>
    <g id="ytick_31">
     <g id="line2d_112"/>
     <g id="text_79">
      <!-- 10 -->
      <g style="fill:#262626;" transform="translate(458.614489 505.428257)scale(0.1 -0.1)">
       <use xlink:href="#ArialMT-49"/>
       <use x="55.615234" xlink:href="#ArialMT-48"/>
      </g>
     </g>
    </g>
    <g id="ytick_32">
     <g id="line2d_113"/>
     <g id="text_80">
      <!-- 12 -->
      <g style="fill:#262626;" transform="translate(458.614489 463.069815)scale(0.1 -0.1)">
       <use xlink:href="#ArialMT-49"/>
       <use x="55.615234" xlink:href="#ArialMT-50"/>
      </g>
     </g>
    </g>
   </g>
   <g id="PathCollection_7">
    <g clip-path="url(#p4b42ea4ae7)">
     <use style="fill:#3b4856;stroke:#3b4856;" x="711.113193" xlink:href="#ma2f37f775b" y="592.971625"/>
     <use style="fill:#3b4856;stroke:#3b4856;" x="677.67323" xlink:href="#ma2f37f775b" y="677.686175"/>
     <use style="fill:#3b4856;stroke:#3b4856;" x="659.241053" xlink:href="#ma2f37f775b" y="668.549787"/>
     <use style="fill:#3b4856;stroke:#3b4856;" x="699.627452" xlink:href="#ma2f37f775b" y="628.051821"/>
     <use style="fill:#3b4856;stroke:#3b4856;" x="545.220792" xlink:href="#ma2f37f775b" y="616.189576"/>
     <use style="fill:#3b4856;stroke:#3b4856;" x="736.113916" xlink:href="#ma2f37f775b" y="644.819442"/>
     <use style="fill:#3b4856;stroke:#3b4856;" x="605.28363" xlink:href="#ma2f37f775b" y="658.988844"/>
     <use style="fill:#3b4856;stroke:#3b4856;" x="668.896654" xlink:href="#ma2f37f775b" y="608.174668"/>
     <use style="fill:#3b4856;stroke:#3b4856;" x="552.180378" xlink:href="#ma2f37f775b" y="728.755109"/>
     <use style="fill:#3b4856;stroke:#3b4856;" x="725.325642" xlink:href="#ma2f37f775b" y="571.141901"/>
     <use style="fill:#3b4856;stroke:#3b4856;" x="632.083245" xlink:href="#ma2f37f775b" y="628.720946"/>
     <use style="fill:#3b4856;stroke:#3b4856;" x="583.175" xlink:href="#ma2f37f775b" y="691.307627"/>
     <use style="fill:#3b4856;stroke:#3b4856;" x="567.176542" xlink:href="#ma2f37f775b" y="642.606132"/>
     <use style="fill:#3b4856;stroke:#3b4856;" x="579.881676" xlink:href="#ma2f37f775b" y="649.168568"/>
     <use style="fill:#3b4856;stroke:#3b4856;" x="612.013328" xlink:href="#ma2f37f775b" y="590.772437"/>
     <use style="fill:#3b4856;stroke:#3b4856;" x="717.155201" xlink:href="#ma2f37f775b" y="642.896757"/>
     <use style="fill:#3b4856;stroke:#3b4856;" x="601.858101" xlink:href="#ma2f37f775b" y="688.969769"/>
     <use style="fill:#3b4856;stroke:#3b4856;" x="562.224913" xlink:href="#ma2f37f775b" y="642.318805"/>
     <use style="fill:#3b4856;stroke:#3b4856;" x="720.137896" xlink:href="#ma2f37f775b" y="715.027642"/>
     <use style="fill:#3b4856;stroke:#3b4856;" x="719.528948" xlink:href="#ma2f37f775b" y="673.239307"/>
     <use style="fill:#3b4856;stroke:#3b4856;" x="550.094223" xlink:href="#ma2f37f775b" y="654.396313"/>
     <use style="fill:#3b4856;stroke:#3b4856;" x="582.694557" xlink:href="#ma2f37f775b" y="641.293164"/>
     <use style="fill:#3b4856;stroke:#3b4856;" x="610.419384" xlink:href="#ma2f37f775b" y="630.847205"/>
     <use style="fill:#3b4856;stroke:#3b4856;" x="621.64962" xlink:href="#ma2f37f775b" y="641.095143"/>
     <use style="fill:#3b4856;stroke:#3b4856;" x="619.309824" xlink:href="#ma2f37f775b" y="644.860093"/>
     <use style="fill:#3b4856;stroke:#3b4856;" x="733.648403" xlink:href="#ma2f37f775b" y="656.603854"/>
     <use style="fill:#3b4856;stroke:#3b4856;" x="636.965475" xlink:href="#ma2f37f775b" y="599.409625"/>
     <use style="fill:#3b4856;stroke:#3b4856;" x="672.248902" xlink:href="#ma2f37f775b" y="708.528104"/>
     <use style="fill:#3b4856;stroke:#3b4856;" x="527.508301" xlink:href="#ma2f37f775b" y="626.097075"/>
     <use style="fill:#3b4856;stroke:#3b4856;" x="618.062197" xlink:href="#ma2f37f775b" y="636.456647"/>
     <use style="fill:#3b4856;stroke:#3b4856;" x="647.650319" xlink:href="#ma2f37f775b" y="675.317735"/>
     <use style="fill:#3b4856;stroke:#3b4856;" x="661.049589" xlink:href="#ma2f37f775b" y="634.445478"/>
     <use style="fill:#3b4856;stroke:#3b4856;" x="676.267497" xlink:href="#ma2f37f775b" y="760.408506"/>
     <use style="fill:#3b4856;stroke:#3b4856;" x="555.911906" xlink:href="#ma2f37f775b" y="633.632753"/>
     <use style="fill:#3b4856;stroke:#3b4856;" x="685.271012" xlink:href="#ma2f37f775b" y="657.802238"/>
     <use style="fill:#3b4856;stroke:#3b4856;" x="611.817615" xlink:href="#ma2f37f775b" y="654.408718"/>
     <use style="fill:#3b4856;stroke:#3b4856;" x="573.187545" xlink:href="#ma2f37f775b" y="650.050093"/>
     <use style="fill:#3b4856;stroke:#3b4856;" x="635.552861" xlink:href="#ma2f37f775b" y="632.991531"/>
     <use style="fill:#3b4856;stroke:#3b4856;" x="610.282188" xlink:href="#ma2f37f775b" y="635.65586"/>
     <use style="fill:#3b4856;stroke:#3b4856;" x="686.480355" xlink:href="#ma2f37f775b" y="701.153761"/>
     <use style="fill:#3b4856;stroke:#3b4856;" x="547.713176" xlink:href="#ma2f37f775b" y="723.020554"/>
     <use style="fill:#3b4856;stroke:#3b4856;" x="550.001142" xlink:href="#ma2f37f775b" y="619.959429"/>
     <use style="fill:#3b4856;stroke:#3b4856;" x="648.838361" xlink:href="#ma2f37f775b" y="705.456855"/>
     <use style="fill:#3b4856;stroke:#3b4856;" x="632.110438" xlink:href="#ma2f37f775b" y="601.441904"/>
     <use style="fill:#3b4856;stroke:#3b4856;" x="696.09304" xlink:href="#ma2f37f775b" y="623.467559"/>
     <use style="fill:#3b4856;stroke:#3b4856;" x="523.478208" xlink:href="#ma2f37f775b" y="616.711527"/>
     <use style="fill:#3b4856;stroke:#3b4856;" x="710.481122" xlink:href="#ma2f37f775b" y="634.093262"/>
     <use style="fill:#3b4856;stroke:#3b4856;" x="738.741976" xlink:href="#ma2f37f775b" y="563.884771"/>
     <use style="fill:#3b4856;stroke:#3b4856;" x="543.226531" xlink:href="#ma2f37f775b" y="691.275838"/>
     <use style="fill:#3b4856;stroke:#3b4856;" x="639.804568" xlink:href="#ma2f37f775b" y="644.826267"/>
     <use style="fill:#3b4856;stroke:#3b4856;" x="554.422458" xlink:href="#ma2f37f775b" y="579.532752"/>
     <use style="fill:#3b4856;stroke:#3b4856;" x="583.289368" xlink:href="#ma2f37f775b" y="620.040134"/>
     <use style="fill:#3b4856;stroke:#3b4856;" x="736.892155" xlink:href="#ma2f37f775b" y="517.069369"/>
     <use style="fill:#3b4856;stroke:#3b4856;" x="677.60701" xlink:href="#ma2f37f775b" y="640.478581"/>
     <use style="fill:#3b4856;stroke:#3b4856;" x="736.750707" xlink:href="#ma2f37f775b" y="633.193693"/>
     <use style="fill:#3b4856;stroke:#3b4856;" x="708.537406" xlink:href="#ma2f37f775b" y="624.824451"/>
     <use style="fill:#3b4856;stroke:#3b4856;" x="535.783024" xlink:href="#ma2f37f775b" y="620.693794"/>
     <use style="fill:#3b4856;stroke:#3b4856;" x="727.99514" xlink:href="#ma2f37f775b" y="613.906342"/>
     <use style="fill:#3b4856;stroke:#3b4856;" x="557.81409" xlink:href="#ma2f37f775b" y="600.784406"/>
     <use style="fill:#3b4856;stroke:#3b4856;" x="598.770576" xlink:href="#ma2f37f775b" y="658.494287"/>
     <use style="fill:#3b4856;stroke:#3b4856;" x="609.182784" xlink:href="#ma2f37f775b" y="646.980152"/>
     <use style="fill:#3b4856;stroke:#3b4856;" x="707.551215" xlink:href="#ma2f37f775b" y="589.166881"/>
     <use style="fill:#3b4856;stroke:#3b4856;" x="580.102021" xlink:href="#ma2f37f775b" y="688.352552"/>
     <use style="fill:#3b4856;stroke:#3b4856;" x="632.416008" xlink:href="#ma2f37f775b" y="649.933668"/>
    </g>
   </g>
   <g id="line2d_114">
    <path clip-path="url(#p4b42ea4ae7)" d="M 487.071074 598.599189 
L 501.633928 607.529315 
L 516.196781 616.118092 
L 530.759635 624.227837 
L 545.322488 631.720869 
L 559.885341 638.459506 
L 574.448195 644.306065 
L 589.011048 649.122865 
L 603.573902 652.772223 
L 618.136755 655.116458 
L 632.699609 656.017887 
L 647.262462 655.338829 
L 661.825315 652.941601 
L 676.388169 648.688522 
L 690.951022 642.44191 
L 705.513876 634.064081 
L 720.076729 623.417356 
L 734.639582 610.36405 
L 749.202436 594.766483 
L 763.765289 576.486973 
" style="fill:none;stroke:#ffc100;stroke-linecap:round;stroke-width:1.5;"/>
   </g>
   <g id="line2d_115">
    <path clip-path="url(#p4b42ea4ae7)" d="M 487.071074 645.980749 
L 501.633928 641.512107 
L 516.196781 639.517656 
L 530.759635 639.550178 
L 545.322488 641.162456 
L 559.885341 643.907272 
L 574.448195 647.337409 
L 589.011048 651.005649 
L 603.573902 654.464776 
L 618.136755 657.267572 
L 632.699609 658.966819 
L 647.262462 659.1153 
L 661.825315 657.265798 
L 676.388169 652.971095 
L 690.951022 645.783974 
L 705.513876 635.257218 
L 720.076729 620.943609 
L 734.639582 602.39593 
L 749.202436 579.166963 
L 763.765289 550.809492 
" style="fill:none;stroke:#ffc100;stroke-linecap:round;stroke-width:1.5;"/>
   </g>
   <g id="line2d_116">
    <path clip-path="url(#p4b42ea4ae7)" d="M 487.071074 619.712798 
L 501.633928 622.01769 
L 516.196781 625.356937 
L 530.759635 629.461209 
L 545.322488 634.061179 
L 559.885341 638.887516 
L 574.448195 643.670892 
L 589.011048 648.141979 
L 603.573902 652.031446 
L 618.136755 655.069966 
L 632.699609 656.988209 
L 647.262462 657.516847 
L 661.825315 656.386549 
L 676.388169 653.327988 
L 690.951022 648.071835 
L 705.513876 640.34876 
L 720.076729 629.889435 
L 734.639582 616.42453 
L 749.202436 599.684718 
L 763.765289 579.400668 
" style="fill:none;stroke:#ffc100;stroke-linecap:round;stroke-width:1.5;"/>
   </g>
   <g id="line2d_117">
    <path clip-path="url(#p4b42ea4ae7)" d="M 487.071074 678.553892 
L 501.633928 661.464311 
L 516.196781 649.739465 
L 530.759635 642.633803 
L 545.322488 639.401773 
L 559.885341 639.297822 
L 574.448195 641.5764 
L 589.011048 645.491954 
L 603.573902 650.298933 
L 618.136755 655.251784 
L 632.699609 659.604955 
L 647.262462 662.612896 
L 661.825315 663.530053 
L 676.388169 661.610875 
L 690.951022 656.10981 
L 705.513876 646.281306 
L 720.076729 631.379812 
L 734.639582 610.659775 
L 749.202436 583.375644 
L 763.765289 548.781866 
" style="fill:none;stroke:#ffc100;stroke-linecap:round;stroke-width:1.5;"/>
   </g>
   <g id="line2d_118">
    <path clip-path="url(#p4b42ea4ae7)" d="M 487.071074 691.162177 
L 501.633928 675.669021 
L 516.196781 664.132126 
L 530.759635 656.030148 
L 545.322488 650.841743 
L 559.885341 648.045568 
L 574.448195 647.120279 
L 589.011048 647.544532 
L 603.573902 648.796984 
L 618.136755 650.356291 
L 632.699609 651.70111 
L 647.262462 652.310096 
L 661.825315 651.661906 
L 676.388169 649.235196 
L 690.951022 644.508623 
L 705.513876 636.960842 
L 720.076729 626.070511 
L 734.639582 611.316286 
L 749.202436 592.176823 
L 763.765289 568.130777 
" style="fill:none;stroke:#ffc100;stroke-linecap:round;stroke-width:1.5;"/>
   </g>
   <g id="line2d_119">
    <path clip-path="url(#p4b42ea4ae7)" d="M 487.071074 645.418056 
L 501.633928 640.414167 
L 516.196781 637.986633 
L 530.759635 637.686907 
L 545.322488 639.066445 
L 559.885341 641.676701 
L 574.448195 645.06913 
L 589.011048 648.795188 
L 603.573902 652.406329 
L 618.136755 655.454007 
L 632.699609 657.489679 
L 647.262462 658.064797 
L 661.825315 656.730819 
L 676.388169 653.039197 
L 690.951022 646.541388 
L 705.513876 636.788845 
L 720.076729 623.333024 
L 734.639582 605.72538 
L 749.202436 583.517368 
L 763.765289 556.260442 
" style="fill:none;stroke:#ffc100;stroke-linecap:round;stroke-width:1.5;"/>
   </g>
   <g id="line2d_120">
    <path clip-path="url(#p4b42ea4ae7)" d="M 487.071074 658.07068 
L 501.633928 646.673829 
L 516.196781 639.245254 
L 530.759635 635.213361 
L 545.322488 634.006557 
L 559.885341 635.053248 
L 574.448195 637.781841 
L 589.011048 641.620741 
L 603.573902 645.998355 
L 618.136755 650.34309 
L 632.699609 654.083352 
L 647.262462 656.647546 
L 661.825315 657.464081 
L 676.388169 655.96136 
L 690.951022 651.567793 
L 705.513876 643.711783 
L 720.076729 631.821738 
L 734.639582 615.326065 
L 749.202436 593.653169 
L 763.765289 566.231457 
" style="fill:none;stroke:#ffc100;stroke-linecap:round;stroke-width:1.5;"/>
   </g>
   <g id="line2d_121">
    <path clip-path="url(#p4b42ea4ae7)" d="M 487.071074 623.445294 
L 501.633928 623.783074 
L 516.196781 625.533701 
L 530.759635 628.390266 
L 545.322488 632.045858 
L 559.885341 636.193567 
L 574.448195 640.526483 
L 589.011048 644.737696 
L 603.573902 648.520297 
L 618.136755 651.567374 
L 632.699609 653.572019 
L 647.262462 654.227321 
L 661.825315 653.22637 
L 676.388169 650.262255 
L 690.951022 645.028068 
L 705.513876 637.216898 
L 720.076729 626.521834 
L 734.639582 612.635968 
L 749.202436 595.252388 
L 763.765289 574.064185 
" style="fill:none;stroke:#ffc100;stroke-linecap:round;stroke-width:1.5;"/>
   </g>
   <g id="line2d_122">
    <path clip-path="url(#p4b42ea4ae7)" d="M 487.071074 690.792241 
L 501.633928 672.186079 
L 516.196781 658.75978 
L 530.759635 649.823049 
L 545.322488 644.68559 
L 559.885341 642.657105 
L 574.448195 643.047297 
L 589.011048 645.165871 
L 603.573902 648.322529 
L 618.136755 651.826975 
L 632.699609 654.988912 
L 647.262462 657.118043 
L 661.825315 657.524073 
L 676.388169 655.516704 
L 690.951022 650.405639 
L 705.513876 641.500582 
L 720.076729 628.111237 
L 734.639582 609.547306 
L 749.202436 585.118493 
L 763.765289 554.134502 
" style="fill:none;stroke:#ffc100;stroke-linecap:round;stroke-width:1.5;"/>
   </g>
   <g id="line2d_123">
    <path clip-path="url(#p4b42ea4ae7)" d="M 487.071074 657.239185 
L 501.633928 654.209256 
L 516.196781 652.531595 
L 530.759635 651.955147 
L 545.322488 652.228855 
L 559.885341 653.101664 
L 574.448195 654.322516 
L 589.011048 655.640356 
L 603.573902 656.804127 
L 618.136755 657.562773 
L 632.699609 657.665237 
L 647.262462 656.860463 
L 661.825315 654.897395 
L 676.388169 651.524977 
L 690.951022 646.492152 
L 705.513876 639.547864 
L 720.076729 630.441056 
L 734.639582 618.920672 
L 749.202436 604.735657 
L 763.765289 587.634953 
" style="fill:none;stroke:#ffc100;stroke-linecap:round;stroke-width:1.5;"/>
   </g>
   <g id="line2d_124">
    <path clip-path="url(#p4b42ea4ae7)" d="M 487.071074 667.726672 
L 501.633928 658.033017 
L 516.196781 651.547313 
L 530.759635 647.761259 
L 545.322488 646.166554 
L 559.885341 646.254896 
L 574.448195 647.517984 
L 589.011048 649.447517 
L 603.573902 651.535193 
L 618.136755 653.272711 
L 632.699609 654.15177 
L 647.262462 653.664068 
L 661.825315 651.301304 
L 676.388169 646.555178 
L 690.951022 638.917387 
L 705.513876 627.87963 
L 720.076729 612.933606 
L 734.639582 593.571014 
L 749.202436 569.283552 
L 763.765289 539.562919 
" style="fill:none;stroke:#348fea;stroke-linecap:round;stroke-width:1.5;"/>
   </g>
   <g id="patch_18">
    <path d="M 473.236364 756 
L 473.236364 459.490909 
" style="fill:none;stroke:#262626;stroke-linecap:square;stroke-linejoin:miter;stroke-width:1.25;"/>
   </g>
   <g id="patch_19">
    <path d="M 777.6 756 
L 777.6 459.490909 
" style="fill:none;stroke:#262626;stroke-linecap:square;stroke-linejoin:miter;stroke-width:1.25;"/>
   </g>
   <g id="patch_20">
    <path d="M 473.236364 756 
L 777.6 756 
" style="fill:none;stroke:#262626;stroke-linecap:square;stroke-linejoin:miter;stroke-width:1.25;"/>
   </g>
   <g id="patch_21">
    <path d="M 473.236364 459.490909 
L 777.6 459.490909 
" style="fill:none;stroke:#262626;stroke-linecap:square;stroke-linejoin:miter;stroke-width:1.25;"/>
   </g>
   <g id="text_81">
    <!-- Trained on 64 points -->
    <g style="fill:#262626;" transform="translate(570.944744 453.490909)scale(0.12 -0.12)">
     <use xlink:href="#ArialMT-84"/>
     <use x="57.333984" xlink:href="#ArialMT-114"/>
     <use x="90.634766" xlink:href="#ArialMT-97"/>
     <use x="146.25" xlink:href="#ArialMT-105"/>
     <use x="168.466797" xlink:href="#ArialMT-110"/>
     <use x="224.082031" xlink:href="#ArialMT-101"/>
     <use x="279.697266" xlink:href="#ArialMT-100"/>
     <use x="335.3125" xlink:href="#ArialMT-32"/>
     <use x="363.095703" xlink:href="#ArialMT-111"/>
     <use x="418.710938" xlink:href="#ArialMT-110"/>
     <use x="474.326172" xlink:href="#ArialMT-32"/>
     <use x="502.109375" xlink:href="#ArialMT-54"/>
     <use x="557.724609" xlink:href="#ArialMT-52"/>
     <use x="613.339844" xlink:href="#ArialMT-32"/>
     <use x="641.123047" xlink:href="#ArialMT-112"/>
     <use x="696.738281" xlink:href="#ArialMT-111"/>
     <use x="752.353516" xlink:href="#ArialMT-105"/>
     <use x="774.570312" xlink:href="#ArialMT-110"/>
     <use x="830.185547" xlink:href="#ArialMT-116"/>
     <use x="857.96875" xlink:href="#ArialMT-115"/>
    </g>
   </g>
   <g id="legend_4">
    <g id="line2d_125">
     <path d="M 678.34375 472.148722 
L 698.34375 472.148722 
" style="fill:none;stroke:#ffc100;stroke-linecap:round;stroke-width:1.5;"/>
    </g>
    <g id="line2d_126"/>
    <g id="text_82">
     <!-- pred -->
     <g style="fill:#262626;" transform="translate(706.34375 475.648722)scale(0.1 -0.1)">
      <use xlink:href="#ArialMT-112"/>
      <use x="55.615234" xlink:href="#ArialMT-114"/>
      <use x="88.916016" xlink:href="#ArialMT-101"/>
      <use x="144.53125" xlink:href="#ArialMT-100"/>
     </g>
    </g>
    <g id="line2d_127">
     <path d="M 678.34375 486.294034 
L 698.34375 486.294034 
" style="fill:none;stroke:#348fea;stroke-linecap:round;stroke-width:1.5;"/>
    </g>
    <g id="line2d_128"/>
    <g id="text_83">
     <!-- true -->
     <g style="fill:#262626;" transform="translate(706.34375 489.794034)scale(0.1 -0.1)">
      <use xlink:href="#ArialMT-116"/>
      <use x="27.783203" xlink:href="#ArialMT-114"/>
      <use x="61.083984" xlink:href="#ArialMT-117"/>
      <use x="116.699219" xlink:href="#ArialMT-101"/>
     </g>
    </g>
    <g id="PathCollection_8">
     <g>
      <use style="fill:#3b4856;stroke:#3b4856;" x="688.34375" xlink:href="#ma2f37f775b" y="501.314347"/>
     </g>
    </g>
    <g id="text_84">
     <!-- training points -->
     <g style="fill:#262626;" transform="translate(706.34375 503.939347)scale(0.1 -0.1)">
      <use xlink:href="#ArialMT-116"/>
      <use x="27.783203" xlink:href="#ArialMT-114"/>
      <use x="61.083984" xlink:href="#ArialMT-97"/>
      <use x="116.699219" xlink:href="#ArialMT-105"/>
      <use x="138.916016" xlink:href="#ArialMT-110"/>
      <use x="194.53125" xlink:href="#ArialMT-105"/>
      <use x="216.748047" xlink:href="#ArialMT-110"/>
      <use x="272.363281" xlink:href="#ArialMT-103"/>
      <use x="327.978516" xlink:href="#ArialMT-32"/>
      <use x="355.761719" xlink:href="#ArialMT-112"/>
      <use x="411.376953" xlink:href="#ArialMT-111"/>
      <use x="466.992188" xlink:href="#ArialMT-105"/>
      <use x="489.208984" xlink:href="#ArialMT-110"/>
      <use x="544.824219" xlink:href="#ArialMT-116"/>
      <use x="572.607422" xlink:href="#ArialMT-115"/>
     </g>
    </g>
   </g>
  </g>
 </g>
 <defs>
  <clipPath id="pf302d78e56">
   <rect height="296.509091" width="304.363636" x="108" y="103.68"/>
  </clipPath>
  <clipPath id="p0f5ffb3d4d">
   <rect height="296.509091" width="304.363636" x="473.236364" y="103.68"/>
  </clipPath>
  <clipPath id="pc19e62a577">
   <rect height="296.509091" width="304.363636" x="108" y="459.490909"/>
  </clipPath>
  <clipPath id="p4b42ea4ae7">
   <rect height="296.509091" width="304.363636" x="473.236364" y="459.490909"/>
  </clipPath>
 </defs>
</svg>
