<?xml version="1.0" encoding="utf-8" standalone="no"?>
<!DOCTYPE svg PUBLIC "-//W3C//DTD SVG 1.1//EN"
  "http://www.w3.org/Graphics/SVG/1.1/DTD/svg11.dtd">
<!-- Created with matplotlib (https://matplotlib.org/) -->
<svg height="360pt" version="1.1" viewBox="0 0 720 360" width="720pt" xmlns="http://www.w3.org/2000/svg" xmlns:xlink="http://www.w3.org/1999/xlink">
 <defs>
  <style type="text/css">
*{stroke-linecap:butt;stroke-linejoin:round;}
  </style>
 </defs>
 <g id="figure_1">
  <g id="patch_1">
   <path d="M 0 360 
L 720 360 
L 720 0 
L 0 0 
z
" style="fill:#ffffff;"/>
  </g>
  <g id="axes_1">
   <g id="patch_2">
    <path d="M 90 315 
L 648 315 
L 648 43.2 
L 90 43.2 
z
" style="fill:#ffffff;"/>
   </g>
   <g id="matplotlib.axis_1">
    <g id="xtick_1">
     <g id="line2d_1"/>
     <g id="text_1">
      <!-- −4 -->
      <defs>
       <path d="M 52.828125 31.203125 
L 5.5625 31.203125 
L 5.5625 39.40625 
L 52.828125 39.40625 
z
" id="ArialMT-8722"/>
       <path d="M 32.328125 0 
L 32.328125 17.140625 
L 1.265625 17.140625 
L 1.265625 25.203125 
L 33.9375 71.578125 
L 41.109375 71.578125 
L 41.109375 25.203125 
L 50.78125 25.203125 
L 50.78125 17.140625 
L 41.109375 17.140625 
L 41.109375 0 
z
M 32.328125 25.203125 
L 32.328125 57.46875 
L 9.90625 25.203125 
z
" id="ArialMT-52"/>
      </defs>
      <g style="fill:#262626;" transform="translate(109.662855 325.657812)scale(0.1 -0.1)">
       <use xlink:href="#ArialMT-8722"/>
       <use x="58.398438" xlink:href="#ArialMT-52"/>
      </g>
     </g>
    </g>
    <g id="xtick_2">
     <g id="line2d_2"/>
     <g id="text_2">
      <!-- −2 -->
      <defs>
       <path d="M 50.34375 8.453125 
L 50.34375 0 
L 3.03125 0 
Q 2.9375 3.171875 4.046875 6.109375 
Q 5.859375 10.9375 9.828125 15.625 
Q 13.8125 20.3125 21.34375 26.46875 
Q 33.015625 36.03125 37.109375 41.625 
Q 41.21875 47.21875 41.21875 52.203125 
Q 41.21875 57.421875 37.46875 61 
Q 33.734375 64.59375 27.734375 64.59375 
Q 21.390625 64.59375 17.578125 60.78125 
Q 13.765625 56.984375 13.71875 50.25 
L 4.6875 51.171875 
Q 5.609375 61.28125 11.65625 66.578125 
Q 17.71875 71.875 27.9375 71.875 
Q 38.234375 71.875 44.234375 66.15625 
Q 50.25 60.453125 50.25 52 
Q 50.25 47.703125 48.484375 43.546875 
Q 46.734375 39.40625 42.65625 34.8125 
Q 38.578125 30.21875 29.109375 22.21875 
Q 21.1875 15.578125 18.9375 13.203125 
Q 16.703125 10.84375 15.234375 8.453125 
z
" id="ArialMT-50"/>
      </defs>
      <g style="fill:#262626;" transform="translate(177.299219 325.657812)scale(0.1 -0.1)">
       <use xlink:href="#ArialMT-8722"/>
       <use x="58.398438" xlink:href="#ArialMT-50"/>
      </g>
     </g>
    </g>
    <g id="xtick_3">
     <g id="line2d_3"/>
     <g id="text_3">
      <!-- 0 -->
      <defs>
       <path d="M 4.15625 35.296875 
Q 4.15625 48 6.765625 55.734375 
Q 9.375 63.484375 14.515625 67.671875 
Q 19.671875 71.875 27.484375 71.875 
Q 33.25 71.875 37.59375 69.546875 
Q 41.9375 67.234375 44.765625 62.859375 
Q 47.609375 58.5 49.21875 52.21875 
Q 50.828125 45.953125 50.828125 35.296875 
Q 50.828125 22.703125 48.234375 14.96875 
Q 45.65625 7.234375 40.5 3 
Q 35.359375 -1.21875 27.484375 -1.21875 
Q 17.140625 -1.21875 11.234375 6.203125 
Q 4.15625 15.140625 4.15625 35.296875 
z
M 13.1875 35.296875 
Q 13.1875 17.671875 17.3125 11.828125 
Q 21.4375 6 27.484375 6 
Q 33.546875 6 37.671875 11.859375 
Q 41.796875 17.71875 41.796875 35.296875 
Q 41.796875 52.984375 37.671875 58.78125 
Q 33.546875 64.59375 27.390625 64.59375 
Q 21.34375 64.59375 17.71875 59.46875 
Q 13.1875 52.9375 13.1875 35.296875 
z
" id="ArialMT-48"/>
      </defs>
      <g style="fill:#262626;" transform="translate(247.855895 325.657812)scale(0.1 -0.1)">
       <use xlink:href="#ArialMT-48"/>
      </g>
     </g>
    </g>
    <g id="xtick_4">
     <g id="line2d_4"/>
     <g id="text_4">
      <!-- 2 -->
      <g style="fill:#262626;" transform="translate(315.492259 325.657812)scale(0.1 -0.1)">
       <use xlink:href="#ArialMT-50"/>
      </g>
     </g>
    </g>
    <g id="xtick_5">
     <g id="line2d_5"/>
     <g id="text_5">
      <!-- 4 -->
      <g style="fill:#262626;" transform="translate(383.128622 325.657812)scale(0.1 -0.1)">
       <use xlink:href="#ArialMT-52"/>
      </g>
     </g>
    </g>
    <g id="xtick_6">
     <g id="line2d_6"/>
     <g id="text_6">
      <!-- 6 -->
      <defs>
       <path d="M 49.75 54.046875 
L 41.015625 53.375 
Q 39.84375 58.546875 37.703125 60.890625 
Q 34.125 64.65625 28.90625 64.65625 
Q 24.703125 64.65625 21.53125 62.3125 
Q 17.390625 59.28125 14.984375 53.46875 
Q 12.59375 47.65625 12.5 36.921875 
Q 15.671875 41.75 20.265625 44.09375 
Q 24.859375 46.4375 29.890625 46.4375 
Q 38.671875 46.4375 44.84375 39.96875 
Q 51.03125 33.5 51.03125 23.25 
Q 51.03125 16.5 48.125 10.71875 
Q 45.21875 4.9375 40.140625 1.859375 
Q 35.0625 -1.21875 28.609375 -1.21875 
Q 17.625 -1.21875 10.6875 6.859375 
Q 3.765625 14.9375 3.765625 33.5 
Q 3.765625 54.25 11.421875 63.671875 
Q 18.109375 71.875 29.4375 71.875 
Q 37.890625 71.875 43.28125 67.140625 
Q 48.6875 62.40625 49.75 54.046875 
z
M 13.875 23.1875 
Q 13.875 18.65625 15.796875 14.5 
Q 17.71875 10.359375 21.1875 8.171875 
Q 24.65625 6 28.46875 6 
Q 34.03125 6 38.03125 10.484375 
Q 42.046875 14.984375 42.046875 22.703125 
Q 42.046875 30.125 38.078125 34.390625 
Q 34.125 38.671875 28.125 38.671875 
Q 22.171875 38.671875 18.015625 34.390625 
Q 13.875 30.125 13.875 23.1875 
z
" id="ArialMT-54"/>
      </defs>
      <g style="fill:#262626;" transform="translate(450.764986 325.657812)scale(0.1 -0.1)">
       <use xlink:href="#ArialMT-54"/>
      </g>
     </g>
    </g>
    <g id="xtick_7">
     <g id="line2d_7"/>
     <g id="text_7">
      <!-- 8 -->
      <defs>
       <path d="M 17.671875 38.8125 
Q 12.203125 40.828125 9.5625 44.53125 
Q 6.9375 48.25 6.9375 53.421875 
Q 6.9375 61.234375 12.546875 66.546875 
Q 18.171875 71.875 27.484375 71.875 
Q 36.859375 71.875 42.578125 66.421875 
Q 48.296875 60.984375 48.296875 53.171875 
Q 48.296875 48.1875 45.671875 44.5 
Q 43.0625 40.828125 37.75 38.8125 
Q 44.34375 36.671875 47.78125 31.875 
Q 51.21875 27.09375 51.21875 20.453125 
Q 51.21875 11.28125 44.71875 5.03125 
Q 38.234375 -1.21875 27.640625 -1.21875 
Q 17.046875 -1.21875 10.546875 5.046875 
Q 4.046875 11.328125 4.046875 20.703125 
Q 4.046875 27.6875 7.59375 32.390625 
Q 11.140625 37.109375 17.671875 38.8125 
z
M 15.921875 53.71875 
Q 15.921875 48.640625 19.1875 45.40625 
Q 22.46875 42.1875 27.6875 42.1875 
Q 32.765625 42.1875 36.015625 45.375 
Q 39.265625 48.578125 39.265625 53.21875 
Q 39.265625 58.0625 35.90625 61.359375 
Q 32.5625 64.65625 27.59375 64.65625 
Q 22.5625 64.65625 19.234375 61.421875 
Q 15.921875 58.203125 15.921875 53.71875 
z
M 13.09375 20.65625 
Q 13.09375 16.890625 14.875 13.375 
Q 16.65625 9.859375 20.171875 7.921875 
Q 23.6875 6 27.734375 6 
Q 34.03125 6 38.125 10.046875 
Q 42.234375 14.109375 42.234375 20.359375 
Q 42.234375 26.703125 38.015625 30.859375 
Q 33.796875 35.015625 27.4375 35.015625 
Q 21.234375 35.015625 17.15625 30.90625 
Q 13.09375 26.8125 13.09375 20.65625 
z
" id="ArialMT-56"/>
      </defs>
      <g style="fill:#262626;" transform="translate(518.401349 325.657812)scale(0.1 -0.1)">
       <use xlink:href="#ArialMT-56"/>
      </g>
     </g>
    </g>
    <g id="xtick_8">
     <g id="line2d_8"/>
     <g id="text_8">
      <!-- 10 -->
      <defs>
       <path d="M 37.25 0 
L 28.46875 0 
L 28.46875 56 
Q 25.296875 52.984375 20.140625 49.953125 
Q 14.984375 46.921875 10.890625 45.40625 
L 10.890625 53.90625 
Q 18.265625 57.375 23.78125 62.296875 
Q 29.296875 67.234375 31.59375 71.875 
L 37.25 71.875 
z
" id="ArialMT-49"/>
      </defs>
      <g style="fill:#262626;" transform="translate(583.257244 325.657812)scale(0.1 -0.1)">
       <use xlink:href="#ArialMT-49"/>
       <use x="55.615234" xlink:href="#ArialMT-48"/>
      </g>
     </g>
    </g>
   </g>
   <g id="matplotlib.axis_2">
    <g id="ytick_1">
     <g id="line2d_9"/>
     <g id="text_9">
      <!-- 0.00 -->
      <defs>
       <path d="M 9.078125 0 
L 9.078125 10.015625 
L 19.09375 10.015625 
L 19.09375 0 
z
" id="ArialMT-46"/>
      </defs>
      <g style="fill:#262626;" transform="translate(67.039062 306.224361)scale(0.1 -0.1)">
       <use xlink:href="#ArialMT-48"/>
       <use x="55.615234" xlink:href="#ArialMT-46"/>
       <use x="83.398438" xlink:href="#ArialMT-48"/>
       <use x="139.013672" xlink:href="#ArialMT-48"/>
      </g>
     </g>
    </g>
    <g id="ytick_2">
     <g id="line2d_10"/>
     <g id="text_10">
      <!-- 0.05 -->
      <defs>
       <path d="M 4.15625 18.75 
L 13.375 19.53125 
Q 14.40625 12.796875 18.140625 9.390625 
Q 21.875 6 27.15625 6 
Q 33.5 6 37.890625 10.78125 
Q 42.28125 15.578125 42.28125 23.484375 
Q 42.28125 31 38.0625 35.34375 
Q 33.84375 39.703125 27 39.703125 
Q 22.75 39.703125 19.328125 37.765625 
Q 15.921875 35.84375 13.96875 32.765625 
L 5.71875 33.84375 
L 12.640625 70.609375 
L 48.25 70.609375 
L 48.25 62.203125 
L 19.671875 62.203125 
L 15.828125 42.96875 
Q 22.265625 47.46875 29.34375 47.46875 
Q 38.71875 47.46875 45.15625 40.96875 
Q 51.609375 34.46875 51.609375 24.265625 
Q 51.609375 14.546875 45.953125 7.46875 
Q 39.0625 -1.21875 27.15625 -1.21875 
Q 17.390625 -1.21875 11.203125 4.25 
Q 5.03125 9.71875 4.15625 18.75 
z
" id="ArialMT-53"/>
      </defs>
      <g style="fill:#262626;" transform="translate(67.039062 272.491171)scale(0.1 -0.1)">
       <use xlink:href="#ArialMT-48"/>
       <use x="55.615234" xlink:href="#ArialMT-46"/>
       <use x="83.398438" xlink:href="#ArialMT-48"/>
       <use x="139.013672" xlink:href="#ArialMT-53"/>
      </g>
     </g>
    </g>
    <g id="ytick_3">
     <g id="line2d_11"/>
     <g id="text_11">
      <!-- 0.10 -->
      <g style="fill:#262626;" transform="translate(67.039062 238.757981)scale(0.1 -0.1)">
       <use xlink:href="#ArialMT-48"/>
       <use x="55.615234" xlink:href="#ArialMT-46"/>
       <use x="83.398438" xlink:href="#ArialMT-49"/>
       <use x="139.013672" xlink:href="#ArialMT-48"/>
      </g>
     </g>
    </g>
    <g id="ytick_4">
     <g id="line2d_12"/>
     <g id="text_12">
      <!-- 0.15 -->
      <g style="fill:#262626;" transform="translate(67.039062 205.02479)scale(0.1 -0.1)">
       <use xlink:href="#ArialMT-48"/>
       <use x="55.615234" xlink:href="#ArialMT-46"/>
       <use x="83.398438" xlink:href="#ArialMT-49"/>
       <use x="139.013672" xlink:href="#ArialMT-53"/>
      </g>
     </g>
    </g>
    <g id="ytick_5">
     <g id="line2d_13"/>
     <g id="text_13">
      <!-- 0.20 -->
      <g style="fill:#262626;" transform="translate(67.039062 171.2916)scale(0.1 -0.1)">
       <use xlink:href="#ArialMT-48"/>
       <use x="55.615234" xlink:href="#ArialMT-46"/>
       <use x="83.398438" xlink:href="#ArialMT-50"/>
       <use x="139.013672" xlink:href="#ArialMT-48"/>
      </g>
     </g>
    </g>
    <g id="ytick_6">
     <g id="line2d_14"/>
     <g id="text_14">
      <!-- 0.25 -->
      <g style="fill:#262626;" transform="translate(67.039062 137.55841)scale(0.1 -0.1)">
       <use xlink:href="#ArialMT-48"/>
       <use x="55.615234" xlink:href="#ArialMT-46"/>
       <use x="83.398438" xlink:href="#ArialMT-50"/>
       <use x="139.013672" xlink:href="#ArialMT-53"/>
      </g>
     </g>
    </g>
    <g id="ytick_7">
     <g id="line2d_15"/>
     <g id="text_15">
      <!-- 0.30 -->
      <defs>
       <path d="M 4.203125 18.890625 
L 12.984375 20.0625 
Q 14.5 12.59375 18.140625 9.296875 
Q 21.78125 6 27 6 
Q 33.203125 6 37.46875 10.296875 
Q 41.75 14.59375 41.75 20.953125 
Q 41.75 27 37.796875 30.921875 
Q 33.84375 34.859375 27.734375 34.859375 
Q 25.25 34.859375 21.53125 33.890625 
L 22.515625 41.609375 
Q 23.390625 41.5 23.921875 41.5 
Q 29.546875 41.5 34.03125 44.421875 
Q 38.53125 47.359375 38.53125 53.46875 
Q 38.53125 58.296875 35.25 61.46875 
Q 31.984375 64.65625 26.8125 64.65625 
Q 21.6875 64.65625 18.265625 61.421875 
Q 14.84375 58.203125 13.875 51.765625 
L 5.078125 53.328125 
Q 6.6875 62.15625 12.390625 67.015625 
Q 18.109375 71.875 26.609375 71.875 
Q 32.46875 71.875 37.390625 69.359375 
Q 42.328125 66.84375 44.9375 62.5 
Q 47.5625 58.15625 47.5625 53.265625 
Q 47.5625 48.640625 45.0625 44.828125 
Q 42.578125 41.015625 37.703125 38.765625 
Q 44.046875 37.3125 47.5625 32.6875 
Q 51.078125 28.078125 51.078125 21.140625 
Q 51.078125 11.765625 44.234375 5.25 
Q 37.40625 -1.265625 26.953125 -1.265625 
Q 17.53125 -1.265625 11.296875 4.34375 
Q 5.078125 9.96875 4.203125 18.890625 
z
" id="ArialMT-51"/>
      </defs>
      <g style="fill:#262626;" transform="translate(67.039062 103.82522)scale(0.1 -0.1)">
       <use xlink:href="#ArialMT-48"/>
       <use x="55.615234" xlink:href="#ArialMT-46"/>
       <use x="83.398438" xlink:href="#ArialMT-51"/>
       <use x="139.013672" xlink:href="#ArialMT-48"/>
      </g>
     </g>
    </g>
    <g id="ytick_8">
     <g id="line2d_16"/>
     <g id="text_16">
      <!-- 0.35 -->
      <g style="fill:#262626;" transform="translate(67.039062 70.09203)scale(0.1 -0.1)">
       <use xlink:href="#ArialMT-48"/>
       <use x="55.615234" xlink:href="#ArialMT-46"/>
       <use x="83.398438" xlink:href="#ArialMT-51"/>
       <use x="139.013672" xlink:href="#ArialMT-53"/>
      </g>
     </g>
    </g>
   </g>
   <g id="line2d_17">
    <path clip-path="url(#pcf0703c8db)" d="M 115.363636 300.778106 
L 145.952947 299.954695 
L 171.444038 299.058981 
L 196.93513 297.938723 
L 219.877113 296.713436 
L 242.819095 295.262582 
L 265.761078 293.571679 
L 288.703061 291.632839 
L 311.645043 289.446706 
L 334.587026 287.02424 
L 357.529009 284.38815 
L 385.56921 280.92881 
L 423.805847 275.951921 
L 472.238922 269.673635 
L 497.730014 266.616553 
L 518.122887 264.397871 
L 535.966651 262.671802 
L 553.810416 261.184377 
L 569.105071 260.123652 
L 584.399726 259.278792 
L 599.694381 258.663597 
L 614.989036 258.288228 
L 622.636364 258.192589 
L 622.636364 258.192589 
" style="fill:none;stroke:#348fea;stroke-linecap:round;stroke-width:1.5;"/>
   </g>
   <g id="line2d_18">
    <path clip-path="url(#pcf0703c8db)" d="M 115.363636 302.645415 
L 179.091366 302.549272 
L 191.836912 302.313742 
L 199.484239 301.983149 
L 204.582458 301.617526 
L 209.680676 301.077141 
L 214.778894 300.293287 
L 219.877113 299.177535 
L 222.426222 298.461552 
L 224.975331 297.619306 
L 227.52444 296.633295 
L 230.07355 295.484564 
L 232.622659 294.152771 
L 235.171768 292.616302 
L 237.720877 290.852439 
L 240.269986 288.837579 
L 242.819095 286.547518 
L 245.368205 283.957794 
L 247.917314 281.044098 
L 250.466423 277.782744 
L 253.015532 274.151201 
L 255.564641 270.12868 
L 258.113751 265.696769 
L 260.66286 260.840102 
L 263.211969 255.547054 
L 265.761078 249.810446 
L 268.310187 243.628231 
L 270.859296 237.004161 
L 273.408406 229.948395 
L 275.957515 222.478031 
L 281.055733 206.399124 
L 286.153952 189.056558 
L 293.801279 161.611507 
L 301.448607 134.151738 
L 306.546825 116.951731 
L 309.095934 108.951517 
L 311.645043 101.469443 
L 314.194153 94.590663 
L 316.743262 88.395561 
L 319.292371 82.958196 
L 321.84148 78.344827 
L 324.390589 74.612576 
L 326.939698 71.808246 
L 329.488808 69.967347 
L 332.037917 69.113349 
L 334.587026 69.257182 
L 337.136135 70.397003 
L 339.685244 72.518236 
L 342.234354 75.593883 
L 344.783463 79.585094 
L 347.332572 84.441986 
L 349.881681 90.104677 
L 352.43079 96.50452 
L 354.979899 103.565477 
L 357.529009 111.205631 
L 360.078118 119.338749 
L 365.176336 136.727045 
L 372.823664 164.279535 
L 380.470991 191.616573 
L 385.56921 208.799837 
L 390.667428 224.670077 
L 393.216537 232.023249 
L 395.765646 238.956162 
L 398.314756 245.453763 
L 400.863865 251.507798 
L 403.412974 257.11625 
L 405.962083 262.282712 
L 408.511192 267.015716 
L 411.060302 271.328035 
L 413.609411 275.235983 
L 416.15852 278.758724 
L 418.707629 281.91761 
L 421.256738 284.735564 
L 423.805847 287.236504 
L 426.354957 289.444827 
L 428.904066 291.38496 
L 431.453175 293.080967 
L 434.002284 294.556223 
L 436.551393 295.833147 
L 439.100503 296.933002 
L 441.649612 297.875741 
L 444.198721 298.679905 
L 449.296939 299.939319 
L 454.395158 300.830101 
L 459.493376 301.448333 
L 464.591594 301.86942 
L 472.238922 302.253212 
L 482.435359 302.496713 
L 500.279123 302.622339 
L 558.908634 302.645443 
L 622.636364 302.645455 
L 622.636364 302.645455 
" style="fill:none;stroke:#4cb9c0;stroke-linecap:round;stroke-width:1.5;"/>
   </g>
   <g id="line2d_19">
    <path clip-path="url(#pcf0703c8db)" d="M 115.363636 302.645447 
L 186.738693 302.551448 
L 199.484239 302.302598 
L 207.131567 301.940693 
L 212.229785 301.53229 
L 217.328004 300.919634 
L 222.426222 300.019117 
L 224.975331 299.428111 
L 227.52444 298.722404 
L 230.07355 297.884105 
L 232.622659 296.893494 
L 235.171768 295.729034 
L 237.720877 294.367434 
L 240.269986 292.783765 
L 242.819095 290.951652 
L 245.368205 288.843524 
L 247.917314 286.430954 
L 250.466423 283.685078 
L 253.015532 280.577098 
L 255.564641 277.078872 
L 258.113751 273.163584 
L 260.66286 268.806493 
L 263.211969 263.985737 
L 265.761078 258.683199 
L 268.310187 252.885392 
L 270.859296 246.584367 
L 273.408406 239.778594 
L 275.957515 232.473806 
L 278.506624 224.683766 
L 281.055733 216.430929 
L 286.153952 198.673116 
L 291.25217 179.569336 
L 306.546825 120.065389 
L 309.095934 110.810063 
L 311.645043 102.02105 
L 314.194153 93.803169 
L 316.743262 86.257656 
L 319.292371 79.480112 
L 321.84148 73.558487 
L 324.390589 68.57119 
L 326.939698 64.585359 
L 329.488808 61.65536 
L 332.037917 59.821554 
L 334.587026 59.109369 
L 337.136135 59.528714 
L 339.685244 61.073753 
L 342.234354 63.723035 
L 344.783463 67.439993 
L 347.332572 72.173784 
L 349.881681 77.860442 
L 352.43079 84.424323 
L 354.979899 91.779772 
L 357.529009 99.832981 
L 360.078118 108.483977 
L 365.176336 127.160925 
L 372.823664 157.032546 
L 380.470991 186.773648 
L 385.56921 205.431643 
L 388.118319 214.220968 
L 390.667428 222.588922 
L 393.216537 230.501383 
L 395.765646 237.93355 
L 398.314756 244.869469 
L 400.863865 251.301396 
L 403.412974 257.229058 
L 405.962083 262.658824 
L 408.511192 267.602832 
L 411.060302 272.078087 
L 413.609411 276.105564 
L 416.15852 279.709339 
L 418.707629 282.915765 
L 421.256738 285.752706 
L 423.805847 288.248852 
L 426.354957 290.433102 
L 428.904066 292.334038 
L 431.453175 293.979488 
L 434.002284 295.396167 
L 436.551393 296.609399 
L 439.100503 297.642911 
L 441.649612 298.518705 
L 444.198721 299.256974 
L 449.296939 300.392576 
L 454.395158 301.175211 
L 459.493376 301.703654 
L 467.140704 302.179159 
L 477.33714 302.47433 
L 492.631795 302.612366 
L 535.966651 302.645328 
L 622.636364 302.645455 
L 622.636364 302.645455 
" style="fill:none;stroke:#97c804;stroke-linecap:round;stroke-width:1.5;"/>
   </g>
   <g id="line2d_20">
    <path clip-path="url(#pcf0703c8db)" d="M 115.363636 302.645455 
L 219.877113 302.558085 
L 232.622659 302.318363 
L 240.269986 301.963618 
L 245.368205 301.559161 
L 250.466423 300.947644 
L 255.564641 300.042261 
L 258.113751 299.445137 
L 260.66286 298.729852 
L 263.211969 297.877603 
L 265.761078 296.867612 
L 268.310187 295.677146 
L 270.859296 294.281575 
L 273.408406 292.6545 
L 275.957515 290.767958 
L 278.506624 288.592696 
L 281.055733 286.098541 
L 283.604842 283.254858 
L 286.153952 280.031105 
L 288.703061 276.397482 
L 291.25217 272.325665 
L 293.801279 267.789631 
L 296.350388 262.766546 
L 298.899497 257.23771 
L 301.448607 251.189535 
L 303.997716 244.614528 
L 306.546825 237.512255 
L 309.095934 229.89025 
L 311.645043 221.764834 
L 314.194153 213.161817 
L 319.292371 194.676677 
L 324.390589 174.846373 
L 339.685244 113.730499 
L 342.234354 104.368734 
L 344.783463 95.537937 
L 347.332572 87.348073 
L 349.881681 79.904344 
L 352.43079 73.304951 
L 354.979899 67.638945 
L 357.529009 62.984232 
L 360.078118 59.40579 
L 362.627227 56.954158 
L 365.176336 55.664255 
L 367.725445 55.554545 
L 370.274555 56.626602 
L 372.823664 58.865071 
L 375.372773 62.238031 
L 377.921882 66.697759 
L 380.470991 72.181848 
L 383.020101 78.614661 
L 385.56921 85.909068 
L 388.118319 93.968405 
L 390.667428 102.6886 
L 393.216537 111.960401 
L 398.314756 131.709426 
L 413.609411 192.887893 
L 418.707629 211.51755 
L 421.256738 220.205457 
L 423.805847 228.421633 
L 426.354957 236.138449 
L 428.904066 243.337871 
L 431.453175 250.010796 
L 434.002284 256.156247 
L 436.551393 261.780481 
L 439.100503 266.89603 
L 441.649612 271.520722 
L 444.198721 275.676696 
L 446.74783 279.389454 
L 449.296939 282.686957 
L 451.846048 285.59879 
L 454.395158 288.155409 
L 456.944267 290.387477 
L 459.493376 292.32529 
L 462.042485 293.998301 
L 464.591594 295.434737 
L 467.140704 296.661303 
L 469.689813 297.702969 
L 472.238922 298.582828 
L 474.788031 299.322019 
L 479.886249 300.453134 
L 484.984468 301.226737 
L 490.082686 301.744791 
L 497.730014 302.20596 
L 507.92645 302.487571 
L 523.221106 302.616012 
L 569.105071 302.645387 
L 622.636364 302.645455 
L 622.636364 302.645455 
" style="fill:none;stroke:#ffc100;stroke-linecap:round;stroke-width:1.5;"/>
   </g>
   <g id="line2d_21">
    <path clip-path="url(#pcf0703c8db)" d="M 115.363636 302.638696 
L 161.247602 302.513414 
L 179.091366 302.281426 
L 191.836912 301.92995 
L 202.033349 301.45222 
L 209.680676 300.9239 
L 217.328004 300.197624 
L 224.975331 299.215346 
L 230.07355 298.384832 
L 235.171768 297.387423 
L 240.269986 296.19845 
L 245.368205 294.791695 
L 250.466423 293.1398 
L 255.564641 291.214798 
L 260.66286 288.988774 
L 265.761078 286.434675 
L 270.859296 283.527236 
L 275.957515 280.244026 
L 281.055733 276.566582 
L 286.153952 272.481612 
L 291.25217 267.982201 
L 296.350388 263.069012 
L 301.448607 257.751386 
L 306.546825 252.048316 
L 311.645043 245.989217 
L 316.743262 239.614441 
L 324.390589 229.576046 
L 334.587026 215.657846 
L 344.783463 201.739145 
L 349.881681 195.017284 
L 354.979899 188.589392 
L 360.078118 182.558571 
L 365.176336 177.025811 
L 367.725445 174.476501 
L 370.274555 172.087205 
L 372.823664 169.868717 
L 375.372773 167.831185 
L 377.921882 165.984035 
L 380.470991 164.335898 
L 383.020101 162.894544 
L 385.56921 161.666821 
L 388.118319 160.658599 
L 390.667428 159.874723 
L 393.216537 159.318979 
L 395.765646 158.994057 
L 398.314756 158.901535 
L 400.863865 159.041861 
L 403.412974 159.414355 
L 405.962083 160.017209 
L 408.511192 160.847505 
L 411.060302 161.901239 
L 413.609411 163.17335 
L 416.15852 164.657762 
L 418.707629 166.347436 
L 421.256738 168.234418 
L 423.805847 170.309909 
L 426.354957 172.564328 
L 428.904066 174.987388 
L 434.002284 180.295224 
L 439.100503 186.140041 
L 444.198721 192.422461 
L 449.296939 199.039891 
L 456.944267 209.369252 
L 472.238922 230.277935 
L 479.886249 240.282204 
L 484.984468 246.626746 
L 490.082686 252.650956 
L 495.180905 258.315618 
L 500.279123 263.592417 
L 505.377341 268.46339 
L 510.47556 272.920134 
L 515.573778 276.962819 
L 520.671996 280.599069 
L 525.770215 283.842764 
L 530.868433 286.712828 
L 535.966651 289.232034 
L 541.06487 291.425877 
L 546.163088 293.321542 
L 551.261307 294.946979 
L 556.359525 296.330125 
L 561.457743 297.498242 
L 566.555962 298.477404 
L 574.203289 299.64494 
L 581.850617 300.516707 
L 589.497944 301.157059 
L 599.694381 301.742517 
L 612.439927 302.179337 
L 622.636364 302.378709 
L 622.636364 302.378709 
" style="fill:none;stroke:#e06a27;stroke-linecap:round;stroke-width:1.5;"/>
   </g>
   <g id="patch_3">
    <path d="M 90 315 
L 90 43.2 
" style="fill:none;stroke:#262626;stroke-linecap:square;stroke-linejoin:miter;stroke-width:1.25;"/>
   </g>
   <g id="patch_4">
    <path d="M 648 315 
L 648 43.2 
" style="fill:none;stroke:#262626;stroke-linecap:square;stroke-linejoin:miter;stroke-width:1.25;"/>
   </g>
   <g id="patch_5">
    <path d="M 90 315 
L 648 315 
" style="fill:none;stroke:#262626;stroke-linecap:square;stroke-linejoin:miter;stroke-width:1.25;"/>
   </g>
   <g id="patch_6">
    <path d="M 90 43.2 
L 648 43.2 
" style="fill:none;stroke:#262626;stroke-linecap:square;stroke-linejoin:miter;stroke-width:1.25;"/>
   </g>
   <g id="legend_1">
    <g id="line2d_22">
     <path d="M 543.22875 58.425 
L 567.22875 58.425 
" style="fill:none;stroke:#348fea;stroke-linecap:round;stroke-width:1.5;"/>
    </g>
    <g id="line2d_23"/>
    <g id="text_17">
     <!-- x_0 = -2 -->
     <defs>
      <path d="M 0.734375 0 
L 19.671875 26.953125 
L 2.15625 51.859375 
L 13.140625 51.859375 
L 21.09375 39.703125 
Q 23.34375 36.234375 24.703125 33.890625 
Q 26.859375 37.109375 28.65625 39.59375 
L 37.40625 51.859375 
L 47.90625 51.859375 
L 29.984375 27.4375 
L 49.265625 0 
L 38.484375 0 
L 27.828125 16.109375 
L 25 20.453125 
L 11.375 0 
z
" id="ArialMT-120"/>
      <path d="M -1.515625 -19.875 
L -1.515625 -13.53125 
L 56.734375 -13.53125 
L 56.734375 -19.875 
z
" id="ArialMT-95"/>
      <path id="ArialMT-32"/>
      <path d="M 52.828125 42.09375 
L 5.5625 42.09375 
L 5.5625 50.296875 
L 52.828125 50.296875 
z
M 52.828125 20.359375 
L 5.5625 20.359375 
L 5.5625 28.5625 
L 52.828125 28.5625 
z
" id="ArialMT-61"/>
      <path d="M 3.171875 21.484375 
L 3.171875 30.328125 
L 30.171875 30.328125 
L 30.171875 21.484375 
z
" id="ArialMT-45"/>
     </defs>
     <g style="fill:#262626;" transform="translate(576.82875 62.625)scale(0.12 -0.12)">
      <use xlink:href="#ArialMT-120"/>
      <use x="50" xlink:href="#ArialMT-95"/>
      <use x="105.615234" xlink:href="#ArialMT-48"/>
      <use x="161.230469" xlink:href="#ArialMT-32"/>
      <use x="189.013672" xlink:href="#ArialMT-61"/>
      <use x="247.412109" xlink:href="#ArialMT-32"/>
      <use x="275.195312" xlink:href="#ArialMT-45"/>
      <use x="308.496094" xlink:href="#ArialMT-50"/>
     </g>
    </g>
    <g id="line2d_24">
     <path d="M 543.22875 75.435 
L 567.22875 75.435 
" style="fill:none;stroke:#4cb9c0;stroke-linecap:round;stroke-width:1.5;"/>
    </g>
    <g id="line2d_25"/>
    <g id="text_18">
     <!-- x_0 = -0.25 -->
     <g style="fill:#262626;" transform="translate(576.82875 79.635)scale(0.12 -0.12)">
      <use xlink:href="#ArialMT-120"/>
      <use x="50" xlink:href="#ArialMT-95"/>
      <use x="105.615234" xlink:href="#ArialMT-48"/>
      <use x="161.230469" xlink:href="#ArialMT-32"/>
      <use x="189.013672" xlink:href="#ArialMT-61"/>
      <use x="247.412109" xlink:href="#ArialMT-32"/>
      <use x="275.195312" xlink:href="#ArialMT-45"/>
      <use x="308.496094" xlink:href="#ArialMT-48"/>
      <use x="364.111328" xlink:href="#ArialMT-46"/>
      <use x="391.894531" xlink:href="#ArialMT-50"/>
      <use x="447.509766" xlink:href="#ArialMT-53"/>
     </g>
    </g>
    <g id="line2d_26">
     <path d="M 543.22875 92.445 
L 567.22875 92.445 
" style="fill:none;stroke:#97c804;stroke-linecap:round;stroke-width:1.5;"/>
    </g>
    <g id="line2d_27"/>
    <g id="text_19">
     <!-- x_0 = 0.5 -->
     <g style="fill:#262626;" transform="translate(576.82875 96.645)scale(0.12 -0.12)">
      <use xlink:href="#ArialMT-120"/>
      <use x="50" xlink:href="#ArialMT-95"/>
      <use x="105.615234" xlink:href="#ArialMT-48"/>
      <use x="161.230469" xlink:href="#ArialMT-32"/>
      <use x="189.013672" xlink:href="#ArialMT-61"/>
      <use x="247.412109" xlink:href="#ArialMT-32"/>
      <use x="275.195312" xlink:href="#ArialMT-48"/>
      <use x="330.810547" xlink:href="#ArialMT-46"/>
      <use x="358.59375" xlink:href="#ArialMT-53"/>
     </g>
    </g>
    <g id="line2d_28">
     <path d="M 543.22875 109.455 
L 567.22875 109.455 
" style="fill:none;stroke:#ffc100;stroke-linecap:round;stroke-width:1.5;"/>
    </g>
    <g id="line2d_29"/>
    <g id="text_20">
     <!-- x_0 = 1.25 -->
     <g style="fill:#262626;" transform="translate(576.82875 113.655)scale(0.12 -0.12)">
      <use xlink:href="#ArialMT-120"/>
      <use x="50" xlink:href="#ArialMT-95"/>
      <use x="105.615234" xlink:href="#ArialMT-48"/>
      <use x="161.230469" xlink:href="#ArialMT-32"/>
      <use x="189.013672" xlink:href="#ArialMT-61"/>
      <use x="247.412109" xlink:href="#ArialMT-32"/>
      <use x="275.195312" xlink:href="#ArialMT-49"/>
      <use x="330.810547" xlink:href="#ArialMT-46"/>
      <use x="358.59375" xlink:href="#ArialMT-50"/>
      <use x="414.208984" xlink:href="#ArialMT-53"/>
     </g>
    </g>
    <g id="line2d_30">
     <path d="M 543.22875 126.465 
L 567.22875 126.465 
" style="fill:none;stroke:#e06a27;stroke-linecap:round;stroke-width:1.5;"/>
    </g>
    <g id="line2d_31"/>
    <g id="text_21">
     <!-- x_0 = 2.25 -->
     <g style="fill:#262626;" transform="translate(576.82875 130.665)scale(0.12 -0.12)">
      <use xlink:href="#ArialMT-120"/>
      <use x="50" xlink:href="#ArialMT-95"/>
      <use x="105.615234" xlink:href="#ArialMT-48"/>
      <use x="161.230469" xlink:href="#ArialMT-32"/>
      <use x="189.013672" xlink:href="#ArialMT-61"/>
      <use x="247.412109" xlink:href="#ArialMT-32"/>
      <use x="275.195312" xlink:href="#ArialMT-50"/>
      <use x="330.810547" xlink:href="#ArialMT-46"/>
      <use x="358.59375" xlink:href="#ArialMT-50"/>
      <use x="414.208984" xlink:href="#ArialMT-53"/>
     </g>
    </g>
   </g>
  </g>
 </g>
 <defs>
  <clipPath id="pcf0703c8db">
   <rect height="271.8" width="558" x="90" y="43.2"/>
  </clipPath>
 </defs>
</svg>
