<?xml version="1.0" encoding="utf-8" standalone="no"?>
<!DOCTYPE svg PUBLIC "-//W3C//DTD SVG 1.1//EN"
  "http://www.w3.org/Graphics/SVG/1.1/DTD/svg11.dtd">
<!-- Created with matplotlib (https://matplotlib.org/) -->
<svg height="288pt" version="1.1" viewBox="0 0 864 288" width="864pt" xmlns="http://www.w3.org/2000/svg" xmlns:xlink="http://www.w3.org/1999/xlink">
 <defs>
  <style type="text/css">
*{stroke-linecap:butt;stroke-linejoin:round;}
  </style>
 </defs>
 <g id="figure_1">
  <g id="patch_1">
   <path d="M 0 288 
L 864 288 
L 864 0 
L 0 0 
z
" style="fill:#ffffff;"/>
  </g>
  <g id="axes_1">
   <g id="patch_2">
    <path d="M 108 252 
L 304.941176 252 
L 304.941176 34.56 
L 108 34.56 
z
" style="fill:#ffffff;"/>
   </g>
   <g id="PathCollection_1">
    <defs>
     <path d="M 0 3 
C 0.795609 3 1.55874 2.683901 2.12132 2.12132 
C 2.683901 1.55874 3 0.795609 3 0 
C 3 -0.795609 2.683901 -1.55874 2.12132 -2.12132 
C 1.55874 -2.683901 0.795609 -3 0 -3 
C -0.795609 -3 -1.55874 -2.683901 -2.12132 -2.12132 
C -2.683901 -1.55874 -3 -0.795609 -3 0 
C -3 0.795609 -2.683901 1.55874 -2.12132 2.12132 
C -1.55874 2.683901 -0.795609 3 0 3 
z
" id="m1ab030d27a" style="stroke:#e06a27;stroke-opacity:0.75;"/>
    </defs>
    <g clip-path="url(#p9e661cbb09)">
     <use style="fill:#ffc100;fill-opacity:0.75;stroke:#e06a27;stroke-opacity:0.75;" x="196.614941" xlink:href="#m1ab030d27a" y="144.954484"/>
     <use style="fill:#ffc100;fill-opacity:0.75;stroke:#e06a27;stroke-opacity:0.75;" x="265.798188" xlink:href="#m1ab030d27a" y="96.596646"/>
     <use style="fill:#ffc100;fill-opacity:0.75;stroke:#e06a27;stroke-opacity:0.75;" x="169.111163" xlink:href="#m1ab030d27a" y="153.821549"/>
     <use style="fill:#ffc100;fill-opacity:0.75;stroke:#e06a27;stroke-opacity:0.75;" x="146.11792" xlink:href="#m1ab030d27a" y="153.635053"/>
     <use style="fill:#ffc100;fill-opacity:0.75;stroke:#e06a27;stroke-opacity:0.75;" x="150.860317" xlink:href="#m1ab030d27a" y="173.36219"/>
     <use style="fill:#ffc100;fill-opacity:0.75;stroke:#e06a27;stroke-opacity:0.75;" x="291.822444" xlink:href="#m1ab030d27a" y="109.115037"/>
     <use style="fill:#ffc100;fill-opacity:0.75;stroke:#e06a27;stroke-opacity:0.75;" x="209.212928" xlink:href="#m1ab030d27a" y="138.852878"/>
     <use style="fill:#ffc100;fill-opacity:0.75;stroke:#e06a27;stroke-opacity:0.75;" x="241.410292" xlink:href="#m1ab030d27a" y="134.453764"/>
     <use style="fill:#ffc100;fill-opacity:0.75;stroke:#e06a27;stroke-opacity:0.75;" x="131.116621" xlink:href="#m1ab030d27a" y="181.861671"/>
     <use style="fill:#ffc100;fill-opacity:0.75;stroke:#e06a27;stroke-opacity:0.75;" x="120.46241" xlink:href="#m1ab030d27a" y="194.514904"/>
     <use style="fill:#ffc100;fill-opacity:0.75;stroke:#e06a27;stroke-opacity:0.75;" x="208.917354" xlink:href="#m1ab030d27a" y="158.137492"/>
     <use style="fill:#ffc100;fill-opacity:0.75;stroke:#e06a27;stroke-opacity:0.75;" x="231.787437" xlink:href="#m1ab030d27a" y="123.973627"/>
     <use style="fill:#ffc100;fill-opacity:0.75;stroke:#e06a27;stroke-opacity:0.75;" x="288.142921" xlink:href="#m1ab030d27a" y="143.752058"/>
     <use style="fill:#ffc100;fill-opacity:0.75;stroke:#e06a27;stroke-opacity:0.75;" x="257.445621" xlink:href="#m1ab030d27a" y="108.155852"/>
     <use style="fill:#ffc100;fill-opacity:0.75;stroke:#e06a27;stroke-opacity:0.75;" x="258.345414" xlink:href="#m1ab030d27a" y="114.097957"/>
     <use style="fill:#ffc100;fill-opacity:0.75;stroke:#e06a27;stroke-opacity:0.75;" x="183.432691" xlink:href="#m1ab030d27a" y="143.801069"/>
     <use style="fill:#ffc100;fill-opacity:0.75;stroke:#e06a27;stroke-opacity:0.75;" x="157.150478" xlink:href="#m1ab030d27a" y="156.048299"/>
     <use style="fill:#ffc100;fill-opacity:0.75;stroke:#e06a27;stroke-opacity:0.75;" x="160.614147" xlink:href="#m1ab030d27a" y="176.978011"/>
     <use style="fill:#ffc100;fill-opacity:0.75;stroke:#e06a27;stroke-opacity:0.75;" x="256.857398" xlink:href="#m1ab030d27a" y="99.271088"/>
     <use style="fill:#ffc100;fill-opacity:0.75;stroke:#e06a27;stroke-opacity:0.75;" x="286.760326" xlink:href="#m1ab030d27a" y="98.821254"/>
     <use style="fill:#ffc100;fill-opacity:0.75;stroke:#e06a27;stroke-opacity:0.75;" x="142.975518" xlink:href="#m1ab030d27a" y="167.975128"/>
     <use style="fill:#ffc100;fill-opacity:0.75;stroke:#e06a27;stroke-opacity:0.75;" x="199.458254" xlink:href="#m1ab030d27a" y="134.821331"/>
     <use style="fill:#ffc100;fill-opacity:0.75;stroke:#e06a27;stroke-opacity:0.75;" x="133.970773" xlink:href="#m1ab030d27a" y="177.288943"/>
     <use style="fill:#ffc100;fill-opacity:0.75;stroke:#e06a27;stroke-opacity:0.75;" x="258.112849" xlink:href="#m1ab030d27a" y="113.027618"/>
     <use style="fill:#ffc100;fill-opacity:0.75;stroke:#e06a27;stroke-opacity:0.75;" x="161.917716" xlink:href="#m1ab030d27a" y="181.754618"/>
     <use style="fill:#ffc100;fill-opacity:0.75;stroke:#e06a27;stroke-opacity:0.75;" x="266.555701" xlink:href="#m1ab030d27a" y="108.63687"/>
     <use style="fill:#ffc100;fill-opacity:0.75;stroke:#e06a27;stroke-opacity:0.75;" x="246.719821" xlink:href="#m1ab030d27a" y="141.687121"/>
     <use style="fill:#ffc100;fill-opacity:0.75;stroke:#e06a27;stroke-opacity:0.75;" x="241.077406" xlink:href="#m1ab030d27a" y="119.331355"/>
     <use style="fill:#ffc100;fill-opacity:0.75;stroke:#e06a27;stroke-opacity:0.75;" x="247.43642" xlink:href="#m1ab030d27a" y="136.330269"/>
     <use style="fill:#ffc100;fill-opacity:0.75;stroke:#e06a27;stroke-opacity:0.75;" x="278.023366" xlink:href="#m1ab030d27a" y="109.552647"/>
     <use style="fill:#ffc100;fill-opacity:0.75;stroke:#e06a27;stroke-opacity:0.75;" x="269.287067" xlink:href="#m1ab030d27a" y="94.43033"/>
     <use style="fill:#ffc100;fill-opacity:0.75;stroke:#e06a27;stroke-opacity:0.75;" x="157.782904" xlink:href="#m1ab030d27a" y="164.445204"/>
     <use style="fill:#ffc100;fill-opacity:0.75;stroke:#e06a27;stroke-opacity:0.75;" x="290.269329" xlink:href="#m1ab030d27a" y="129.024924"/>
     <use style="fill:#ffc100;fill-opacity:0.75;stroke:#e06a27;stroke-opacity:0.75;" x="154.096996" xlink:href="#m1ab030d27a" y="159.844947"/>
     <use style="fill:#ffc100;fill-opacity:0.75;stroke:#e06a27;stroke-opacity:0.75;" x="141.173938" xlink:href="#m1ab030d27a" y="198.133859"/>
     <use style="fill:#ffc100;fill-opacity:0.75;stroke:#e06a27;stroke-opacity:0.75;" x="281.519236" xlink:href="#m1ab030d27a" y="76.814796"/>
     <use style="fill:#ffc100;fill-opacity:0.75;stroke:#e06a27;stroke-opacity:0.75;" x="121.475929" xlink:href="#m1ab030d27a" y="193.420918"/>
     <use style="fill:#ffc100;fill-opacity:0.75;stroke:#e06a27;stroke-opacity:0.75;" x="222.103704" xlink:href="#m1ab030d27a" y="136.515697"/>
     <use style="fill:#ffc100;fill-opacity:0.75;stroke:#e06a27;stroke-opacity:0.75;" x="294.97065" xlink:href="#m1ab030d27a" y="93.483634"/>
     <use style="fill:#ffc100;fill-opacity:0.75;stroke:#e06a27;stroke-opacity:0.75;" x="132.934808" xlink:href="#m1ab030d27a" y="202.813833"/>
     <use style="fill:#ffc100;fill-opacity:0.75;stroke:#e06a27;stroke-opacity:0.75;" x="238.246613" xlink:href="#m1ab030d27a" y="128.604509"/>
     <use style="fill:#ffc100;fill-opacity:0.75;stroke:#e06a27;stroke-opacity:0.75;" x="233.01331" xlink:href="#m1ab030d27a" y="123.265914"/>
     <use style="fill:#ffc100;fill-opacity:0.75;stroke:#e06a27;stroke-opacity:0.75;" x="175.745474" xlink:href="#m1ab030d27a" y="146.483422"/>
     <use style="fill:#ffc100;fill-opacity:0.75;stroke:#e06a27;stroke-opacity:0.75;" x="281.902945" xlink:href="#m1ab030d27a" y="108.690245"/>
     <use style="fill:#ffc100;fill-opacity:0.75;stroke:#e06a27;stroke-opacity:0.75;" x="250.163444" xlink:href="#m1ab030d27a" y="119.242441"/>
     <use style="fill:#ffc100;fill-opacity:0.75;stroke:#e06a27;stroke-opacity:0.75;" x="171.020332" xlink:href="#m1ab030d27a" y="169.359254"/>
     <use style="fill:#ffc100;fill-opacity:0.75;stroke:#e06a27;stroke-opacity:0.75;" x="259.85898" xlink:href="#m1ab030d27a" y="99.099308"/>
     <use style="fill:#ffc100;fill-opacity:0.75;stroke:#e06a27;stroke-opacity:0.75;" x="236.490428" xlink:href="#m1ab030d27a" y="133.64606"/>
     <use style="fill:#ffc100;fill-opacity:0.75;stroke:#e06a27;stroke-opacity:0.75;" x="202.778937" xlink:href="#m1ab030d27a" y="103.46468"/>
     <use style="fill:#ffc100;fill-opacity:0.75;stroke:#e06a27;stroke-opacity:0.75;" x="222.621402" xlink:href="#m1ab030d27a" y="119.946655"/>
    </g>
   </g>
   <g id="matplotlib.axis_1">
    <g id="xtick_1">
     <g id="line2d_1">
      <defs>
       <path d="M 0 0 
L 0 3.5 
" id="m5e0b0ffdf3" style="stroke:#000000;stroke-width:0.8;"/>
      </defs>
      <g>
       <use style="stroke:#000000;stroke-width:0.8;" x="120.327055" xlink:href="#m5e0b0ffdf3" y="252"/>
      </g>
     </g>
     <g id="text_1">
      <!-- 0 -->
      <defs>
       <path d="M 31.78125 66.40625 
Q 24.171875 66.40625 20.328125 58.90625 
Q 16.5 51.421875 16.5 36.375 
Q 16.5 21.390625 20.328125 13.890625 
Q 24.171875 6.390625 31.78125 6.390625 
Q 39.453125 6.390625 43.28125 13.890625 
Q 47.125 21.390625 47.125 36.375 
Q 47.125 51.421875 43.28125 58.90625 
Q 39.453125 66.40625 31.78125 66.40625 
z
M 31.78125 74.21875 
Q 44.046875 74.21875 50.515625 64.515625 
Q 56.984375 54.828125 56.984375 36.375 
Q 56.984375 17.96875 50.515625 8.265625 
Q 44.046875 -1.421875 31.78125 -1.421875 
Q 19.53125 -1.421875 13.0625 8.265625 
Q 6.59375 17.96875 6.59375 36.375 
Q 6.59375 54.828125 13.0625 64.515625 
Q 19.53125 74.21875 31.78125 74.21875 
z
" id="DejaVuSans-48"/>
      </defs>
      <g transform="translate(117.145805 266.598437)scale(0.1 -0.1)">
       <use xlink:href="#DejaVuSans-48"/>
      </g>
     </g>
    </g>
    <g id="xtick_2">
     <g id="line2d_2">
      <g>
       <use style="stroke:#000000;stroke-width:0.8;" x="155.432434" xlink:href="#m5e0b0ffdf3" y="252"/>
      </g>
     </g>
     <g id="text_2">
      <!-- 2 -->
      <defs>
       <path d="M 19.1875 8.296875 
L 53.609375 8.296875 
L 53.609375 0 
L 7.328125 0 
L 7.328125 8.296875 
Q 12.9375 14.109375 22.625 23.890625 
Q 32.328125 33.6875 34.8125 36.53125 
Q 39.546875 41.84375 41.421875 45.53125 
Q 43.3125 49.21875 43.3125 52.78125 
Q 43.3125 58.59375 39.234375 62.25 
Q 35.15625 65.921875 28.609375 65.921875 
Q 23.96875 65.921875 18.8125 64.3125 
Q 13.671875 62.703125 7.8125 59.421875 
L 7.8125 69.390625 
Q 13.765625 71.78125 18.9375 73 
Q 24.125 74.21875 28.421875 74.21875 
Q 39.75 74.21875 46.484375 68.546875 
Q 53.21875 62.890625 53.21875 53.421875 
Q 53.21875 48.921875 51.53125 44.890625 
Q 49.859375 40.875 45.40625 35.40625 
Q 44.1875 33.984375 37.640625 27.21875 
Q 31.109375 20.453125 19.1875 8.296875 
z
" id="DejaVuSans-50"/>
      </defs>
      <g transform="translate(152.251184 266.598437)scale(0.1 -0.1)">
       <use xlink:href="#DejaVuSans-50"/>
      </g>
     </g>
    </g>
    <g id="xtick_3">
     <g id="line2d_3">
      <g>
       <use style="stroke:#000000;stroke-width:0.8;" x="190.537813" xlink:href="#m5e0b0ffdf3" y="252"/>
      </g>
     </g>
     <g id="text_3">
      <!-- 4 -->
      <defs>
       <path d="M 37.796875 64.3125 
L 12.890625 25.390625 
L 37.796875 25.390625 
z
M 35.203125 72.90625 
L 47.609375 72.90625 
L 47.609375 25.390625 
L 58.015625 25.390625 
L 58.015625 17.1875 
L 47.609375 17.1875 
L 47.609375 0 
L 37.796875 0 
L 37.796875 17.1875 
L 4.890625 17.1875 
L 4.890625 26.703125 
z
" id="DejaVuSans-52"/>
      </defs>
      <g transform="translate(187.356563 266.598437)scale(0.1 -0.1)">
       <use xlink:href="#DejaVuSans-52"/>
      </g>
     </g>
    </g>
    <g id="xtick_4">
     <g id="line2d_4">
      <g>
       <use style="stroke:#000000;stroke-width:0.8;" x="225.643192" xlink:href="#m5e0b0ffdf3" y="252"/>
      </g>
     </g>
     <g id="text_4">
      <!-- 6 -->
      <defs>
       <path d="M 33.015625 40.375 
Q 26.375 40.375 22.484375 35.828125 
Q 18.609375 31.296875 18.609375 23.390625 
Q 18.609375 15.53125 22.484375 10.953125 
Q 26.375 6.390625 33.015625 6.390625 
Q 39.65625 6.390625 43.53125 10.953125 
Q 47.40625 15.53125 47.40625 23.390625 
Q 47.40625 31.296875 43.53125 35.828125 
Q 39.65625 40.375 33.015625 40.375 
z
M 52.59375 71.296875 
L 52.59375 62.3125 
Q 48.875 64.0625 45.09375 64.984375 
Q 41.3125 65.921875 37.59375 65.921875 
Q 27.828125 65.921875 22.671875 59.328125 
Q 17.53125 52.734375 16.796875 39.40625 
Q 19.671875 43.65625 24.015625 45.921875 
Q 28.375 48.1875 33.59375 48.1875 
Q 44.578125 48.1875 50.953125 41.515625 
Q 57.328125 34.859375 57.328125 23.390625 
Q 57.328125 12.15625 50.6875 5.359375 
Q 44.046875 -1.421875 33.015625 -1.421875 
Q 20.359375 -1.421875 13.671875 8.265625 
Q 6.984375 17.96875 6.984375 36.375 
Q 6.984375 53.65625 15.1875 63.9375 
Q 23.390625 74.21875 37.203125 74.21875 
Q 40.921875 74.21875 44.703125 73.484375 
Q 48.484375 72.75 52.59375 71.296875 
z
" id="DejaVuSans-54"/>
      </defs>
      <g transform="translate(222.461942 266.598437)scale(0.1 -0.1)">
       <use xlink:href="#DejaVuSans-54"/>
      </g>
     </g>
    </g>
    <g id="xtick_5">
     <g id="line2d_5">
      <g>
       <use style="stroke:#000000;stroke-width:0.8;" x="260.748571" xlink:href="#m5e0b0ffdf3" y="252"/>
      </g>
     </g>
     <g id="text_5">
      <!-- 8 -->
      <defs>
       <path d="M 31.78125 34.625 
Q 24.75 34.625 20.71875 30.859375 
Q 16.703125 27.09375 16.703125 20.515625 
Q 16.703125 13.921875 20.71875 10.15625 
Q 24.75 6.390625 31.78125 6.390625 
Q 38.8125 6.390625 42.859375 10.171875 
Q 46.921875 13.96875 46.921875 20.515625 
Q 46.921875 27.09375 42.890625 30.859375 
Q 38.875 34.625 31.78125 34.625 
z
M 21.921875 38.8125 
Q 15.578125 40.375 12.03125 44.71875 
Q 8.5 49.078125 8.5 55.328125 
Q 8.5 64.0625 14.71875 69.140625 
Q 20.953125 74.21875 31.78125 74.21875 
Q 42.671875 74.21875 48.875 69.140625 
Q 55.078125 64.0625 55.078125 55.328125 
Q 55.078125 49.078125 51.53125 44.71875 
Q 48 40.375 41.703125 38.8125 
Q 48.828125 37.15625 52.796875 32.3125 
Q 56.78125 27.484375 56.78125 20.515625 
Q 56.78125 9.90625 50.3125 4.234375 
Q 43.84375 -1.421875 31.78125 -1.421875 
Q 19.734375 -1.421875 13.25 4.234375 
Q 6.78125 9.90625 6.78125 20.515625 
Q 6.78125 27.484375 10.78125 32.3125 
Q 14.796875 37.15625 21.921875 38.8125 
z
M 18.3125 54.390625 
Q 18.3125 48.734375 21.84375 45.5625 
Q 25.390625 42.390625 31.78125 42.390625 
Q 38.140625 42.390625 41.71875 45.5625 
Q 45.3125 48.734375 45.3125 54.390625 
Q 45.3125 60.0625 41.71875 63.234375 
Q 38.140625 66.40625 31.78125 66.40625 
Q 25.390625 66.40625 21.84375 63.234375 
Q 18.3125 60.0625 18.3125 54.390625 
z
" id="DejaVuSans-56"/>
      </defs>
      <g transform="translate(257.567321 266.598437)scale(0.1 -0.1)">
       <use xlink:href="#DejaVuSans-56"/>
      </g>
     </g>
    </g>
    <g id="xtick_6">
     <g id="line2d_6">
      <g>
       <use style="stroke:#000000;stroke-width:0.8;" x="295.85395" xlink:href="#m5e0b0ffdf3" y="252"/>
      </g>
     </g>
     <g id="text_6">
      <!-- 10 -->
      <defs>
       <path d="M 12.40625 8.296875 
L 28.515625 8.296875 
L 28.515625 63.921875 
L 10.984375 60.40625 
L 10.984375 69.390625 
L 28.421875 72.90625 
L 38.28125 72.90625 
L 38.28125 8.296875 
L 54.390625 8.296875 
L 54.390625 0 
L 12.40625 0 
z
" id="DejaVuSans-49"/>
      </defs>
      <g transform="translate(289.49145 266.598437)scale(0.1 -0.1)">
       <use xlink:href="#DejaVuSans-49"/>
       <use x="63.623047" xlink:href="#DejaVuSans-48"/>
      </g>
     </g>
    </g>
   </g>
   <g id="matplotlib.axis_2">
    <g id="ytick_1">
     <g id="line2d_7">
      <defs>
       <path d="M 0 0 
L -3.5 0 
" id="mcd85b936ee" style="stroke:#000000;stroke-width:0.8;"/>
      </defs>
      <g>
       <use style="stroke:#000000;stroke-width:0.8;" x="108" xlink:href="#mcd85b936ee" y="252"/>
      </g>
     </g>
     <g id="text_7">
      <!-- −2 -->
      <defs>
       <path d="M 10.59375 35.5 
L 73.1875 35.5 
L 73.1875 27.203125 
L 10.59375 27.203125 
z
" id="DejaVuSans-8722"/>
      </defs>
      <g transform="translate(86.257812 255.799219)scale(0.1 -0.1)">
       <use xlink:href="#DejaVuSans-8722"/>
       <use x="83.789062" xlink:href="#DejaVuSans-50"/>
      </g>
     </g>
    </g>
    <g id="ytick_2">
     <g id="line2d_8">
      <g>
       <use style="stroke:#000000;stroke-width:0.8;" x="108" xlink:href="#mcd85b936ee" y="218.547692"/>
      </g>
     </g>
     <g id="text_8">
      <!-- 0 -->
      <g transform="translate(94.6375 222.346911)scale(0.1 -0.1)">
       <use xlink:href="#DejaVuSans-48"/>
      </g>
     </g>
    </g>
    <g id="ytick_3">
     <g id="line2d_9">
      <g>
       <use style="stroke:#000000;stroke-width:0.8;" x="108" xlink:href="#mcd85b936ee" y="185.095385"/>
      </g>
     </g>
     <g id="text_9">
      <!-- 2 -->
      <g transform="translate(94.6375 188.894603)scale(0.1 -0.1)">
       <use xlink:href="#DejaVuSans-50"/>
      </g>
     </g>
    </g>
    <g id="ytick_4">
     <g id="line2d_10">
      <g>
       <use style="stroke:#000000;stroke-width:0.8;" x="108" xlink:href="#mcd85b936ee" y="151.643077"/>
      </g>
     </g>
     <g id="text_10">
      <!-- 4 -->
      <g transform="translate(94.6375 155.442296)scale(0.1 -0.1)">
       <use xlink:href="#DejaVuSans-52"/>
      </g>
     </g>
    </g>
    <g id="ytick_5">
     <g id="line2d_11">
      <g>
       <use style="stroke:#000000;stroke-width:0.8;" x="108" xlink:href="#mcd85b936ee" y="118.190769"/>
      </g>
     </g>
     <g id="text_11">
      <!-- 6 -->
      <g transform="translate(94.6375 121.989988)scale(0.1 -0.1)">
       <use xlink:href="#DejaVuSans-54"/>
      </g>
     </g>
    </g>
    <g id="ytick_6">
     <g id="line2d_12">
      <g>
       <use style="stroke:#000000;stroke-width:0.8;" x="108" xlink:href="#mcd85b936ee" y="84.738462"/>
      </g>
     </g>
     <g id="text_12">
      <!-- 8 -->
      <g transform="translate(94.6375 88.53768)scale(0.1 -0.1)">
       <use xlink:href="#DejaVuSans-56"/>
      </g>
     </g>
    </g>
    <g id="ytick_7">
     <g id="line2d_13">
      <g>
       <use style="stroke:#000000;stroke-width:0.8;" x="108" xlink:href="#mcd85b936ee" y="51.286154"/>
      </g>
     </g>
     <g id="text_13">
      <!-- 10 -->
      <g transform="translate(88.275 55.085373)scale(0.1 -0.1)">
       <use xlink:href="#DejaVuSans-49"/>
       <use x="63.623047" xlink:href="#DejaVuSans-48"/>
      </g>
     </g>
    </g>
   </g>
   <g id="line2d_14">
    <path clip-path="url(#p9e661cbb09)" d="M 116.951872 186.703509 
L 120.46241 185.030894 
L 123.972947 183.358279 
L 127.483485 181.685663 
L 130.994023 180.013048 
L 134.504561 178.340432 
L 138.015099 176.667817 
L 141.525637 174.995202 
L 145.036175 173.322586 
L 148.546713 171.649971 
L 152.057251 169.977356 
L 155.567789 168.30474 
L 159.078327 166.632125 
L 162.588864 164.959509 
L 166.099402 163.286894 
L 169.60994 161.614279 
L 173.120478 159.941663 
L 176.631016 158.269048 
L 180.141554 156.596432 
L 183.652092 154.923817 
L 187.16263 153.251202 
L 190.673168 151.578586 
L 194.183706 149.905971 
L 197.694243 148.233356 
L 201.204781 146.56074 
L 204.715319 144.888125 
L 208.225857 143.215509 
L 211.736395 141.542894 
L 215.246933 139.870279 
L 218.757471 138.197663 
L 222.268009 136.525048 
L 225.778547 134.852432 
L 229.289085 133.179817 
L 232.799623 131.507202 
L 236.31016 129.834586 
L 239.820698 128.161971 
L 243.331236 126.489356 
L 246.841774 124.81674 
L 250.352312 123.144125 
L 253.86285 121.471509 
L 257.373388 119.798894 
L 260.883926 118.126279 
L 264.394464 116.453663 
L 267.905002 114.781048 
L 271.415539 113.108432 
L 274.926077 111.435817 
L 278.436615 109.763202 
L 281.947153 108.090586 
L 285.457691 106.417971 
L 288.968229 104.745356 
L 292.478767 103.07274 
L 295.989305 101.400125 
" style="fill:none;stroke:#c81d6b;stroke-dasharray:5.55,2.4;stroke-dashoffset:0;stroke-width:1.5;"/>
   </g>
   <g id="patch_3">
    <path d="M 108 252 
L 108 34.56 
" style="fill:none;stroke:#000000;stroke-linecap:square;stroke-linejoin:miter;stroke-width:0.8;"/>
   </g>
   <g id="patch_4">
    <path d="M 304.941176 252 
L 304.941176 34.56 
" style="fill:none;stroke:#000000;stroke-linecap:square;stroke-linejoin:miter;stroke-width:0.8;"/>
   </g>
   <g id="patch_5">
    <path d="M 108 252 
L 304.941176 252 
" style="fill:none;stroke:#000000;stroke-linecap:square;stroke-linejoin:miter;stroke-width:0.8;"/>
   </g>
   <g id="patch_6">
    <path d="M 108 34.56 
L 304.941176 34.56 
" style="fill:none;stroke:#000000;stroke-linecap:square;stroke-linejoin:miter;stroke-width:0.8;"/>
   </g>
   <g id="text_14">
    <!-- Gaussian noise -->
    <defs>
     <path d="M 59.515625 10.40625 
L 59.515625 29.984375 
L 43.40625 29.984375 
L 43.40625 38.09375 
L 69.28125 38.09375 
L 69.28125 6.78125 
Q 63.578125 2.734375 56.6875 0.65625 
Q 49.8125 -1.421875 42 -1.421875 
Q 24.90625 -1.421875 15.25 8.5625 
Q 5.609375 18.5625 5.609375 36.375 
Q 5.609375 54.25 15.25 64.234375 
Q 24.90625 74.21875 42 74.21875 
Q 49.125 74.21875 55.546875 72.453125 
Q 61.96875 70.703125 67.390625 67.28125 
L 67.390625 56.78125 
Q 61.921875 61.421875 55.765625 63.765625 
Q 49.609375 66.109375 42.828125 66.109375 
Q 29.4375 66.109375 22.71875 58.640625 
Q 16.015625 51.171875 16.015625 36.375 
Q 16.015625 21.625 22.71875 14.15625 
Q 29.4375 6.6875 42.828125 6.6875 
Q 48.046875 6.6875 52.140625 7.59375 
Q 56.25 8.5 59.515625 10.40625 
z
" id="DejaVuSans-71"/>
     <path d="M 34.28125 27.484375 
Q 23.390625 27.484375 19.1875 25 
Q 14.984375 22.515625 14.984375 16.5 
Q 14.984375 11.71875 18.140625 8.90625 
Q 21.296875 6.109375 26.703125 6.109375 
Q 34.1875 6.109375 38.703125 11.40625 
Q 43.21875 16.703125 43.21875 25.484375 
L 43.21875 27.484375 
z
M 52.203125 31.203125 
L 52.203125 0 
L 43.21875 0 
L 43.21875 8.296875 
Q 40.140625 3.328125 35.546875 0.953125 
Q 30.953125 -1.421875 24.3125 -1.421875 
Q 15.921875 -1.421875 10.953125 3.296875 
Q 6 8.015625 6 15.921875 
Q 6 25.140625 12.171875 29.828125 
Q 18.359375 34.515625 30.609375 34.515625 
L 43.21875 34.515625 
L 43.21875 35.40625 
Q 43.21875 41.609375 39.140625 45 
Q 35.0625 48.390625 27.6875 48.390625 
Q 23 48.390625 18.546875 47.265625 
Q 14.109375 46.140625 10.015625 43.890625 
L 10.015625 52.203125 
Q 14.9375 54.109375 19.578125 55.046875 
Q 24.21875 56 28.609375 56 
Q 40.484375 56 46.34375 49.84375 
Q 52.203125 43.703125 52.203125 31.203125 
z
" id="DejaVuSans-97"/>
     <path d="M 8.5 21.578125 
L 8.5 54.6875 
L 17.484375 54.6875 
L 17.484375 21.921875 
Q 17.484375 14.15625 20.5 10.265625 
Q 23.53125 6.390625 29.59375 6.390625 
Q 36.859375 6.390625 41.078125 11.03125 
Q 45.3125 15.671875 45.3125 23.6875 
L 45.3125 54.6875 
L 54.296875 54.6875 
L 54.296875 0 
L 45.3125 0 
L 45.3125 8.40625 
Q 42.046875 3.421875 37.71875 1 
Q 33.40625 -1.421875 27.6875 -1.421875 
Q 18.265625 -1.421875 13.375 4.4375 
Q 8.5 10.296875 8.5 21.578125 
z
M 31.109375 56 
z
" id="DejaVuSans-117"/>
     <path d="M 44.28125 53.078125 
L 44.28125 44.578125 
Q 40.484375 46.53125 36.375 47.5 
Q 32.28125 48.484375 27.875 48.484375 
Q 21.1875 48.484375 17.84375 46.4375 
Q 14.5 44.390625 14.5 40.28125 
Q 14.5 37.15625 16.890625 35.375 
Q 19.28125 33.59375 26.515625 31.984375 
L 29.59375 31.296875 
Q 39.15625 29.25 43.1875 25.515625 
Q 47.21875 21.78125 47.21875 15.09375 
Q 47.21875 7.46875 41.1875 3.015625 
Q 35.15625 -1.421875 24.609375 -1.421875 
Q 20.21875 -1.421875 15.453125 -0.5625 
Q 10.6875 0.296875 5.421875 2 
L 5.421875 11.28125 
Q 10.40625 8.6875 15.234375 7.390625 
Q 20.0625 6.109375 24.8125 6.109375 
Q 31.15625 6.109375 34.5625 8.28125 
Q 37.984375 10.453125 37.984375 14.40625 
Q 37.984375 18.0625 35.515625 20.015625 
Q 33.0625 21.96875 24.703125 23.78125 
L 21.578125 24.515625 
Q 13.234375 26.265625 9.515625 29.90625 
Q 5.8125 33.546875 5.8125 39.890625 
Q 5.8125 47.609375 11.28125 51.796875 
Q 16.75 56 26.8125 56 
Q 31.78125 56 36.171875 55.265625 
Q 40.578125 54.546875 44.28125 53.078125 
z
" id="DejaVuSans-115"/>
     <path d="M 9.421875 54.6875 
L 18.40625 54.6875 
L 18.40625 0 
L 9.421875 0 
z
M 9.421875 75.984375 
L 18.40625 75.984375 
L 18.40625 64.59375 
L 9.421875 64.59375 
z
" id="DejaVuSans-105"/>
     <path d="M 54.890625 33.015625 
L 54.890625 0 
L 45.90625 0 
L 45.90625 32.71875 
Q 45.90625 40.484375 42.875 44.328125 
Q 39.84375 48.1875 33.796875 48.1875 
Q 26.515625 48.1875 22.3125 43.546875 
Q 18.109375 38.921875 18.109375 30.90625 
L 18.109375 0 
L 9.078125 0 
L 9.078125 54.6875 
L 18.109375 54.6875 
L 18.109375 46.1875 
Q 21.34375 51.125 25.703125 53.5625 
Q 30.078125 56 35.796875 56 
Q 45.21875 56 50.046875 50.171875 
Q 54.890625 44.34375 54.890625 33.015625 
z
" id="DejaVuSans-110"/>
     <path id="DejaVuSans-32"/>
     <path d="M 30.609375 48.390625 
Q 23.390625 48.390625 19.1875 42.75 
Q 14.984375 37.109375 14.984375 27.296875 
Q 14.984375 17.484375 19.15625 11.84375 
Q 23.34375 6.203125 30.609375 6.203125 
Q 37.796875 6.203125 41.984375 11.859375 
Q 46.1875 17.53125 46.1875 27.296875 
Q 46.1875 37.015625 41.984375 42.703125 
Q 37.796875 48.390625 30.609375 48.390625 
z
M 30.609375 56 
Q 42.328125 56 49.015625 48.375 
Q 55.71875 40.765625 55.71875 27.296875 
Q 55.71875 13.875 49.015625 6.21875 
Q 42.328125 -1.421875 30.609375 -1.421875 
Q 18.84375 -1.421875 12.171875 6.21875 
Q 5.515625 13.875 5.515625 27.296875 
Q 5.515625 40.765625 12.171875 48.375 
Q 18.84375 56 30.609375 56 
z
" id="DejaVuSans-111"/>
     <path d="M 56.203125 29.59375 
L 56.203125 25.203125 
L 14.890625 25.203125 
Q 15.484375 15.921875 20.484375 11.0625 
Q 25.484375 6.203125 34.421875 6.203125 
Q 39.59375 6.203125 44.453125 7.46875 
Q 49.3125 8.734375 54.109375 11.28125 
L 54.109375 2.78125 
Q 49.265625 0.734375 44.1875 -0.34375 
Q 39.109375 -1.421875 33.890625 -1.421875 
Q 20.796875 -1.421875 13.15625 6.1875 
Q 5.515625 13.8125 5.515625 26.8125 
Q 5.515625 40.234375 12.765625 48.109375 
Q 20.015625 56 32.328125 56 
Q 43.359375 56 49.78125 48.890625 
Q 56.203125 41.796875 56.203125 29.59375 
z
M 47.21875 32.234375 
Q 47.125 39.59375 43.09375 43.984375 
Q 39.0625 48.390625 32.421875 48.390625 
Q 24.90625 48.390625 20.390625 44.140625 
Q 15.875 39.890625 15.1875 32.171875 
z
" id="DejaVuSans-101"/>
    </defs>
    <g transform="translate(161.079651 28.56)scale(0.12 -0.12)">
     <use xlink:href="#DejaVuSans-71"/>
     <use x="77.490234" xlink:href="#DejaVuSans-97"/>
     <use x="138.769531" xlink:href="#DejaVuSans-117"/>
     <use x="202.148438" xlink:href="#DejaVuSans-115"/>
     <use x="254.248047" xlink:href="#DejaVuSans-115"/>
     <use x="306.347656" xlink:href="#DejaVuSans-105"/>
     <use x="334.130859" xlink:href="#DejaVuSans-97"/>
     <use x="395.410156" xlink:href="#DejaVuSans-110"/>
     <use x="458.789062" xlink:href="#DejaVuSans-32"/>
     <use x="490.576172" xlink:href="#DejaVuSans-110"/>
     <use x="553.955078" xlink:href="#DejaVuSans-111"/>
     <use x="615.136719" xlink:href="#DejaVuSans-105"/>
     <use x="642.919922" xlink:href="#DejaVuSans-115"/>
     <use x="695.019531" xlink:href="#DejaVuSans-101"/>
    </g>
   </g>
  </g>
  <g id="axes_2">
   <g id="patch_7">
    <path d="M 344.329412 252 
L 541.270588 252 
L 541.270588 34.56 
L 344.329412 34.56 
z
" style="fill:#ffffff;"/>
   </g>
   <g id="PathCollection_2">
    <g clip-path="url(#p8d9684698b)">
     <use style="fill:#ffc100;fill-opacity:0.75;stroke:#e06a27;stroke-opacity:0.75;" x="432.944353" xlink:href="#m1ab030d27a" y="58.140153"/>
     <use style="fill:#ffc100;fill-opacity:0.75;stroke:#e06a27;stroke-opacity:0.75;" x="502.127599" xlink:href="#m1ab030d27a" y="132.563281"/>
     <use style="fill:#ffc100;fill-opacity:0.75;stroke:#e06a27;stroke-opacity:0.75;" x="405.440575" xlink:href="#m1ab030d27a" y="124.839327"/>
     <use style="fill:#ffc100;fill-opacity:0.75;stroke:#e06a27;stroke-opacity:0.75;" x="382.447332" xlink:href="#m1ab030d27a" y="187.841566"/>
     <use style="fill:#ffc100;fill-opacity:0.75;stroke:#e06a27;stroke-opacity:0.75;" x="387.189728" xlink:href="#m1ab030d27a" y="165.431816"/>
     <use style="fill:#ffc100;fill-opacity:0.75;stroke:#e06a27;stroke-opacity:0.75;" x="528.151855" xlink:href="#m1ab030d27a" y="86.268644"/>
     <use style="fill:#ffc100;fill-opacity:0.75;stroke:#e06a27;stroke-opacity:0.75;" x="445.54234" xlink:href="#m1ab030d27a" y="155.238891"/>
     <use style="fill:#ffc100;fill-opacity:0.75;stroke:#e06a27;stroke-opacity:0.75;" x="477.739704" xlink:href="#m1ab030d27a" y="133.071079"/>
     <use style="fill:#ffc100;fill-opacity:0.75;stroke:#e06a27;stroke-opacity:0.75;" x="367.446033" xlink:href="#m1ab030d27a" y="95.451779"/>
     <use style="fill:#ffc100;fill-opacity:0.75;stroke:#e06a27;stroke-opacity:0.75;" x="356.791821" xlink:href="#m1ab030d27a" y="176.779981"/>
     <use style="fill:#ffc100;fill-opacity:0.75;stroke:#e06a27;stroke-opacity:0.75;" x="445.246766" xlink:href="#m1ab030d27a" y="155.603793"/>
     <use style="fill:#ffc100;fill-opacity:0.75;stroke:#e06a27;stroke-opacity:0.75;" x="468.116849" xlink:href="#m1ab030d27a" y="114.642779"/>
     <use style="fill:#ffc100;fill-opacity:0.75;stroke:#e06a27;stroke-opacity:0.75;" x="524.472333" xlink:href="#m1ab030d27a" y="53.570677"/>
     <use style="fill:#ffc100;fill-opacity:0.75;stroke:#e06a27;stroke-opacity:0.75;" x="493.775033" xlink:href="#m1ab030d27a" y="133.77061"/>
     <use style="fill:#ffc100;fill-opacity:0.75;stroke:#e06a27;stroke-opacity:0.75;" x="494.674826" xlink:href="#m1ab030d27a" y="115.351681"/>
     <use style="fill:#ffc100;fill-opacity:0.75;stroke:#e06a27;stroke-opacity:0.75;" x="419.762103" xlink:href="#m1ab030d27a" y="130.512904"/>
     <use style="fill:#ffc100;fill-opacity:0.75;stroke:#e06a27;stroke-opacity:0.75;" x="393.47989" xlink:href="#m1ab030d27a" y="176.483048"/>
     <use style="fill:#ffc100;fill-opacity:0.75;stroke:#e06a27;stroke-opacity:0.75;" x="396.943559" xlink:href="#m1ab030d27a" y="132.400792"/>
     <use style="fill:#ffc100;fill-opacity:0.75;stroke:#e06a27;stroke-opacity:0.75;" x="493.18681" xlink:href="#m1ab030d27a" y="158.418146"/>
     <use style="fill:#ffc100;fill-opacity:0.75;stroke:#e06a27;stroke-opacity:0.75;" x="523.089738" xlink:href="#m1ab030d27a" y="91.923015"/>
     <use style="fill:#ffc100;fill-opacity:0.75;stroke:#e06a27;stroke-opacity:0.75;" x="379.30493" xlink:href="#m1ab030d27a" y="169.654785"/>
     <use style="fill:#ffc100;fill-opacity:0.75;stroke:#e06a27;stroke-opacity:0.75;" x="435.787665" xlink:href="#m1ab030d27a" y="153.866726"/>
     <use style="fill:#ffc100;fill-opacity:0.75;stroke:#e06a27;stroke-opacity:0.75;" x="370.300184" xlink:href="#m1ab030d27a" y="176.108286"/>
     <use style="fill:#ffc100;fill-opacity:0.75;stroke:#e06a27;stroke-opacity:0.75;" x="494.44226" xlink:href="#m1ab030d27a" y="36.276273"/>
     <use style="fill:#ffc100;fill-opacity:0.75;stroke:#e06a27;stroke-opacity:0.75;" x="398.247128" xlink:href="#m1ab030d27a" y="163.037777"/>
     <use style="fill:#ffc100;fill-opacity:0.75;stroke:#e06a27;stroke-opacity:0.75;" x="502.885113" xlink:href="#m1ab030d27a" y="121.575396"/>
     <use style="fill:#ffc100;fill-opacity:0.75;stroke:#e06a27;stroke-opacity:0.75;" x="483.049232" xlink:href="#m1ab030d27a" y="130.382709"/>
     <use style="fill:#ffc100;fill-opacity:0.75;stroke:#e06a27;stroke-opacity:0.75;" x="477.406818" xlink:href="#m1ab030d27a" y="126.862298"/>
     <use style="fill:#ffc100;fill-opacity:0.75;stroke:#e06a27;stroke-opacity:0.75;" x="483.765832" xlink:href="#m1ab030d27a" y="130.523759"/>
     <use style="fill:#ffc100;fill-opacity:0.75;stroke:#e06a27;stroke-opacity:0.75;" x="514.352778" xlink:href="#m1ab030d27a" y="114.892201"/>
     <use style="fill:#ffc100;fill-opacity:0.75;stroke:#e06a27;stroke-opacity:0.75;" x="505.616478" xlink:href="#m1ab030d27a" y="101.747901"/>
     <use style="fill:#ffc100;fill-opacity:0.75;stroke:#e06a27;stroke-opacity:0.75;" x="394.112315" xlink:href="#m1ab030d27a" y="137.84235"/>
     <use style="fill:#ffc100;fill-opacity:0.75;stroke:#e06a27;stroke-opacity:0.75;" x="526.598741" xlink:href="#m1ab030d27a" y="113.185027"/>
     <use style="fill:#ffc100;fill-opacity:0.75;stroke:#e06a27;stroke-opacity:0.75;" x="390.426408" xlink:href="#m1ab030d27a" y="171.6982"/>
     <use style="fill:#ffc100;fill-opacity:0.75;stroke:#e06a27;stroke-opacity:0.75;" x="377.50335" xlink:href="#m1ab030d27a" y="220.964575"/>
     <use style="fill:#ffc100;fill-opacity:0.75;stroke:#e06a27;stroke-opacity:0.75;" x="517.848648" xlink:href="#m1ab030d27a" y="123.000916"/>
     <use style="fill:#ffc100;fill-opacity:0.75;stroke:#e06a27;stroke-opacity:0.75;" x="357.805341" xlink:href="#m1ab030d27a" y="184.954371"/>
     <use style="fill:#ffc100;fill-opacity:0.75;stroke:#e06a27;stroke-opacity:0.75;" x="458.433116" xlink:href="#m1ab030d27a" y="129.937994"/>
     <use style="fill:#ffc100;fill-opacity:0.75;stroke:#e06a27;stroke-opacity:0.75;" x="531.300061" xlink:href="#m1ab030d27a" y="104.76591"/>
     <use style="fill:#ffc100;fill-opacity:0.75;stroke:#e06a27;stroke-opacity:0.75;" x="369.26422" xlink:href="#m1ab030d27a" y="130.081543"/>
     <use style="fill:#ffc100;fill-opacity:0.75;stroke:#e06a27;stroke-opacity:0.75;" x="474.576024" xlink:href="#m1ab030d27a" y="177.106466"/>
     <use style="fill:#ffc100;fill-opacity:0.75;stroke:#e06a27;stroke-opacity:0.75;" x="469.342722" xlink:href="#m1ab030d27a" y="129.120782"/>
     <use style="fill:#ffc100;fill-opacity:0.75;stroke:#e06a27;stroke-opacity:0.75;" x="412.074886" xlink:href="#m1ab030d27a" y="180.047954"/>
     <use style="fill:#ffc100;fill-opacity:0.75;stroke:#e06a27;stroke-opacity:0.75;" x="518.232356" xlink:href="#m1ab030d27a" y="79.396601"/>
     <use style="fill:#ffc100;fill-opacity:0.75;stroke:#e06a27;stroke-opacity:0.75;" x="486.492856" xlink:href="#m1ab030d27a" y="143.867194"/>
     <use style="fill:#ffc100;fill-opacity:0.75;stroke:#e06a27;stroke-opacity:0.75;" x="407.349743" xlink:href="#m1ab030d27a" y="162.511238"/>
     <use style="fill:#ffc100;fill-opacity:0.75;stroke:#e06a27;stroke-opacity:0.75;" x="496.188392" xlink:href="#m1ab030d27a" y="138.473427"/>
     <use style="fill:#ffc100;fill-opacity:0.75;stroke:#e06a27;stroke-opacity:0.75;" x="472.819839" xlink:href="#m1ab030d27a" y="121.349303"/>
     <use style="fill:#ffc100;fill-opacity:0.75;stroke:#e06a27;stroke-opacity:0.75;" x="439.108349" xlink:href="#m1ab030d27a" y="140.142052"/>
     <use style="fill:#ffc100;fill-opacity:0.75;stroke:#e06a27;stroke-opacity:0.75;" x="458.950814" xlink:href="#m1ab030d27a" y="164.265891"/>
    </g>
   </g>
   <g id="matplotlib.axis_3">
    <g id="xtick_7">
     <g id="line2d_15">
      <g>
       <use style="stroke:#000000;stroke-width:0.8;" x="356.656466" xlink:href="#m5e0b0ffdf3" y="252"/>
      </g>
     </g>
     <g id="text_15">
      <!-- 0 -->
      <g transform="translate(353.475216 266.598437)scale(0.1 -0.1)">
       <use xlink:href="#DejaVuSans-48"/>
      </g>
     </g>
    </g>
    <g id="xtick_8">
     <g id="line2d_16">
      <g>
       <use style="stroke:#000000;stroke-width:0.8;" x="391.761845" xlink:href="#m5e0b0ffdf3" y="252"/>
      </g>
     </g>
     <g id="text_16">
      <!-- 2 -->
      <g transform="translate(388.580595 266.598437)scale(0.1 -0.1)">
       <use xlink:href="#DejaVuSans-50"/>
      </g>
     </g>
    </g>
    <g id="xtick_9">
     <g id="line2d_17">
      <g>
       <use style="stroke:#000000;stroke-width:0.8;" x="426.867224" xlink:href="#m5e0b0ffdf3" y="252"/>
      </g>
     </g>
     <g id="text_17">
      <!-- 4 -->
      <g transform="translate(423.685974 266.598437)scale(0.1 -0.1)">
       <use xlink:href="#DejaVuSans-52"/>
      </g>
     </g>
    </g>
    <g id="xtick_10">
     <g id="line2d_18">
      <g>
       <use style="stroke:#000000;stroke-width:0.8;" x="461.972604" xlink:href="#m5e0b0ffdf3" y="252"/>
      </g>
     </g>
     <g id="text_18">
      <!-- 6 -->
      <g transform="translate(458.791354 266.598437)scale(0.1 -0.1)">
       <use xlink:href="#DejaVuSans-54"/>
      </g>
     </g>
    </g>
    <g id="xtick_11">
     <g id="line2d_19">
      <g>
       <use style="stroke:#000000;stroke-width:0.8;" x="497.077983" xlink:href="#m5e0b0ffdf3" y="252"/>
      </g>
     </g>
     <g id="text_19">
      <!-- 8 -->
      <g transform="translate(493.896733 266.598437)scale(0.1 -0.1)">
       <use xlink:href="#DejaVuSans-56"/>
      </g>
     </g>
    </g>
    <g id="xtick_12">
     <g id="line2d_20">
      <g>
       <use style="stroke:#000000;stroke-width:0.8;" x="532.183362" xlink:href="#m5e0b0ffdf3" y="252"/>
      </g>
     </g>
     <g id="text_20">
      <!-- 10 -->
      <g transform="translate(525.820862 266.598437)scale(0.1 -0.1)">
       <use xlink:href="#DejaVuSans-49"/>
       <use x="63.623047" xlink:href="#DejaVuSans-48"/>
      </g>
     </g>
    </g>
   </g>
   <g id="matplotlib.axis_4">
    <g id="ytick_8">
     <g id="line2d_21">
      <g>
       <use style="stroke:#000000;stroke-width:0.8;" x="344.329412" xlink:href="#mcd85b936ee" y="252"/>
      </g>
     </g>
     <g id="text_21">
      <!-- −2 -->
      <g transform="translate(322.587224 255.799219)scale(0.1 -0.1)">
       <use xlink:href="#DejaVuSans-8722"/>
       <use x="83.789062" xlink:href="#DejaVuSans-50"/>
      </g>
     </g>
    </g>
    <g id="ytick_9">
     <g id="line2d_22">
      <g>
       <use style="stroke:#000000;stroke-width:0.8;" x="344.329412" xlink:href="#mcd85b936ee" y="218.547692"/>
      </g>
     </g>
     <g id="text_22">
      <!-- 0 -->
      <g transform="translate(330.966912 222.346911)scale(0.1 -0.1)">
       <use xlink:href="#DejaVuSans-48"/>
      </g>
     </g>
    </g>
    <g id="ytick_10">
     <g id="line2d_23">
      <g>
       <use style="stroke:#000000;stroke-width:0.8;" x="344.329412" xlink:href="#mcd85b936ee" y="185.095385"/>
      </g>
     </g>
     <g id="text_23">
      <!-- 2 -->
      <g transform="translate(330.966912 188.894603)scale(0.1 -0.1)">
       <use xlink:href="#DejaVuSans-50"/>
      </g>
     </g>
    </g>
    <g id="ytick_11">
     <g id="line2d_24">
      <g>
       <use style="stroke:#000000;stroke-width:0.8;" x="344.329412" xlink:href="#mcd85b936ee" y="151.643077"/>
      </g>
     </g>
     <g id="text_24">
      <!-- 4 -->
      <g transform="translate(330.966912 155.442296)scale(0.1 -0.1)">
       <use xlink:href="#DejaVuSans-52"/>
      </g>
     </g>
    </g>
    <g id="ytick_12">
     <g id="line2d_25">
      <g>
       <use style="stroke:#000000;stroke-width:0.8;" x="344.329412" xlink:href="#mcd85b936ee" y="118.190769"/>
      </g>
     </g>
     <g id="text_25">
      <!-- 6 -->
      <g transform="translate(330.966912 121.989988)scale(0.1 -0.1)">
       <use xlink:href="#DejaVuSans-54"/>
      </g>
     </g>
    </g>
    <g id="ytick_13">
     <g id="line2d_26">
      <g>
       <use style="stroke:#000000;stroke-width:0.8;" x="344.329412" xlink:href="#mcd85b936ee" y="84.738462"/>
      </g>
     </g>
     <g id="text_26">
      <!-- 8 -->
      <g transform="translate(330.966912 88.53768)scale(0.1 -0.1)">
       <use xlink:href="#DejaVuSans-56"/>
      </g>
     </g>
    </g>
    <g id="ytick_14">
     <g id="line2d_27">
      <g>
       <use style="stroke:#000000;stroke-width:0.8;" x="344.329412" xlink:href="#mcd85b936ee" y="51.286154"/>
      </g>
     </g>
     <g id="text_27">
      <!-- 10 -->
      <g transform="translate(324.604412 55.085373)scale(0.1 -0.1)">
       <use xlink:href="#DejaVuSans-49"/>
       <use x="63.623047" xlink:href="#DejaVuSans-48"/>
      </g>
     </g>
    </g>
   </g>
   <g id="line2d_28">
    <path clip-path="url(#p8d9684698b)" d="M 353.281283 186.703509 
L 356.791821 185.030894 
L 360.302359 183.358279 
L 363.812897 181.685663 
L 367.323435 180.013048 
L 370.833973 178.340432 
L 374.344511 176.667817 
L 377.855049 174.995202 
L 381.365587 173.322586 
L 384.876125 171.649971 
L 388.386662 169.977356 
L 391.8972 168.30474 
L 395.407738 166.632125 
L 398.918276 164.959509 
L 402.428814 163.286894 
L 405.939352 161.614279 
L 409.44989 159.941663 
L 412.960428 158.269048 
L 416.470966 156.596432 
L 419.981504 154.923817 
L 423.492042 153.251202 
L 427.002579 151.578586 
L 430.513117 149.905971 
L 434.023655 148.233356 
L 437.534193 146.56074 
L 441.044731 144.888125 
L 444.555269 143.215509 
L 448.065807 141.542894 
L 451.576345 139.870279 
L 455.086883 138.197663 
L 458.597421 136.525048 
L 462.107958 134.852432 
L 465.618496 133.179817 
L 469.129034 131.507202 
L 472.639572 129.834586 
L 476.15011 128.161971 
L 479.660648 126.489356 
L 483.171186 124.81674 
L 486.681724 123.144125 
L 490.192262 121.471509 
L 493.7028 119.798894 
L 497.213338 118.126279 
L 500.723875 116.453663 
L 504.234413 114.781048 
L 507.744951 113.108432 
L 511.255489 111.435817 
L 514.766027 109.763202 
L 518.276565 108.090586 
L 521.787103 106.417971 
L 525.297641 104.745356 
L 528.808179 103.07274 
L 532.318717 101.400125 
" style="fill:none;stroke:#c81d6b;stroke-dasharray:5.55,2.4;stroke-dashoffset:0;stroke-width:1.5;"/>
   </g>
   <g id="patch_8">
    <path d="M 344.329412 252 
L 344.329412 34.56 
" style="fill:none;stroke:#000000;stroke-linecap:square;stroke-linejoin:miter;stroke-width:0.8;"/>
   </g>
   <g id="patch_9">
    <path d="M 541.270588 252 
L 541.270588 34.56 
" style="fill:none;stroke:#000000;stroke-linecap:square;stroke-linejoin:miter;stroke-width:0.8;"/>
   </g>
   <g id="patch_10">
    <path d="M 344.329412 252 
L 541.270588 252 
" style="fill:none;stroke:#000000;stroke-linecap:square;stroke-linejoin:miter;stroke-width:0.8;"/>
   </g>
   <g id="patch_11">
    <path d="M 344.329412 34.56 
L 541.270588 34.56 
" style="fill:none;stroke:#000000;stroke-linecap:square;stroke-linejoin:miter;stroke-width:0.8;"/>
   </g>
   <g id="text_28">
    <!-- Laplace noise -->
    <defs>
     <path d="M 9.8125 72.90625 
L 19.671875 72.90625 
L 19.671875 8.296875 
L 55.171875 8.296875 
L 55.171875 0 
L 9.8125 0 
z
" id="DejaVuSans-76"/>
     <path d="M 18.109375 8.203125 
L 18.109375 -20.796875 
L 9.078125 -20.796875 
L 9.078125 54.6875 
L 18.109375 54.6875 
L 18.109375 46.390625 
Q 20.953125 51.265625 25.265625 53.625 
Q 29.59375 56 35.59375 56 
Q 45.5625 56 51.78125 48.09375 
Q 58.015625 40.1875 58.015625 27.296875 
Q 58.015625 14.40625 51.78125 6.484375 
Q 45.5625 -1.421875 35.59375 -1.421875 
Q 29.59375 -1.421875 25.265625 0.953125 
Q 20.953125 3.328125 18.109375 8.203125 
z
M 48.6875 27.296875 
Q 48.6875 37.203125 44.609375 42.84375 
Q 40.53125 48.484375 33.40625 48.484375 
Q 26.265625 48.484375 22.1875 42.84375 
Q 18.109375 37.203125 18.109375 27.296875 
Q 18.109375 17.390625 22.1875 11.75 
Q 26.265625 6.109375 33.40625 6.109375 
Q 40.53125 6.109375 44.609375 11.75 
Q 48.6875 17.390625 48.6875 27.296875 
z
" id="DejaVuSans-112"/>
     <path d="M 9.421875 75.984375 
L 18.40625 75.984375 
L 18.40625 0 
L 9.421875 0 
z
" id="DejaVuSans-108"/>
     <path d="M 48.78125 52.59375 
L 48.78125 44.1875 
Q 44.96875 46.296875 41.140625 47.34375 
Q 37.3125 48.390625 33.40625 48.390625 
Q 24.65625 48.390625 19.8125 42.84375 
Q 14.984375 37.3125 14.984375 27.296875 
Q 14.984375 17.28125 19.8125 11.734375 
Q 24.65625 6.203125 33.40625 6.203125 
Q 37.3125 6.203125 41.140625 7.25 
Q 44.96875 8.296875 48.78125 10.40625 
L 48.78125 2.09375 
Q 45.015625 0.34375 40.984375 -0.53125 
Q 36.96875 -1.421875 32.421875 -1.421875 
Q 20.0625 -1.421875 12.78125 6.34375 
Q 5.515625 14.109375 5.515625 27.296875 
Q 5.515625 40.671875 12.859375 48.328125 
Q 20.21875 56 33.015625 56 
Q 37.15625 56 41.109375 55.140625 
Q 45.0625 54.296875 48.78125 52.59375 
z
" id="DejaVuSans-99"/>
    </defs>
    <g transform="translate(401.77125 28.56)scale(0.12 -0.12)">
     <use xlink:href="#DejaVuSans-76"/>
     <use x="55.712891" xlink:href="#DejaVuSans-97"/>
     <use x="116.992188" xlink:href="#DejaVuSans-112"/>
     <use x="180.46875" xlink:href="#DejaVuSans-108"/>
     <use x="208.251953" xlink:href="#DejaVuSans-97"/>
     <use x="269.53125" xlink:href="#DejaVuSans-99"/>
     <use x="324.511719" xlink:href="#DejaVuSans-101"/>
     <use x="386.035156" xlink:href="#DejaVuSans-32"/>
     <use x="417.822266" xlink:href="#DejaVuSans-110"/>
     <use x="481.201172" xlink:href="#DejaVuSans-111"/>
     <use x="542.382812" xlink:href="#DejaVuSans-105"/>
     <use x="570.166016" xlink:href="#DejaVuSans-115"/>
     <use x="622.265625" xlink:href="#DejaVuSans-101"/>
    </g>
   </g>
  </g>
  <g id="axes_3">
   <g id="patch_12">
    <path d="M 580.658824 252 
L 777.6 252 
L 777.6 34.56 
L 580.658824 34.56 
z
" style="fill:#ffffff;"/>
   </g>
   <g id="PathCollection_3">
    <g clip-path="url(#p27300c445c)">
     <use style="fill:#ffc100;fill-opacity:0.75;stroke:#e06a27;stroke-opacity:0.75;" x="669.273764" xlink:href="#m1ab030d27a" y="174.591838"/>
     <use style="fill:#ffc100;fill-opacity:0.75;stroke:#e06a27;stroke-opacity:0.75;" x="696.672074" xlink:href="#m1ab030d27a" y="-1"/>
     <use style="fill:#ffc100;fill-opacity:0.75;stroke:#e06a27;stroke-opacity:0.75;" x="678.810085" xlink:href="#m1ab030d27a" y="-1"/>
     <use style="fill:#ffc100;fill-opacity:0.75;stroke:#e06a27;stroke-opacity:0.75;" x="641.769987" xlink:href="#m1ab030d27a" y="165.29698"/>
     <use style="fill:#ffc100;fill-opacity:0.75;stroke:#e06a27;stroke-opacity:0.75;" x="618.776744" xlink:href="#m1ab030d27a" y="143.201848"/>
     <use style="fill:#ffc100;fill-opacity:0.75;stroke:#e06a27;stroke-opacity:0.75;" x="623.51914" xlink:href="#m1ab030d27a" y="160.376648"/>
     <use style="fill:#ffc100;fill-opacity:0.75;stroke:#e06a27;stroke-opacity:0.75;" x="764.481267" xlink:href="#m1ab030d27a" y="107.779322"/>
     <use style="fill:#ffc100;fill-opacity:0.75;stroke:#e06a27;stroke-opacity:0.75;" x="681.871752" xlink:href="#m1ab030d27a" y="140.808191"/>
     <use style="fill:#ffc100;fill-opacity:0.75;stroke:#e06a27;stroke-opacity:0.75;" x="687.420001" xlink:href="#m1ab030d27a" y="-1"/>
     <use style="fill:#ffc100;fill-opacity:0.75;stroke:#e06a27;stroke-opacity:0.75;" x="630.361035" xlink:href="#m1ab030d27a" y="-1"/>
     <use style="fill:#ffc100;fill-opacity:0.75;stroke:#e06a27;stroke-opacity:0.75;" x="603.775444" xlink:href="#m1ab030d27a" y="215.325153"/>
     <use style="fill:#ffc100;fill-opacity:0.75;stroke:#e06a27;stroke-opacity:0.75;" x="593.121233" xlink:href="#m1ab030d27a" y="206.517587"/>
     <use style="fill:#ffc100;fill-opacity:0.75;stroke:#e06a27;stroke-opacity:0.75;" x="681.576178" xlink:href="#m1ab030d27a" y="156.430385"/>
     <use style="fill:#ffc100;fill-opacity:0.75;stroke:#e06a27;stroke-opacity:0.75;" x="704.446261" xlink:href="#m1ab030d27a" y="83.213974"/>
     <use style="fill:#ffc100;fill-opacity:0.75;stroke:#e06a27;stroke-opacity:0.75;" x="760.801745" xlink:href="#m1ab030d27a" y="86.25316"/>
     <use style="fill:#ffc100;fill-opacity:0.75;stroke:#e06a27;stroke-opacity:0.75;" x="730.104445" xlink:href="#m1ab030d27a" y="119.189583"/>
     <use style="fill:#ffc100;fill-opacity:0.75;stroke:#e06a27;stroke-opacity:0.75;" x="730.907976" xlink:href="#m1ab030d27a" y="-1"/>
     <use style="fill:#ffc100;fill-opacity:0.75;stroke:#e06a27;stroke-opacity:0.75;" x="722.13803" xlink:href="#m1ab030d27a" y="-1"/>
     <use style="fill:#ffc100;fill-opacity:0.75;stroke:#e06a27;stroke-opacity:0.75;" x="656.091515" xlink:href="#m1ab030d27a" y="106.257736"/>
     <use style="fill:#ffc100;fill-opacity:0.75;stroke:#e06a27;stroke-opacity:0.75;" x="629.809302" xlink:href="#m1ab030d27a" y="150.969923"/>
     <use style="fill:#ffc100;fill-opacity:0.75;stroke:#e06a27;stroke-opacity:0.75;" x="633.27297" xlink:href="#m1ab030d27a" y="129.115267"/>
     <use style="fill:#ffc100;fill-opacity:0.75;stroke:#e06a27;stroke-opacity:0.75;" x="729.516221" xlink:href="#m1ab030d27a" y="114.435146"/>
     <use style="fill:#ffc100;fill-opacity:0.75;stroke:#e06a27;stroke-opacity:0.75;" x="759.41915" xlink:href="#m1ab030d27a" y="90.349261"/>
     <use style="fill:#ffc100;fill-opacity:0.75;stroke:#e06a27;stroke-opacity:0.75;" x="615.634342" xlink:href="#m1ab030d27a" y="149.184406"/>
     <use style="fill:#ffc100;fill-opacity:0.75;stroke:#e06a27;stroke-opacity:0.75;" x="672.117077" xlink:href="#m1ab030d27a" y="250.850678"/>
     <use style="fill:#ffc100;fill-opacity:0.75;stroke:#e06a27;stroke-opacity:0.75;" x="606.629596" xlink:href="#m1ab030d27a" y="173.345964"/>
     <use style="fill:#ffc100;fill-opacity:0.75;stroke:#e06a27;stroke-opacity:0.75;" x="730.771672" xlink:href="#m1ab030d27a" y="106.068714"/>
     <use style="fill:#ffc100;fill-opacity:0.75;stroke:#e06a27;stroke-opacity:0.75;" x="634.576539" xlink:href="#m1ab030d27a" y="39.034579"/>
     <use style="fill:#ffc100;fill-opacity:0.75;stroke:#e06a27;stroke-opacity:0.75;" x="739.214525" xlink:href="#m1ab030d27a" y="138.81559"/>
     <use style="fill:#ffc100;fill-opacity:0.75;stroke:#e06a27;stroke-opacity:0.75;" x="719.378644" xlink:href="#m1ab030d27a" y="124.751269"/>
     <use style="fill:#ffc100;fill-opacity:0.75;stroke:#e06a27;stroke-opacity:0.75;" x="713.73623" xlink:href="#m1ab030d27a" y="103.67346"/>
     <use style="fill:#ffc100;fill-opacity:0.75;stroke:#e06a27;stroke-opacity:0.75;" x="720.095244" xlink:href="#m1ab030d27a" y="263.221469"/>
     <use style="fill:#ffc100;fill-opacity:0.75;stroke:#e06a27;stroke-opacity:0.75;" x="750.68219" xlink:href="#m1ab030d27a" y="178.336956"/>
     <use style="fill:#ffc100;fill-opacity:0.75;stroke:#e06a27;stroke-opacity:0.75;" x="741.94589" xlink:href="#m1ab030d27a" y="164.357246"/>
     <use style="fill:#ffc100;fill-opacity:0.75;stroke:#e06a27;stroke-opacity:0.75;" x="630.441727" xlink:href="#m1ab030d27a" y="102.250414"/>
     <use style="fill:#ffc100;fill-opacity:0.75;stroke:#e06a27;stroke-opacity:0.75;" x="762.928153" xlink:href="#m1ab030d27a" y="115.049192"/>
     <use style="fill:#ffc100;fill-opacity:0.75;stroke:#e06a27;stroke-opacity:0.75;" x="626.75582" xlink:href="#m1ab030d27a" y="407.989876"/>
     <use style="fill:#ffc100;fill-opacity:0.75;stroke:#e06a27;stroke-opacity:0.75;" x="613.832762" xlink:href="#m1ab030d27a" y="165.117698"/>
     <use style="fill:#ffc100;fill-opacity:0.75;stroke:#e06a27;stroke-opacity:0.75;" x="754.17806" xlink:href="#m1ab030d27a" y="267.862918"/>
     <use style="fill:#ffc100;fill-opacity:0.75;stroke:#e06a27;stroke-opacity:0.75;" x="594.134752" xlink:href="#m1ab030d27a" y="164.20209"/>
     <use style="fill:#ffc100;fill-opacity:0.75;stroke:#e06a27;stroke-opacity:0.75;" x="694.762528" xlink:href="#m1ab030d27a" y="154.87592"/>
     <use style="fill:#ffc100;fill-opacity:0.75;stroke:#e06a27;stroke-opacity:0.75;" x="767.629473" xlink:href="#m1ab030d27a" y="84.721403"/>
     <use style="fill:#ffc100;fill-opacity:0.75;stroke:#e06a27;stroke-opacity:0.75;" x="605.593631" xlink:href="#m1ab030d27a" y="165.907634"/>
     <use style="fill:#ffc100;fill-opacity:0.75;stroke:#e06a27;stroke-opacity:0.75;" x="710.905436" xlink:href="#m1ab030d27a" y="88.20021"/>
     <use style="fill:#ffc100;fill-opacity:0.75;stroke:#e06a27;stroke-opacity:0.75;" x="705.672134" xlink:href="#m1ab030d27a" y="99.510777"/>
     <use style="fill:#ffc100;fill-opacity:0.75;stroke:#e06a27;stroke-opacity:0.75;" x="700.717424" xlink:href="#m1ab030d27a" y="-1"/>
     <use style="fill:#ffc100;fill-opacity:0.75;stroke:#e06a27;stroke-opacity:0.75;" x="731.225934" xlink:href="#m1ab030d27a" y="-1"/>
     <use style="fill:#ffc100;fill-opacity:0.75;stroke:#e06a27;stroke-opacity:0.75;" x="722.822268" xlink:href="#m1ab030d27a" y="55.050003"/>
     <use style="fill:#ffc100;fill-opacity:0.75;stroke:#e06a27;stroke-opacity:0.75;" x="643.679155" xlink:href="#m1ab030d27a" y="216.210162"/>
     <use style="fill:#ffc100;fill-opacity:0.75;stroke:#e06a27;stroke-opacity:0.75;" x="732.517804" xlink:href="#m1ab030d27a" y="123.226225"/>
     <use style="fill:#ffc100;fill-opacity:0.75;stroke:#e06a27;stroke-opacity:0.75;" x="709.149251" xlink:href="#m1ab030d27a" y="116.346227"/>
     <use style="fill:#ffc100;fill-opacity:0.75;stroke:#e06a27;stroke-opacity:0.75;" x="675.43776" xlink:href="#m1ab030d27a" y="147.321778"/>
     <use style="fill:#ffc100;fill-opacity:0.75;stroke:#e06a27;stroke-opacity:0.75;" x="695.280225" xlink:href="#m1ab030d27a" y="112.59998"/>
    </g>
   </g>
   <g id="matplotlib.axis_5">
    <g id="xtick_13">
     <g id="line2d_29">
      <g>
       <use style="stroke:#000000;stroke-width:0.8;" x="592.985878" xlink:href="#m5e0b0ffdf3" y="252"/>
      </g>
     </g>
     <g id="text_29">
      <!-- 0 -->
      <g transform="translate(589.804628 266.598437)scale(0.1 -0.1)">
       <use xlink:href="#DejaVuSans-48"/>
      </g>
     </g>
    </g>
    <g id="xtick_14">
     <g id="line2d_30">
      <g>
       <use style="stroke:#000000;stroke-width:0.8;" x="628.091257" xlink:href="#m5e0b0ffdf3" y="252"/>
      </g>
     </g>
     <g id="text_30">
      <!-- 2 -->
      <g transform="translate(624.910007 266.598437)scale(0.1 -0.1)">
       <use xlink:href="#DejaVuSans-50"/>
      </g>
     </g>
    </g>
    <g id="xtick_15">
     <g id="line2d_31">
      <g>
       <use style="stroke:#000000;stroke-width:0.8;" x="663.196636" xlink:href="#m5e0b0ffdf3" y="252"/>
      </g>
     </g>
     <g id="text_31">
      <!-- 4 -->
      <g transform="translate(660.015386 266.598437)scale(0.1 -0.1)">
       <use xlink:href="#DejaVuSans-52"/>
      </g>
     </g>
    </g>
    <g id="xtick_16">
     <g id="line2d_32">
      <g>
       <use style="stroke:#000000;stroke-width:0.8;" x="698.302015" xlink:href="#m5e0b0ffdf3" y="252"/>
      </g>
     </g>
     <g id="text_32">
      <!-- 6 -->
      <g transform="translate(695.120765 266.598437)scale(0.1 -0.1)">
       <use xlink:href="#DejaVuSans-54"/>
      </g>
     </g>
    </g>
    <g id="xtick_17">
     <g id="line2d_33">
      <g>
       <use style="stroke:#000000;stroke-width:0.8;" x="733.407394" xlink:href="#m5e0b0ffdf3" y="252"/>
      </g>
     </g>
     <g id="text_33">
      <!-- 8 -->
      <g transform="translate(730.226144 266.598437)scale(0.1 -0.1)">
       <use xlink:href="#DejaVuSans-56"/>
      </g>
     </g>
    </g>
    <g id="xtick_18">
     <g id="line2d_34">
      <g>
       <use style="stroke:#000000;stroke-width:0.8;" x="768.512773" xlink:href="#m5e0b0ffdf3" y="252"/>
      </g>
     </g>
     <g id="text_34">
      <!-- 10 -->
      <g transform="translate(762.150273 266.598437)scale(0.1 -0.1)">
       <use xlink:href="#DejaVuSans-49"/>
       <use x="63.623047" xlink:href="#DejaVuSans-48"/>
      </g>
     </g>
    </g>
   </g>
   <g id="matplotlib.axis_6">
    <g id="ytick_15">
     <g id="line2d_35">
      <g>
       <use style="stroke:#000000;stroke-width:0.8;" x="580.658824" xlink:href="#mcd85b936ee" y="252"/>
      </g>
     </g>
     <g id="text_35">
      <!-- −2 -->
      <g transform="translate(558.916636 255.799219)scale(0.1 -0.1)">
       <use xlink:href="#DejaVuSans-8722"/>
       <use x="83.789062" xlink:href="#DejaVuSans-50"/>
      </g>
     </g>
    </g>
    <g id="ytick_16">
     <g id="line2d_36">
      <g>
       <use style="stroke:#000000;stroke-width:0.8;" x="580.658824" xlink:href="#mcd85b936ee" y="218.547692"/>
      </g>
     </g>
     <g id="text_36">
      <!-- 0 -->
      <g transform="translate(567.296324 222.346911)scale(0.1 -0.1)">
       <use xlink:href="#DejaVuSans-48"/>
      </g>
     </g>
    </g>
    <g id="ytick_17">
     <g id="line2d_37">
      <g>
       <use style="stroke:#000000;stroke-width:0.8;" x="580.658824" xlink:href="#mcd85b936ee" y="185.095385"/>
      </g>
     </g>
     <g id="text_37">
      <!-- 2 -->
      <g transform="translate(567.296324 188.894603)scale(0.1 -0.1)">
       <use xlink:href="#DejaVuSans-50"/>
      </g>
     </g>
    </g>
    <g id="ytick_18">
     <g id="line2d_38">
      <g>
       <use style="stroke:#000000;stroke-width:0.8;" x="580.658824" xlink:href="#mcd85b936ee" y="151.643077"/>
      </g>
     </g>
     <g id="text_38">
      <!-- 4 -->
      <g transform="translate(567.296324 155.442296)scale(0.1 -0.1)">
       <use xlink:href="#DejaVuSans-52"/>
      </g>
     </g>
    </g>
    <g id="ytick_19">
     <g id="line2d_39">
      <g>
       <use style="stroke:#000000;stroke-width:0.8;" x="580.658824" xlink:href="#mcd85b936ee" y="118.190769"/>
      </g>
     </g>
     <g id="text_39">
      <!-- 6 -->
      <g transform="translate(567.296324 121.989988)scale(0.1 -0.1)">
       <use xlink:href="#DejaVuSans-54"/>
      </g>
     </g>
    </g>
    <g id="ytick_20">
     <g id="line2d_40">
      <g>
       <use style="stroke:#000000;stroke-width:0.8;" x="580.658824" xlink:href="#mcd85b936ee" y="84.738462"/>
      </g>
     </g>
     <g id="text_40">
      <!-- 8 -->
      <g transform="translate(567.296324 88.53768)scale(0.1 -0.1)">
       <use xlink:href="#DejaVuSans-56"/>
      </g>
     </g>
    </g>
    <g id="ytick_21">
     <g id="line2d_41">
      <g>
       <use style="stroke:#000000;stroke-width:0.8;" x="580.658824" xlink:href="#mcd85b936ee" y="51.286154"/>
      </g>
     </g>
     <g id="text_41">
      <!-- 10 -->
      <g transform="translate(560.933824 55.085373)scale(0.1 -0.1)">
       <use xlink:href="#DejaVuSans-49"/>
       <use x="63.623047" xlink:href="#DejaVuSans-48"/>
      </g>
     </g>
    </g>
   </g>
   <g id="line2d_42">
    <path clip-path="url(#p27300c445c)" d="M 589.610695 186.703509 
L 593.121233 185.030894 
L 596.631771 183.358279 
L 600.142309 181.685663 
L 603.652847 180.013048 
L 607.163385 178.340432 
L 610.673923 176.667817 
L 614.184461 174.995202 
L 617.694998 173.322586 
L 621.205536 171.649971 
L 624.716074 169.977356 
L 628.226612 168.30474 
L 631.73715 166.632125 
L 635.247688 164.959509 
L 638.758226 163.286894 
L 642.268764 161.614279 
L 645.779302 159.941663 
L 649.28984 158.269048 
L 652.800377 156.596432 
L 656.310915 154.923817 
L 659.821453 153.251202 
L 663.331991 151.578586 
L 666.842529 149.905971 
L 670.353067 148.233356 
L 673.863605 146.56074 
L 677.374143 144.888125 
L 680.884681 143.215509 
L 684.395219 141.542894 
L 687.905757 139.870279 
L 691.416294 138.197663 
L 694.926832 136.525048 
L 698.43737 134.852432 
L 701.947908 133.179817 
L 705.458446 131.507202 
L 708.968984 129.834586 
L 712.479522 128.161971 
L 715.99006 126.489356 
L 719.500598 124.81674 
L 723.011136 123.144125 
L 726.521673 121.471509 
L 730.032211 119.798894 
L 733.542749 118.126279 
L 737.053287 116.453663 
L 740.563825 114.781048 
L 744.074363 113.108432 
L 747.584901 111.435817 
L 751.095439 109.763202 
L 754.605977 108.090586 
L 758.116515 106.417971 
L 761.627053 104.745356 
L 765.13759 103.07274 
L 768.648128 101.400125 
" style="fill:none;stroke:#c81d6b;stroke-dasharray:5.55,2.4;stroke-dashoffset:0;stroke-width:1.5;"/>
   </g>
   <g id="patch_13">
    <path d="M 580.658824 252 
L 580.658824 34.56 
" style="fill:none;stroke:#000000;stroke-linecap:square;stroke-linejoin:miter;stroke-width:0.8;"/>
   </g>
   <g id="patch_14">
    <path d="M 777.6 252 
L 777.6 34.56 
" style="fill:none;stroke:#000000;stroke-linecap:square;stroke-linejoin:miter;stroke-width:0.8;"/>
   </g>
   <g id="patch_15">
    <path d="M 580.658824 252 
L 777.6 252 
" style="fill:none;stroke:#000000;stroke-linecap:square;stroke-linejoin:miter;stroke-width:0.8;"/>
   </g>
   <g id="patch_16">
    <path d="M 580.658824 34.56 
L 777.6 34.56 
" style="fill:none;stroke:#000000;stroke-linecap:square;stroke-linejoin:miter;stroke-width:0.8;"/>
   </g>
   <g id="text_42">
    <!-- Cauchy noise -->
    <defs>
     <path d="M 64.40625 67.28125 
L 64.40625 56.890625 
Q 59.421875 61.53125 53.78125 63.8125 
Q 48.140625 66.109375 41.796875 66.109375 
Q 29.296875 66.109375 22.65625 58.46875 
Q 16.015625 50.828125 16.015625 36.375 
Q 16.015625 21.96875 22.65625 14.328125 
Q 29.296875 6.6875 41.796875 6.6875 
Q 48.140625 6.6875 53.78125 8.984375 
Q 59.421875 11.28125 64.40625 15.921875 
L 64.40625 5.609375 
Q 59.234375 2.09375 53.4375 0.328125 
Q 47.65625 -1.421875 41.21875 -1.421875 
Q 24.65625 -1.421875 15.125 8.703125 
Q 5.609375 18.84375 5.609375 36.375 
Q 5.609375 53.953125 15.125 64.078125 
Q 24.65625 74.21875 41.21875 74.21875 
Q 47.75 74.21875 53.53125 72.484375 
Q 59.328125 70.75 64.40625 67.28125 
z
" id="DejaVuSans-67"/>
     <path d="M 54.890625 33.015625 
L 54.890625 0 
L 45.90625 0 
L 45.90625 32.71875 
Q 45.90625 40.484375 42.875 44.328125 
Q 39.84375 48.1875 33.796875 48.1875 
Q 26.515625 48.1875 22.3125 43.546875 
Q 18.109375 38.921875 18.109375 30.90625 
L 18.109375 0 
L 9.078125 0 
L 9.078125 75.984375 
L 18.109375 75.984375 
L 18.109375 46.1875 
Q 21.34375 51.125 25.703125 53.5625 
Q 30.078125 56 35.796875 56 
Q 45.21875 56 50.046875 50.171875 
Q 54.890625 44.34375 54.890625 33.015625 
z
" id="DejaVuSans-104"/>
     <path d="M 32.171875 -5.078125 
Q 28.375 -14.84375 24.75 -17.8125 
Q 21.140625 -20.796875 15.09375 -20.796875 
L 7.90625 -20.796875 
L 7.90625 -13.28125 
L 13.1875 -13.28125 
Q 16.890625 -13.28125 18.9375 -11.515625 
Q 21 -9.765625 23.484375 -3.21875 
L 25.09375 0.875 
L 2.984375 54.6875 
L 12.5 54.6875 
L 29.59375 11.921875 
L 46.6875 54.6875 
L 56.203125 54.6875 
z
" id="DejaVuSans-121"/>
    </defs>
    <g transform="translate(638.942537 28.56)scale(0.12 -0.12)">
     <use xlink:href="#DejaVuSans-67"/>
     <use x="69.824219" xlink:href="#DejaVuSans-97"/>
     <use x="131.103516" xlink:href="#DejaVuSans-117"/>
     <use x="194.482422" xlink:href="#DejaVuSans-99"/>
     <use x="249.462891" xlink:href="#DejaVuSans-104"/>
     <use x="312.841797" xlink:href="#DejaVuSans-121"/>
     <use x="372.021484" xlink:href="#DejaVuSans-32"/>
     <use x="403.808594" xlink:href="#DejaVuSans-110"/>
     <use x="467.1875" xlink:href="#DejaVuSans-111"/>
     <use x="528.369141" xlink:href="#DejaVuSans-105"/>
     <use x="556.152344" xlink:href="#DejaVuSans-115"/>
     <use x="608.251953" xlink:href="#DejaVuSans-101"/>
    </g>
   </g>
  </g>
 </g>
 <defs>
  <clipPath id="p9e661cbb09">
   <rect height="217.44" width="196.941176" x="108" y="34.56"/>
  </clipPath>
  <clipPath id="p8d9684698b">
   <rect height="217.44" width="196.941176" x="344.329412" y="34.56"/>
  </clipPath>
  <clipPath id="p27300c445c">
   <rect height="217.44" width="196.941176" x="580.658824" y="34.56"/>
  </clipPath>
 </defs>
</svg>
