<?xml version="1.0" encoding="utf-8" standalone="no"?>
<!DOCTYPE svg PUBLIC "-//W3C//DTD SVG 1.1//EN"
  "http://www.w3.org/Graphics/SVG/1.1/DTD/svg11.dtd">
<svg height="504pt" version="1.1" viewBox="0 0 1080 504" width="1080pt" xmlns="http://www.w3.org/2000/svg" xmlns:xlink="http://www.w3.org/1999/xlink">
 <metadata>
  <rdf:RDF xmlns:cc="http://creativecommons.org/ns#" xmlns:dc="http://purl.org/dc/elements/1.1/" xmlns:rdf="http://www.w3.org/1999/02/22-rdf-syntax-ns#">
   <cc:Work>
    <dc:type rdf:resource="http://purl.org/dc/dcmitype/StillImage"/>
    <dc:date>2021-09-13T19:50:07.401803</dc:date>
    <dc:format>image/svg+xml</dc:format>
    <dc:creator>
     <cc:Agent>
      <dc:title>Matplotlib v3.4.3, https://matplotlib.org/</dc:title>
     </cc:Agent>
    </dc:creator>
   </cc:Work>
  </rdf:RDF>
 </metadata>
 <defs>
  <style type="text/css">*{stroke-linecap:butt;stroke-linejoin:round;}</style>
 </defs>
 <g id="figure_1">
  <g id="patch_1">
   <path d="M 0 504 
L 1080 504 
L 1080 0 
L 0 0 
z
" style="fill:none;"/>
  </g>
  <g id="axes_1">
   <g id="patch_2">
    <path d="M 135 441 
L 972 441 
L 972 60.48 
L 135 60.48 
z
" style="fill:#ffffff;"/>
   </g>
   <g id="PathCollection_1">
    <defs>
     <path d="M 0 3 
C 0.795609 3 1.55874 2.683901 2.12132 2.12132 
C 2.683901 1.55874 3 0.795609 3 0 
C 3 -0.795609 2.683901 -1.55874 2.12132 -2.12132 
C 1.55874 -2.683901 0.795609 -3 0 -3 
C -0.795609 -3 -1.55874 -2.683901 -2.12132 -2.12132 
C -2.683901 -1.55874 -3 -0.795609 -3 0 
C -3 0.795609 -2.683901 1.55874 -2.12132 2.12132 
C -1.55874 2.683901 -0.795609 3 0 3 
z
" id="m20da88356d" style="stroke:#3b4856;"/>
    </defs>
    <g clip-path="url(#p785dfa91d4)">
     <use style="fill:#3b4856;stroke:#3b4856;" x="173.045455" xlink:href="#m20da88356d" y="239.648914"/>
     <use style="fill:#3b4856;stroke:#3b4856;" x="176.101314" xlink:href="#m20da88356d" y="212.031522"/>
     <use style="fill:#3b4856;stroke:#3b4856;" x="179.157174" xlink:href="#m20da88356d" y="209.593097"/>
     <use style="fill:#3b4856;stroke:#3b4856;" x="185.268894" xlink:href="#m20da88356d" y="241.464177"/>
     <use style="fill:#3b4856;stroke:#3b4856;" x="188.324754" xlink:href="#m20da88356d" y="231.507746"/>
     <use style="fill:#3b4856;stroke:#3b4856;" x="191.380613" xlink:href="#m20da88356d" y="184.026028"/>
     <use style="fill:#3b4856;stroke:#3b4856;" x="194.436473" xlink:href="#m20da88356d" y="218.732064"/>
     <use style="fill:#3b4856;stroke:#3b4856;" x="203.604053" xlink:href="#m20da88356d" y="162.347773"/>
     <use style="fill:#3b4856;stroke:#3b4856;" x="206.659912" xlink:href="#m20da88356d" y="256.859788"/>
     <use style="fill:#3b4856;stroke:#3b4856;" x="209.715772" xlink:href="#m20da88356d" y="231.008705"/>
     <use style="fill:#3b4856;stroke:#3b4856;" x="215.827492" xlink:href="#m20da88356d" y="189.205747"/>
     <use style="fill:#3b4856;stroke:#3b4856;" x="218.883352" xlink:href="#m20da88356d" y="171.921731"/>
     <use style="fill:#3b4856;stroke:#3b4856;" x="224.995071" xlink:href="#m20da88356d" y="161.39228"/>
     <use style="fill:#3b4856;stroke:#3b4856;" x="231.106791" xlink:href="#m20da88356d" y="183.647752"/>
     <use style="fill:#3b4856;stroke:#3b4856;" x="237.21851" xlink:href="#m20da88356d" y="253.464269"/>
     <use style="fill:#3b4856;stroke:#3b4856;" x="243.33023" xlink:href="#m20da88356d" y="219.589248"/>
     <use style="fill:#3b4856;stroke:#3b4856;" x="246.38609" xlink:href="#m20da88356d" y="214.779039"/>
     <use style="fill:#3b4856;stroke:#3b4856;" x="249.44195" xlink:href="#m20da88356d" y="194.758503"/>
     <use style="fill:#3b4856;stroke:#3b4856;" x="252.497809" xlink:href="#m20da88356d" y="268.974006"/>
     <use style="fill:#3b4856;stroke:#3b4856;" x="258.609529" xlink:href="#m20da88356d" y="276.44695"/>
     <use style="fill:#3b4856;stroke:#3b4856;" x="261.665389" xlink:href="#m20da88356d" y="266.107401"/>
     <use style="fill:#3b4856;stroke:#3b4856;" x="270.832968" xlink:href="#m20da88356d" y="234.79745"/>
     <use style="fill:#3b4856;stroke:#3b4856;" x="286.112267" xlink:href="#m20da88356d" y="200.334916"/>
     <use style="fill:#3b4856;stroke:#3b4856;" x="289.168127" xlink:href="#m20da88356d" y="218.583734"/>
     <use style="fill:#3b4856;stroke:#3b4856;" x="292.223987" xlink:href="#m20da88356d" y="340.373866"/>
     <use style="fill:#3b4856;stroke:#3b4856;" x="295.279847" xlink:href="#m20da88356d" y="244.645244"/>
     <use style="fill:#3b4856;stroke:#3b4856;" x="298.335706" xlink:href="#m20da88356d" y="262.930871"/>
     <use style="fill:#3b4856;stroke:#3b4856;" x="301.391566" xlink:href="#m20da88356d" y="274.089523"/>
     <use style="fill:#3b4856;stroke:#3b4856;" x="304.447426" xlink:href="#m20da88356d" y="293.084438"/>
     <use style="fill:#3b4856;stroke:#3b4856;" x="307.503286" xlink:href="#m20da88356d" y="330.309057"/>
     <use style="fill:#3b4856;stroke:#3b4856;" x="310.559146" xlink:href="#m20da88356d" y="363.796047"/>
     <use style="fill:#3b4856;stroke:#3b4856;" x="313.615005" xlink:href="#m20da88356d" y="240.826479"/>
     <use style="fill:#3b4856;stroke:#3b4856;" x="316.670865" xlink:href="#m20da88356d" y="320.020365"/>
     <use style="fill:#3b4856;stroke:#3b4856;" x="319.726725" xlink:href="#m20da88356d" y="205.318975"/>
     <use style="fill:#3b4856;stroke:#3b4856;" x="325.838445" xlink:href="#m20da88356d" y="254.925796"/>
     <use style="fill:#3b4856;stroke:#3b4856;" x="328.894304" xlink:href="#m20da88356d" y="380.503329"/>
     <use style="fill:#3b4856;stroke:#3b4856;" x="338.061884" xlink:href="#m20da88356d" y="423.703636"/>
     <use style="fill:#3b4856;stroke:#3b4856;" x="341.117744" xlink:href="#m20da88356d" y="287.249753"/>
     <use style="fill:#3b4856;stroke:#3b4856;" x="344.173604" xlink:href="#m20da88356d" y="301.042733"/>
     <use style="fill:#3b4856;stroke:#3b4856;" x="347.229463" xlink:href="#m20da88356d" y="346.537377"/>
     <use style="fill:#3b4856;stroke:#3b4856;" x="350.285323" xlink:href="#m20da88356d" y="350.281949"/>
     <use style="fill:#3b4856;stroke:#3b4856;" x="353.341183" xlink:href="#m20da88356d" y="314.011302"/>
     <use style="fill:#3b4856;stroke:#3b4856;" x="356.397043" xlink:href="#m20da88356d" y="282.477585"/>
     <use style="fill:#3b4856;stroke:#3b4856;" x="359.452903" xlink:href="#m20da88356d" y="275.487005"/>
     <use style="fill:#3b4856;stroke:#3b4856;" x="362.508762" xlink:href="#m20da88356d" y="337.706414"/>
     <use style="fill:#3b4856;stroke:#3b4856;" x="365.564622" xlink:href="#m20da88356d" y="226.258607"/>
     <use style="fill:#3b4856;stroke:#3b4856;" x="371.676342" xlink:href="#m20da88356d" y="407.67251"/>
     <use style="fill:#3b4856;stroke:#3b4856;" x="374.732202" xlink:href="#m20da88356d" y="345.797221"/>
     <use style="fill:#3b4856;stroke:#3b4856;" x="377.788061" xlink:href="#m20da88356d" y="350.849821"/>
     <use style="fill:#3b4856;stroke:#3b4856;" x="383.899781" xlink:href="#m20da88356d" y="328.642873"/>
     <use style="fill:#3b4856;stroke:#3b4856;" x="386.955641" xlink:href="#m20da88356d" y="391.447714"/>
     <use style="fill:#3b4856;stroke:#3b4856;" x="390.011501" xlink:href="#m20da88356d" y="332.247404"/>
     <use style="fill:#3b4856;stroke:#3b4856;" x="393.06736" xlink:href="#m20da88356d" y="365.489226"/>
     <use style="fill:#3b4856;stroke:#3b4856;" x="396.12322" xlink:href="#m20da88356d" y="357.472216"/>
     <use style="fill:#3b4856;stroke:#3b4856;" x="399.17908" xlink:href="#m20da88356d" y="295.732442"/>
     <use style="fill:#3b4856;stroke:#3b4856;" x="402.23494" xlink:href="#m20da88356d" y="331.788286"/>
     <use style="fill:#3b4856;stroke:#3b4856;" x="405.2908" xlink:href="#m20da88356d" y="366.100018"/>
     <use style="fill:#3b4856;stroke:#3b4856;" x="411.402519" xlink:href="#m20da88356d" y="318.995857"/>
     <use style="fill:#3b4856;stroke:#3b4856;" x="414.458379" xlink:href="#m20da88356d" y="321.505822"/>
     <use style="fill:#3b4856;stroke:#3b4856;" x="423.625958" xlink:href="#m20da88356d" y="345.58811"/>
     <use style="fill:#3b4856;stroke:#3b4856;" x="426.681818" xlink:href="#m20da88356d" y="287.840324"/>
     <use style="fill:#3b4856;stroke:#3b4856;" x="429.737678" xlink:href="#m20da88356d" y="327.721248"/>
     <use style="fill:#3b4856;stroke:#3b4856;" x="432.793538" xlink:href="#m20da88356d" y="271.314719"/>
     <use style="fill:#3b4856;stroke:#3b4856;" x="435.849398" xlink:href="#m20da88356d" y="319.363789"/>
     <use style="fill:#3b4856;stroke:#3b4856;" x="438.905257" xlink:href="#m20da88356d" y="288.364607"/>
     <use style="fill:#3b4856;stroke:#3b4856;" x="441.961117" xlink:href="#m20da88356d" y="377.066207"/>
     <use style="fill:#3b4856;stroke:#3b4856;" x="445.016977" xlink:href="#m20da88356d" y="334.535368"/>
     <use style="fill:#3b4856;stroke:#3b4856;" x="448.072837" xlink:href="#m20da88356d" y="251.405268"/>
     <use style="fill:#3b4856;stroke:#3b4856;" x="451.128697" xlink:href="#m20da88356d" y="285.220005"/>
     <use style="fill:#3b4856;stroke:#3b4856;" x="454.184556" xlink:href="#m20da88356d" y="326.293834"/>
     <use style="fill:#3b4856;stroke:#3b4856;" x="466.407996" xlink:href="#m20da88356d" y="417.643737"/>
     <use style="fill:#3b4856;stroke:#3b4856;" x="469.463855" xlink:href="#m20da88356d" y="269.642724"/>
     <use style="fill:#3b4856;stroke:#3b4856;" x="472.519715" xlink:href="#m20da88356d" y="312.369742"/>
     <use style="fill:#3b4856;stroke:#3b4856;" x="475.575575" xlink:href="#m20da88356d" y="261.184343"/>
     <use style="fill:#3b4856;stroke:#3b4856;" x="481.687295" xlink:href="#m20da88356d" y="195.894184"/>
     <use style="fill:#3b4856;stroke:#3b4856;" x="484.743154" xlink:href="#m20da88356d" y="323.874382"/>
     <use style="fill:#3b4856;stroke:#3b4856;" x="493.910734" xlink:href="#m20da88356d" y="371.516256"/>
     <use style="fill:#3b4856;stroke:#3b4856;" x="496.966594" xlink:href="#m20da88356d" y="204.555472"/>
     <use style="fill:#3b4856;stroke:#3b4856;" x="500.022453" xlink:href="#m20da88356d" y="255.289623"/>
     <use style="fill:#3b4856;stroke:#3b4856;" x="503.078313" xlink:href="#m20da88356d" y="356.480071"/>
     <use style="fill:#3b4856;stroke:#3b4856;" x="506.134173" xlink:href="#m20da88356d" y="243.135884"/>
     <use style="fill:#3b4856;stroke:#3b4856;" x="512.245893" xlink:href="#m20da88356d" y="340.271644"/>
     <use style="fill:#3b4856;stroke:#3b4856;" x="515.301752" xlink:href="#m20da88356d" y="289.913056"/>
     <use style="fill:#3b4856;stroke:#3b4856;" x="518.357612" xlink:href="#m20da88356d" y="298.241313"/>
     <use style="fill:#3b4856;stroke:#3b4856;" x="521.413472" xlink:href="#m20da88356d" y="303.26632"/>
     <use style="fill:#3b4856;stroke:#3b4856;" x="524.469332" xlink:href="#m20da88356d" y="320.742314"/>
     <use style="fill:#3b4856;stroke:#3b4856;" x="530.581051" xlink:href="#m20da88356d" y="237.744229"/>
     <use style="fill:#3b4856;stroke:#3b4856;" x="533.636911" xlink:href="#m20da88356d" y="235.933266"/>
     <use style="fill:#3b4856;stroke:#3b4856;" x="536.692771" xlink:href="#m20da88356d" y="235.877991"/>
     <use style="fill:#3b4856;stroke:#3b4856;" x="539.748631" xlink:href="#m20da88356d" y="251.946019"/>
     <use style="fill:#3b4856;stroke:#3b4856;" x="545.86035" xlink:href="#m20da88356d" y="164.038622"/>
     <use style="fill:#3b4856;stroke:#3b4856;" x="548.91621" xlink:href="#m20da88356d" y="321.959279"/>
     <use style="fill:#3b4856;stroke:#3b4856;" x="551.97207" xlink:href="#m20da88356d" y="164.534597"/>
     <use style="fill:#3b4856;stroke:#3b4856;" x="555.02793" xlink:href="#m20da88356d" y="259.948095"/>
     <use style="fill:#3b4856;stroke:#3b4856;" x="558.08379" xlink:href="#m20da88356d" y="200.600387"/>
     <use style="fill:#3b4856;stroke:#3b4856;" x="561.13965" xlink:href="#m20da88356d" y="228.686968"/>
     <use style="fill:#3b4856;stroke:#3b4856;" x="564.195509" xlink:href="#m20da88356d" y="198.749244"/>
     <use style="fill:#3b4856;stroke:#3b4856;" x="579.474808" xlink:href="#m20da88356d" y="203.436694"/>
     <use style="fill:#3b4856;stroke:#3b4856;" x="585.586528" xlink:href="#m20da88356d" y="163.255783"/>
     <use style="fill:#3b4856;stroke:#3b4856;" x="588.642388" xlink:href="#m20da88356d" y="137.583246"/>
     <use style="fill:#3b4856;stroke:#3b4856;" x="591.698248" xlink:href="#m20da88356d" y="239.521246"/>
     <use style="fill:#3b4856;stroke:#3b4856;" x="594.754107" xlink:href="#m20da88356d" y="146.970613"/>
     <use style="fill:#3b4856;stroke:#3b4856;" x="600.865827" xlink:href="#m20da88356d" y="230.400284"/>
     <use style="fill:#3b4856;stroke:#3b4856;" x="625.312705" xlink:href="#m20da88356d" y="176.021587"/>
     <use style="fill:#3b4856;stroke:#3b4856;" x="631.424425" xlink:href="#m20da88356d" y="209.054099"/>
     <use style="fill:#3b4856;stroke:#3b4856;" x="634.480285" xlink:href="#m20da88356d" y="116.593075"/>
     <use style="fill:#3b4856;stroke:#3b4856;" x="640.592004" xlink:href="#m20da88356d" y="160.702362"/>
     <use style="fill:#3b4856;stroke:#3b4856;" x="646.703724" xlink:href="#m20da88356d" y="176.078307"/>
     <use style="fill:#3b4856;stroke:#3b4856;" x="652.815444" xlink:href="#m20da88356d" y="217.287994"/>
     <use style="fill:#3b4856;stroke:#3b4856;" x="661.983023" xlink:href="#m20da88356d" y="157.26344"/>
     <use style="fill:#3b4856;stroke:#3b4856;" x="665.038883" xlink:href="#m20da88356d" y="141.381947"/>
     <use style="fill:#3b4856;stroke:#3b4856;" x="671.150602" xlink:href="#m20da88356d" y="199.667079"/>
     <use style="fill:#3b4856;stroke:#3b4856;" x="674.206462" xlink:href="#m20da88356d" y="170.763385"/>
     <use style="fill:#3b4856;stroke:#3b4856;" x="686.429901" xlink:href="#m20da88356d" y="199.333869"/>
     <use style="fill:#3b4856;stroke:#3b4856;" x="692.541621" xlink:href="#m20da88356d" y="77.776364"/>
     <use style="fill:#3b4856;stroke:#3b4856;" x="698.653341" xlink:href="#m20da88356d" y="109.011489"/>
     <use style="fill:#3b4856;stroke:#3b4856;" x="704.76506" xlink:href="#m20da88356d" y="213.942877"/>
     <use style="fill:#3b4856;stroke:#3b4856;" x="710.87678" xlink:href="#m20da88356d" y="85.202064"/>
     <use style="fill:#3b4856;stroke:#3b4856;" x="713.93264" xlink:href="#m20da88356d" y="261.677421"/>
     <use style="fill:#3b4856;stroke:#3b4856;" x="716.988499" xlink:href="#m20da88356d" y="191.143752"/>
     <use style="fill:#3b4856;stroke:#3b4856;" x="720.044359" xlink:href="#m20da88356d" y="147.914998"/>
     <use style="fill:#3b4856;stroke:#3b4856;" x="723.100219" xlink:href="#m20da88356d" y="160.367755"/>
     <use style="fill:#3b4856;stroke:#3b4856;" x="726.156079" xlink:href="#m20da88356d" y="217.908328"/>
     <use style="fill:#3b4856;stroke:#3b4856;" x="729.211939" xlink:href="#m20da88356d" y="159.88375"/>
     <use style="fill:#3b4856;stroke:#3b4856;" x="732.267798" xlink:href="#m20da88356d" y="191.539991"/>
     <use style="fill:#3b4856;stroke:#3b4856;" x="735.323658" xlink:href="#m20da88356d" y="152.790931"/>
     <use style="fill:#3b4856;stroke:#3b4856;" x="738.379518" xlink:href="#m20da88356d" y="161.170739"/>
     <use style="fill:#3b4856;stroke:#3b4856;" x="741.435378" xlink:href="#m20da88356d" y="110.804591"/>
     <use style="fill:#3b4856;stroke:#3b4856;" x="744.491238" xlink:href="#m20da88356d" y="155.548907"/>
     <use style="fill:#3b4856;stroke:#3b4856;" x="747.547097" xlink:href="#m20da88356d" y="152.224183"/>
     <use style="fill:#3b4856;stroke:#3b4856;" x="753.658817" xlink:href="#m20da88356d" y="192.329421"/>
     <use style="fill:#3b4856;stroke:#3b4856;" x="759.770537" xlink:href="#m20da88356d" y="192.591"/>
     <use style="fill:#3b4856;stroke:#3b4856;" x="765.882256" xlink:href="#m20da88356d" y="223.478717"/>
     <use style="fill:#3b4856;stroke:#3b4856;" x="768.938116" xlink:href="#m20da88356d" y="244.615863"/>
     <use style="fill:#3b4856;stroke:#3b4856;" x="771.993976" xlink:href="#m20da88356d" y="211.617739"/>
     <use style="fill:#3b4856;stroke:#3b4856;" x="775.049836" xlink:href="#m20da88356d" y="160.006789"/>
     <use style="fill:#3b4856;stroke:#3b4856;" x="781.161555" xlink:href="#m20da88356d" y="128.046281"/>
     <use style="fill:#3b4856;stroke:#3b4856;" x="784.217415" xlink:href="#m20da88356d" y="103.83448"/>
     <use style="fill:#3b4856;stroke:#3b4856;" x="790.329135" xlink:href="#m20da88356d" y="162.556821"/>
     <use style="fill:#3b4856;stroke:#3b4856;" x="796.440854" xlink:href="#m20da88356d" y="239.447011"/>
     <use style="fill:#3b4856;stroke:#3b4856;" x="799.496714" xlink:href="#m20da88356d" y="180.841906"/>
     <use style="fill:#3b4856;stroke:#3b4856;" x="802.552574" xlink:href="#m20da88356d" y="183.435793"/>
     <use style="fill:#3b4856;stroke:#3b4856;" x="805.608434" xlink:href="#m20da88356d" y="222.664007"/>
     <use style="fill:#3b4856;stroke:#3b4856;" x="808.664294" xlink:href="#m20da88356d" y="231.678812"/>
     <use style="fill:#3b4856;stroke:#3b4856;" x="811.720153" xlink:href="#m20da88356d" y="168.370451"/>
     <use style="fill:#3b4856;stroke:#3b4856;" x="814.776013" xlink:href="#m20da88356d" y="141.823058"/>
     <use style="fill:#3b4856;stroke:#3b4856;" x="817.831873" xlink:href="#m20da88356d" y="138.724813"/>
     <use style="fill:#3b4856;stroke:#3b4856;" x="823.943593" xlink:href="#m20da88356d" y="216.567911"/>
     <use style="fill:#3b4856;stroke:#3b4856;" x="826.999452" xlink:href="#m20da88356d" y="225.208918"/>
     <use style="fill:#3b4856;stroke:#3b4856;" x="830.055312" xlink:href="#m20da88356d" y="254.897206"/>
     <use style="fill:#3b4856;stroke:#3b4856;" x="833.111172" xlink:href="#m20da88356d" y="246.232401"/>
     <use style="fill:#3b4856;stroke:#3b4856;" x="836.167032" xlink:href="#m20da88356d" y="266.033613"/>
     <use style="fill:#3b4856;stroke:#3b4856;" x="839.222892" xlink:href="#m20da88356d" y="335.729836"/>
     <use style="fill:#3b4856;stroke:#3b4856;" x="857.55805" xlink:href="#m20da88356d" y="238.759258"/>
     <use style="fill:#3b4856;stroke:#3b4856;" x="860.61391" xlink:href="#m20da88356d" y="176.402865"/>
     <use style="fill:#3b4856;stroke:#3b4856;" x="866.72563" xlink:href="#m20da88356d" y="258.399959"/>
     <use style="fill:#3b4856;stroke:#3b4856;" x="872.837349" xlink:href="#m20da88356d" y="261.888886"/>
     <use style="fill:#3b4856;stroke:#3b4856;" x="875.893209" xlink:href="#m20da88356d" y="235.841743"/>
     <use style="fill:#3b4856;stroke:#3b4856;" x="878.949069" xlink:href="#m20da88356d" y="241.603338"/>
     <use style="fill:#3b4856;stroke:#3b4856;" x="882.004929" xlink:href="#m20da88356d" y="229.179762"/>
     <use style="fill:#3b4856;stroke:#3b4856;" x="885.060789" xlink:href="#m20da88356d" y="292.533026"/>
     <use style="fill:#3b4856;stroke:#3b4856;" x="888.116648" xlink:href="#m20da88356d" y="355.247061"/>
     <use style="fill:#3b4856;stroke:#3b4856;" x="891.172508" xlink:href="#m20da88356d" y="187.067505"/>
     <use style="fill:#3b4856;stroke:#3b4856;" x="894.228368" xlink:href="#m20da88356d" y="210.366184"/>
     <use style="fill:#3b4856;stroke:#3b4856;" x="897.284228" xlink:href="#m20da88356d" y="295.980553"/>
     <use style="fill:#3b4856;stroke:#3b4856;" x="900.340088" xlink:href="#m20da88356d" y="359.062427"/>
     <use style="fill:#3b4856;stroke:#3b4856;" x="903.395947" xlink:href="#m20da88356d" y="312.564785"/>
     <use style="fill:#3b4856;stroke:#3b4856;" x="906.451807" xlink:href="#m20da88356d" y="250.940236"/>
     <use style="fill:#3b4856;stroke:#3b4856;" x="909.507667" xlink:href="#m20da88356d" y="215.014366"/>
     <use style="fill:#3b4856;stroke:#3b4856;" x="915.619387" xlink:href="#m20da88356d" y="234.645704"/>
     <use style="fill:#3b4856;stroke:#3b4856;" x="918.675246" xlink:href="#m20da88356d" y="226.142888"/>
     <use style="fill:#3b4856;stroke:#3b4856;" x="921.731106" xlink:href="#m20da88356d" y="226.295899"/>
    </g>
   </g>
   <g id="matplotlib.axis_1">
    <g id="xtick_1">
     <g id="line2d_1">
      <path clip-path="url(#p785dfa91d4)" d="M 135 441 
L 135 60.48 
" style="fill:none;stroke:#3b4856;stroke-linecap:square;stroke-opacity:0.7;stroke-width:0.8;"/>
     </g>
     <g id="line2d_2">
      <defs>
       <path d="M 0 0 
L 0 3.5 
" id="m81f284fea1" style="stroke:#000000;stroke-width:0.8;"/>
      </defs>
      <g>
       <use style="stroke:#000000;stroke-width:0.8;" x="135" xlink:href="#m81f284fea1" y="441"/>
      </g>
     </g>
     <g id="text_1">
      <!-- −5.5 -->
      <g transform="translate(120.430312 457.118125)scale(0.12 -0.12)">
       <defs>
        <path d="M 678 2272 
L 4684 2272 
L 4684 1741 
L 678 1741 
L 678 2272 
z
" id="DejaVuSans-2212" transform="scale(0.015625)"/>
        <path d="M 691 4666 
L 3169 4666 
L 3169 4134 
L 1269 4134 
L 1269 2991 
Q 1406 3038 1543 3061 
Q 1681 3084 1819 3084 
Q 2600 3084 3056 2656 
Q 3513 2228 3513 1497 
Q 3513 744 3044 326 
Q 2575 -91 1722 -91 
Q 1428 -91 1123 -41 
Q 819 9 494 109 
L 494 744 
Q 775 591 1075 516 
Q 1375 441 1709 441 
Q 2250 441 2565 725 
Q 2881 1009 2881 1497 
Q 2881 1984 2565 2268 
Q 2250 2553 1709 2553 
Q 1456 2553 1204 2497 
Q 953 2441 691 2322 
L 691 4666 
z
" id="DejaVuSans-35" transform="scale(0.015625)"/>
        <path d="M 684 794 
L 1344 794 
L 1344 0 
L 684 0 
L 684 794 
z
" id="DejaVuSans-2e" transform="scale(0.015625)"/>
       </defs>
       <use xlink:href="#DejaVuSans-2212"/>
       <use x="83.789062" xlink:href="#DejaVuSans-35"/>
       <use x="147.412109" xlink:href="#DejaVuSans-2e"/>
       <use x="179.199219" xlink:href="#DejaVuSans-35"/>
      </g>
     </g>
    </g>
    <g id="xtick_2">
     <g id="line2d_3">
      <path clip-path="url(#p785dfa91d4)" d="M 173.045455 441 
L 173.045455 60.48 
" style="fill:none;stroke:#3b4856;stroke-linecap:square;stroke-opacity:0.7;stroke-width:0.8;"/>
     </g>
     <g id="line2d_4">
      <g>
       <use style="stroke:#000000;stroke-width:0.8;" x="173.045455" xlink:href="#m81f284fea1" y="441"/>
      </g>
     </g>
     <g id="text_2">
      <!-- −5.0 -->
      <g transform="translate(158.475767 457.118125)scale(0.12 -0.12)">
       <defs>
        <path d="M 2034 4250 
Q 1547 4250 1301 3770 
Q 1056 3291 1056 2328 
Q 1056 1369 1301 889 
Q 1547 409 2034 409 
Q 2525 409 2770 889 
Q 3016 1369 3016 2328 
Q 3016 3291 2770 3770 
Q 2525 4250 2034 4250 
z
M 2034 4750 
Q 2819 4750 3233 4129 
Q 3647 3509 3647 2328 
Q 3647 1150 3233 529 
Q 2819 -91 2034 -91 
Q 1250 -91 836 529 
Q 422 1150 422 2328 
Q 422 3509 836 4129 
Q 1250 4750 2034 4750 
z
" id="DejaVuSans-30" transform="scale(0.015625)"/>
       </defs>
       <use xlink:href="#DejaVuSans-2212"/>
       <use x="83.789062" xlink:href="#DejaVuSans-35"/>
       <use x="147.412109" xlink:href="#DejaVuSans-2e"/>
       <use x="179.199219" xlink:href="#DejaVuSans-30"/>
      </g>
     </g>
    </g>
    <g id="xtick_3">
     <g id="line2d_5">
      <path clip-path="url(#p785dfa91d4)" d="M 211.090909 441 
L 211.090909 60.48 
" style="fill:none;stroke:#3b4856;stroke-linecap:square;stroke-opacity:0.7;stroke-width:0.8;"/>
     </g>
     <g id="line2d_6">
      <g>
       <use style="stroke:#000000;stroke-width:0.8;" x="211.090909" xlink:href="#m81f284fea1" y="441"/>
      </g>
     </g>
     <g id="text_3">
      <!-- −4.5 -->
      <g transform="translate(196.521222 457.118125)scale(0.12 -0.12)">
       <defs>
        <path d="M 2419 4116 
L 825 1625 
L 2419 1625 
L 2419 4116 
z
M 2253 4666 
L 3047 4666 
L 3047 1625 
L 3713 1625 
L 3713 1100 
L 3047 1100 
L 3047 0 
L 2419 0 
L 2419 1100 
L 313 1100 
L 313 1709 
L 2253 4666 
z
" id="DejaVuSans-34" transform="scale(0.015625)"/>
       </defs>
       <use xlink:href="#DejaVuSans-2212"/>
       <use x="83.789062" xlink:href="#DejaVuSans-34"/>
       <use x="147.412109" xlink:href="#DejaVuSans-2e"/>
       <use x="179.199219" xlink:href="#DejaVuSans-35"/>
      </g>
     </g>
    </g>
    <g id="xtick_4">
     <g id="line2d_7">
      <path clip-path="url(#p785dfa91d4)" d="M 249.136364 441 
L 249.136364 60.48 
" style="fill:none;stroke:#3b4856;stroke-linecap:square;stroke-opacity:0.7;stroke-width:0.8;"/>
     </g>
     <g id="line2d_8">
      <g>
       <use style="stroke:#000000;stroke-width:0.8;" x="249.136364" xlink:href="#m81f284fea1" y="441"/>
      </g>
     </g>
     <g id="text_4">
      <!-- −4.0 -->
      <g transform="translate(234.566676 457.118125)scale(0.12 -0.12)">
       <use xlink:href="#DejaVuSans-2212"/>
       <use x="83.789062" xlink:href="#DejaVuSans-34"/>
       <use x="147.412109" xlink:href="#DejaVuSans-2e"/>
       <use x="179.199219" xlink:href="#DejaVuSans-30"/>
      </g>
     </g>
    </g>
    <g id="xtick_5">
     <g id="line2d_9">
      <path clip-path="url(#p785dfa91d4)" d="M 287.181818 441 
L 287.181818 60.48 
" style="fill:none;stroke:#3b4856;stroke-linecap:square;stroke-opacity:0.7;stroke-width:0.8;"/>
     </g>
     <g id="line2d_10">
      <g>
       <use style="stroke:#000000;stroke-width:0.8;" x="287.181818" xlink:href="#m81f284fea1" y="441"/>
      </g>
     </g>
     <g id="text_5">
      <!-- −3.5 -->
      <g transform="translate(272.612131 457.118125)scale(0.12 -0.12)">
       <defs>
        <path d="M 2597 2516 
Q 3050 2419 3304 2112 
Q 3559 1806 3559 1356 
Q 3559 666 3084 287 
Q 2609 -91 1734 -91 
Q 1441 -91 1130 -33 
Q 819 25 488 141 
L 488 750 
Q 750 597 1062 519 
Q 1375 441 1716 441 
Q 2309 441 2620 675 
Q 2931 909 2931 1356 
Q 2931 1769 2642 2001 
Q 2353 2234 1838 2234 
L 1294 2234 
L 1294 2753 
L 1863 2753 
Q 2328 2753 2575 2939 
Q 2822 3125 2822 3475 
Q 2822 3834 2567 4026 
Q 2313 4219 1838 4219 
Q 1578 4219 1281 4162 
Q 984 4106 628 3988 
L 628 4550 
Q 988 4650 1302 4700 
Q 1616 4750 1894 4750 
Q 2613 4750 3031 4423 
Q 3450 4097 3450 3541 
Q 3450 3153 3228 2886 
Q 3006 2619 2597 2516 
z
" id="DejaVuSans-33" transform="scale(0.015625)"/>
       </defs>
       <use xlink:href="#DejaVuSans-2212"/>
       <use x="83.789062" xlink:href="#DejaVuSans-33"/>
       <use x="147.412109" xlink:href="#DejaVuSans-2e"/>
       <use x="179.199219" xlink:href="#DejaVuSans-35"/>
      </g>
     </g>
    </g>
    <g id="xtick_6">
     <g id="line2d_11">
      <path clip-path="url(#p785dfa91d4)" d="M 325.227273 441 
L 325.227273 60.48 
" style="fill:none;stroke:#3b4856;stroke-linecap:square;stroke-opacity:0.7;stroke-width:0.8;"/>
     </g>
     <g id="line2d_12">
      <g>
       <use style="stroke:#000000;stroke-width:0.8;" x="325.227273" xlink:href="#m81f284fea1" y="441"/>
      </g>
     </g>
     <g id="text_6">
      <!-- −3.0 -->
      <g transform="translate(310.657585 457.118125)scale(0.12 -0.12)">
       <use xlink:href="#DejaVuSans-2212"/>
       <use x="83.789062" xlink:href="#DejaVuSans-33"/>
       <use x="147.412109" xlink:href="#DejaVuSans-2e"/>
       <use x="179.199219" xlink:href="#DejaVuSans-30"/>
      </g>
     </g>
    </g>
    <g id="xtick_7">
     <g id="line2d_13">
      <path clip-path="url(#p785dfa91d4)" d="M 363.272727 441 
L 363.272727 60.48 
" style="fill:none;stroke:#3b4856;stroke-linecap:square;stroke-opacity:0.7;stroke-width:0.8;"/>
     </g>
     <g id="line2d_14">
      <g>
       <use style="stroke:#000000;stroke-width:0.8;" x="363.272727" xlink:href="#m81f284fea1" y="441"/>
      </g>
     </g>
     <g id="text_7">
      <!-- −2.5 -->
      <g transform="translate(348.70304 457.118125)scale(0.12 -0.12)">
       <defs>
        <path d="M 1228 531 
L 3431 531 
L 3431 0 
L 469 0 
L 469 531 
Q 828 903 1448 1529 
Q 2069 2156 2228 2338 
Q 2531 2678 2651 2914 
Q 2772 3150 2772 3378 
Q 2772 3750 2511 3984 
Q 2250 4219 1831 4219 
Q 1534 4219 1204 4116 
Q 875 4013 500 3803 
L 500 4441 
Q 881 4594 1212 4672 
Q 1544 4750 1819 4750 
Q 2544 4750 2975 4387 
Q 3406 4025 3406 3419 
Q 3406 3131 3298 2873 
Q 3191 2616 2906 2266 
Q 2828 2175 2409 1742 
Q 1991 1309 1228 531 
z
" id="DejaVuSans-32" transform="scale(0.015625)"/>
       </defs>
       <use xlink:href="#DejaVuSans-2212"/>
       <use x="83.789062" xlink:href="#DejaVuSans-32"/>
       <use x="147.412109" xlink:href="#DejaVuSans-2e"/>
       <use x="179.199219" xlink:href="#DejaVuSans-35"/>
      </g>
     </g>
    </g>
    <g id="xtick_8">
     <g id="line2d_15">
      <path clip-path="url(#p785dfa91d4)" d="M 401.318182 441 
L 401.318182 60.48 
" style="fill:none;stroke:#3b4856;stroke-linecap:square;stroke-opacity:0.7;stroke-width:0.8;"/>
     </g>
     <g id="line2d_16">
      <g>
       <use style="stroke:#000000;stroke-width:0.8;" x="401.318182" xlink:href="#m81f284fea1" y="441"/>
      </g>
     </g>
     <g id="text_8">
      <!-- −2.0 -->
      <g transform="translate(386.748494 457.118125)scale(0.12 -0.12)">
       <use xlink:href="#DejaVuSans-2212"/>
       <use x="83.789062" xlink:href="#DejaVuSans-32"/>
       <use x="147.412109" xlink:href="#DejaVuSans-2e"/>
       <use x="179.199219" xlink:href="#DejaVuSans-30"/>
      </g>
     </g>
    </g>
    <g id="xtick_9">
     <g id="line2d_17">
      <path clip-path="url(#p785dfa91d4)" d="M 439.363636 441 
L 439.363636 60.48 
" style="fill:none;stroke:#3b4856;stroke-linecap:square;stroke-opacity:0.7;stroke-width:0.8;"/>
     </g>
     <g id="line2d_18">
      <g>
       <use style="stroke:#000000;stroke-width:0.8;" x="439.363636" xlink:href="#m81f284fea1" y="441"/>
      </g>
     </g>
     <g id="text_9">
      <!-- −1.5 -->
      <g transform="translate(424.793949 457.118125)scale(0.12 -0.12)">
       <defs>
        <path d="M 794 531 
L 1825 531 
L 1825 4091 
L 703 3866 
L 703 4441 
L 1819 4666 
L 2450 4666 
L 2450 531 
L 3481 531 
L 3481 0 
L 794 0 
L 794 531 
z
" id="DejaVuSans-31" transform="scale(0.015625)"/>
       </defs>
       <use xlink:href="#DejaVuSans-2212"/>
       <use x="83.789062" xlink:href="#DejaVuSans-31"/>
       <use x="147.412109" xlink:href="#DejaVuSans-2e"/>
       <use x="179.199219" xlink:href="#DejaVuSans-35"/>
      </g>
     </g>
    </g>
    <g id="xtick_10">
     <g id="line2d_19">
      <path clip-path="url(#p785dfa91d4)" d="M 477.409091 441 
L 477.409091 60.48 
" style="fill:none;stroke:#3b4856;stroke-linecap:square;stroke-opacity:0.7;stroke-width:0.8;"/>
     </g>
     <g id="line2d_20">
      <g>
       <use style="stroke:#000000;stroke-width:0.8;" x="477.409091" xlink:href="#m81f284fea1" y="441"/>
      </g>
     </g>
     <g id="text_10">
      <!-- −1.0 -->
      <g transform="translate(462.839403 457.118125)scale(0.12 -0.12)">
       <use xlink:href="#DejaVuSans-2212"/>
       <use x="83.789062" xlink:href="#DejaVuSans-31"/>
       <use x="147.412109" xlink:href="#DejaVuSans-2e"/>
       <use x="179.199219" xlink:href="#DejaVuSans-30"/>
      </g>
     </g>
    </g>
    <g id="xtick_11">
     <g id="line2d_21">
      <path clip-path="url(#p785dfa91d4)" d="M 515.454545 441 
L 515.454545 60.48 
" style="fill:none;stroke:#3b4856;stroke-linecap:square;stroke-opacity:0.7;stroke-width:0.8;"/>
     </g>
     <g id="line2d_22">
      <g>
       <use style="stroke:#000000;stroke-width:0.8;" x="515.454545" xlink:href="#m81f284fea1" y="441"/>
      </g>
     </g>
     <g id="text_11">
      <!-- −0.5 -->
      <g transform="translate(500.884858 457.118125)scale(0.12 -0.12)">
       <use xlink:href="#DejaVuSans-2212"/>
       <use x="83.789062" xlink:href="#DejaVuSans-30"/>
       <use x="147.412109" xlink:href="#DejaVuSans-2e"/>
       <use x="179.199219" xlink:href="#DejaVuSans-35"/>
      </g>
     </g>
    </g>
    <g id="xtick_12">
     <g id="line2d_23">
      <path clip-path="url(#p785dfa91d4)" d="M 553.5 441 
L 553.5 60.48 
" style="fill:none;stroke:#3b4856;stroke-linecap:square;stroke-opacity:0.7;stroke-width:0.8;"/>
     </g>
     <g id="line2d_24">
      <g>
       <use style="stroke:#000000;stroke-width:0.8;" x="553.5" xlink:href="#m81f284fea1" y="441"/>
      </g>
     </g>
     <g id="text_12">
      <!-- 0.0 -->
      <g transform="translate(543.958125 457.118125)scale(0.12 -0.12)">
       <use xlink:href="#DejaVuSans-30"/>
       <use x="63.623047" xlink:href="#DejaVuSans-2e"/>
       <use x="95.410156" xlink:href="#DejaVuSans-30"/>
      </g>
     </g>
    </g>
    <g id="xtick_13">
     <g id="line2d_25">
      <path clip-path="url(#p785dfa91d4)" d="M 591.545455 441 
L 591.545455 60.48 
" style="fill:none;stroke:#3b4856;stroke-linecap:square;stroke-opacity:0.7;stroke-width:0.8;"/>
     </g>
     <g id="line2d_26">
      <g>
       <use style="stroke:#000000;stroke-width:0.8;" x="591.545455" xlink:href="#m81f284fea1" y="441"/>
      </g>
     </g>
     <g id="text_13">
      <!-- 0.5 -->
      <g transform="translate(582.00358 457.118125)scale(0.12 -0.12)">
       <use xlink:href="#DejaVuSans-30"/>
       <use x="63.623047" xlink:href="#DejaVuSans-2e"/>
       <use x="95.410156" xlink:href="#DejaVuSans-35"/>
      </g>
     </g>
    </g>
    <g id="xtick_14">
     <g id="line2d_27">
      <path clip-path="url(#p785dfa91d4)" d="M 629.590909 441 
L 629.590909 60.48 
" style="fill:none;stroke:#3b4856;stroke-linecap:square;stroke-opacity:0.7;stroke-width:0.8;"/>
     </g>
     <g id="line2d_28">
      <g>
       <use style="stroke:#000000;stroke-width:0.8;" x="629.590909" xlink:href="#m81f284fea1" y="441"/>
      </g>
     </g>
     <g id="text_14">
      <!-- 1.0 -->
      <g transform="translate(620.049034 457.118125)scale(0.12 -0.12)">
       <use xlink:href="#DejaVuSans-31"/>
       <use x="63.623047" xlink:href="#DejaVuSans-2e"/>
       <use x="95.410156" xlink:href="#DejaVuSans-30"/>
      </g>
     </g>
    </g>
    <g id="xtick_15">
     <g id="line2d_29">
      <path clip-path="url(#p785dfa91d4)" d="M 667.636364 441 
L 667.636364 60.48 
" style="fill:none;stroke:#3b4856;stroke-linecap:square;stroke-opacity:0.7;stroke-width:0.8;"/>
     </g>
     <g id="line2d_30">
      <g>
       <use style="stroke:#000000;stroke-width:0.8;" x="667.636364" xlink:href="#m81f284fea1" y="441"/>
      </g>
     </g>
     <g id="text_15">
      <!-- 1.5 -->
      <g transform="translate(658.094489 457.118125)scale(0.12 -0.12)">
       <use xlink:href="#DejaVuSans-31"/>
       <use x="63.623047" xlink:href="#DejaVuSans-2e"/>
       <use x="95.410156" xlink:href="#DejaVuSans-35"/>
      </g>
     </g>
    </g>
    <g id="xtick_16">
     <g id="line2d_31">
      <path clip-path="url(#p785dfa91d4)" d="M 705.681818 441 
L 705.681818 60.48 
" style="fill:none;stroke:#3b4856;stroke-linecap:square;stroke-opacity:0.7;stroke-width:0.8;"/>
     </g>
     <g id="line2d_32">
      <g>
       <use style="stroke:#000000;stroke-width:0.8;" x="705.681818" xlink:href="#m81f284fea1" y="441"/>
      </g>
     </g>
     <g id="text_16">
      <!-- 2.0 -->
      <g transform="translate(696.139943 457.118125)scale(0.12 -0.12)">
       <use xlink:href="#DejaVuSans-32"/>
       <use x="63.623047" xlink:href="#DejaVuSans-2e"/>
       <use x="95.410156" xlink:href="#DejaVuSans-30"/>
      </g>
     </g>
    </g>
    <g id="xtick_17">
     <g id="line2d_33">
      <path clip-path="url(#p785dfa91d4)" d="M 743.727273 441 
L 743.727273 60.48 
" style="fill:none;stroke:#3b4856;stroke-linecap:square;stroke-opacity:0.7;stroke-width:0.8;"/>
     </g>
     <g id="line2d_34">
      <g>
       <use style="stroke:#000000;stroke-width:0.8;" x="743.727273" xlink:href="#m81f284fea1" y="441"/>
      </g>
     </g>
     <g id="text_17">
      <!-- 2.5 -->
      <g transform="translate(734.185398 457.118125)scale(0.12 -0.12)">
       <use xlink:href="#DejaVuSans-32"/>
       <use x="63.623047" xlink:href="#DejaVuSans-2e"/>
       <use x="95.410156" xlink:href="#DejaVuSans-35"/>
      </g>
     </g>
    </g>
    <g id="xtick_18">
     <g id="line2d_35">
      <path clip-path="url(#p785dfa91d4)" d="M 781.772727 441 
L 781.772727 60.48 
" style="fill:none;stroke:#3b4856;stroke-linecap:square;stroke-opacity:0.7;stroke-width:0.8;"/>
     </g>
     <g id="line2d_36">
      <g>
       <use style="stroke:#000000;stroke-width:0.8;" x="781.772727" xlink:href="#m81f284fea1" y="441"/>
      </g>
     </g>
     <g id="text_18">
      <!-- 3.0 -->
      <g transform="translate(772.230852 457.118125)scale(0.12 -0.12)">
       <use xlink:href="#DejaVuSans-33"/>
       <use x="63.623047" xlink:href="#DejaVuSans-2e"/>
       <use x="95.410156" xlink:href="#DejaVuSans-30"/>
      </g>
     </g>
    </g>
    <g id="xtick_19">
     <g id="line2d_37">
      <path clip-path="url(#p785dfa91d4)" d="M 819.818182 441 
L 819.818182 60.48 
" style="fill:none;stroke:#3b4856;stroke-linecap:square;stroke-opacity:0.7;stroke-width:0.8;"/>
     </g>
     <g id="line2d_38">
      <g>
       <use style="stroke:#000000;stroke-width:0.8;" x="819.818182" xlink:href="#m81f284fea1" y="441"/>
      </g>
     </g>
     <g id="text_19">
      <!-- 3.5 -->
      <g transform="translate(810.276307 457.118125)scale(0.12 -0.12)">
       <use xlink:href="#DejaVuSans-33"/>
       <use x="63.623047" xlink:href="#DejaVuSans-2e"/>
       <use x="95.410156" xlink:href="#DejaVuSans-35"/>
      </g>
     </g>
    </g>
    <g id="xtick_20">
     <g id="line2d_39">
      <path clip-path="url(#p785dfa91d4)" d="M 857.863636 441 
L 857.863636 60.48 
" style="fill:none;stroke:#3b4856;stroke-linecap:square;stroke-opacity:0.7;stroke-width:0.8;"/>
     </g>
     <g id="line2d_40">
      <g>
       <use style="stroke:#000000;stroke-width:0.8;" x="857.863636" xlink:href="#m81f284fea1" y="441"/>
      </g>
     </g>
     <g id="text_20">
      <!-- 4.0 -->
      <g transform="translate(848.321761 457.118125)scale(0.12 -0.12)">
       <use xlink:href="#DejaVuSans-34"/>
       <use x="63.623047" xlink:href="#DejaVuSans-2e"/>
       <use x="95.410156" xlink:href="#DejaVuSans-30"/>
      </g>
     </g>
    </g>
    <g id="xtick_21">
     <g id="line2d_41">
      <path clip-path="url(#p785dfa91d4)" d="M 895.909091 441 
L 895.909091 60.48 
" style="fill:none;stroke:#3b4856;stroke-linecap:square;stroke-opacity:0.7;stroke-width:0.8;"/>
     </g>
     <g id="line2d_42">
      <g>
       <use style="stroke:#000000;stroke-width:0.8;" x="895.909091" xlink:href="#m81f284fea1" y="441"/>
      </g>
     </g>
     <g id="text_21">
      <!-- 4.5 -->
      <g transform="translate(886.367216 457.118125)scale(0.12 -0.12)">
       <use xlink:href="#DejaVuSans-34"/>
       <use x="63.623047" xlink:href="#DejaVuSans-2e"/>
       <use x="95.410156" xlink:href="#DejaVuSans-35"/>
      </g>
     </g>
    </g>
    <g id="xtick_22">
     <g id="line2d_43">
      <path clip-path="url(#p785dfa91d4)" d="M 933.954545 441 
L 933.954545 60.48 
" style="fill:none;stroke:#3b4856;stroke-linecap:square;stroke-opacity:0.7;stroke-width:0.8;"/>
     </g>
     <g id="line2d_44">
      <g>
       <use style="stroke:#000000;stroke-width:0.8;" x="933.954545" xlink:href="#m81f284fea1" y="441"/>
      </g>
     </g>
     <g id="text_22">
      <!-- 5.0 -->
      <g transform="translate(924.41267 457.118125)scale(0.12 -0.12)">
       <use xlink:href="#DejaVuSans-35"/>
       <use x="63.623047" xlink:href="#DejaVuSans-2e"/>
       <use x="95.410156" xlink:href="#DejaVuSans-30"/>
      </g>
     </g>
    </g>
    <g id="xtick_23">
     <g id="line2d_45">
      <path clip-path="url(#p785dfa91d4)" d="M 154.022727 441 
L 154.022727 60.48 
" style="fill:none;stroke:#3b4856;stroke-dasharray:2.96,1.28;stroke-dashoffset:0;stroke-opacity:0.3;stroke-width:0.8;"/>
     </g>
     <g id="line2d_46">
      <defs>
       <path d="M 0 0 
L 0 2 
" id="ma76025ffe2" style="stroke:#000000;stroke-width:0.6;"/>
      </defs>
      <g>
       <use style="stroke:#000000;stroke-width:0.6;" x="154.022727" xlink:href="#ma76025ffe2" y="441"/>
      </g>
     </g>
    </g>
    <g id="xtick_24">
     <g id="line2d_47">
      <path clip-path="url(#p785dfa91d4)" d="M 192.068182 441 
L 192.068182 60.48 
" style="fill:none;stroke:#3b4856;stroke-dasharray:2.96,1.28;stroke-dashoffset:0;stroke-opacity:0.3;stroke-width:0.8;"/>
     </g>
     <g id="line2d_48">
      <g>
       <use style="stroke:#000000;stroke-width:0.6;" x="192.068182" xlink:href="#ma76025ffe2" y="441"/>
      </g>
     </g>
    </g>
    <g id="xtick_25">
     <g id="line2d_49">
      <path clip-path="url(#p785dfa91d4)" d="M 230.113636 441 
L 230.113636 60.48 
" style="fill:none;stroke:#3b4856;stroke-dasharray:2.96,1.28;stroke-dashoffset:0;stroke-opacity:0.3;stroke-width:0.8;"/>
     </g>
     <g id="line2d_50">
      <g>
       <use style="stroke:#000000;stroke-width:0.6;" x="230.113636" xlink:href="#ma76025ffe2" y="441"/>
      </g>
     </g>
    </g>
    <g id="xtick_26">
     <g id="line2d_51">
      <path clip-path="url(#p785dfa91d4)" d="M 268.159091 441 
L 268.159091 60.48 
" style="fill:none;stroke:#3b4856;stroke-dasharray:2.96,1.28;stroke-dashoffset:0;stroke-opacity:0.3;stroke-width:0.8;"/>
     </g>
     <g id="line2d_52">
      <g>
       <use style="stroke:#000000;stroke-width:0.6;" x="268.159091" xlink:href="#ma76025ffe2" y="441"/>
      </g>
     </g>
    </g>
    <g id="xtick_27">
     <g id="line2d_53">
      <path clip-path="url(#p785dfa91d4)" d="M 306.204545 441 
L 306.204545 60.48 
" style="fill:none;stroke:#3b4856;stroke-dasharray:2.96,1.28;stroke-dashoffset:0;stroke-opacity:0.3;stroke-width:0.8;"/>
     </g>
     <g id="line2d_54">
      <g>
       <use style="stroke:#000000;stroke-width:0.6;" x="306.204545" xlink:href="#ma76025ffe2" y="441"/>
      </g>
     </g>
    </g>
    <g id="xtick_28">
     <g id="line2d_55">
      <path clip-path="url(#p785dfa91d4)" d="M 344.25 441 
L 344.25 60.48 
" style="fill:none;stroke:#3b4856;stroke-dasharray:2.96,1.28;stroke-dashoffset:0;stroke-opacity:0.3;stroke-width:0.8;"/>
     </g>
     <g id="line2d_56">
      <g>
       <use style="stroke:#000000;stroke-width:0.6;" x="344.25" xlink:href="#ma76025ffe2" y="441"/>
      </g>
     </g>
    </g>
    <g id="xtick_29">
     <g id="line2d_57">
      <path clip-path="url(#p785dfa91d4)" d="M 382.295455 441 
L 382.295455 60.48 
" style="fill:none;stroke:#3b4856;stroke-dasharray:2.96,1.28;stroke-dashoffset:0;stroke-opacity:0.3;stroke-width:0.8;"/>
     </g>
     <g id="line2d_58">
      <g>
       <use style="stroke:#000000;stroke-width:0.6;" x="382.295455" xlink:href="#ma76025ffe2" y="441"/>
      </g>
     </g>
    </g>
    <g id="xtick_30">
     <g id="line2d_59">
      <path clip-path="url(#p785dfa91d4)" d="M 420.340909 441 
L 420.340909 60.48 
" style="fill:none;stroke:#3b4856;stroke-dasharray:2.96,1.28;stroke-dashoffset:0;stroke-opacity:0.3;stroke-width:0.8;"/>
     </g>
     <g id="line2d_60">
      <g>
       <use style="stroke:#000000;stroke-width:0.6;" x="420.340909" xlink:href="#ma76025ffe2" y="441"/>
      </g>
     </g>
    </g>
    <g id="xtick_31">
     <g id="line2d_61">
      <path clip-path="url(#p785dfa91d4)" d="M 458.386364 441 
L 458.386364 60.48 
" style="fill:none;stroke:#3b4856;stroke-dasharray:2.96,1.28;stroke-dashoffset:0;stroke-opacity:0.3;stroke-width:0.8;"/>
     </g>
     <g id="line2d_62">
      <g>
       <use style="stroke:#000000;stroke-width:0.6;" x="458.386364" xlink:href="#ma76025ffe2" y="441"/>
      </g>
     </g>
    </g>
    <g id="xtick_32">
     <g id="line2d_63">
      <path clip-path="url(#p785dfa91d4)" d="M 496.431818 441 
L 496.431818 60.48 
" style="fill:none;stroke:#3b4856;stroke-dasharray:2.96,1.28;stroke-dashoffset:0;stroke-opacity:0.3;stroke-width:0.8;"/>
     </g>
     <g id="line2d_64">
      <g>
       <use style="stroke:#000000;stroke-width:0.6;" x="496.431818" xlink:href="#ma76025ffe2" y="441"/>
      </g>
     </g>
    </g>
    <g id="xtick_33">
     <g id="line2d_65">
      <path clip-path="url(#p785dfa91d4)" d="M 534.477273 441 
L 534.477273 60.48 
" style="fill:none;stroke:#3b4856;stroke-dasharray:2.96,1.28;stroke-dashoffset:0;stroke-opacity:0.3;stroke-width:0.8;"/>
     </g>
     <g id="line2d_66">
      <g>
       <use style="stroke:#000000;stroke-width:0.6;" x="534.477273" xlink:href="#ma76025ffe2" y="441"/>
      </g>
     </g>
    </g>
    <g id="xtick_34">
     <g id="line2d_67">
      <path clip-path="url(#p785dfa91d4)" d="M 572.522727 441 
L 572.522727 60.48 
" style="fill:none;stroke:#3b4856;stroke-dasharray:2.96,1.28;stroke-dashoffset:0;stroke-opacity:0.3;stroke-width:0.8;"/>
     </g>
     <g id="line2d_68">
      <g>
       <use style="stroke:#000000;stroke-width:0.6;" x="572.522727" xlink:href="#ma76025ffe2" y="441"/>
      </g>
     </g>
    </g>
    <g id="xtick_35">
     <g id="line2d_69">
      <path clip-path="url(#p785dfa91d4)" d="M 610.568182 441 
L 610.568182 60.48 
" style="fill:none;stroke:#3b4856;stroke-dasharray:2.96,1.28;stroke-dashoffset:0;stroke-opacity:0.3;stroke-width:0.8;"/>
     </g>
     <g id="line2d_70">
      <g>
       <use style="stroke:#000000;stroke-width:0.6;" x="610.568182" xlink:href="#ma76025ffe2" y="441"/>
      </g>
     </g>
    </g>
    <g id="xtick_36">
     <g id="line2d_71">
      <path clip-path="url(#p785dfa91d4)" d="M 648.613636 441 
L 648.613636 60.48 
" style="fill:none;stroke:#3b4856;stroke-dasharray:2.96,1.28;stroke-dashoffset:0;stroke-opacity:0.3;stroke-width:0.8;"/>
     </g>
     <g id="line2d_72">
      <g>
       <use style="stroke:#000000;stroke-width:0.6;" x="648.613636" xlink:href="#ma76025ffe2" y="441"/>
      </g>
     </g>
    </g>
    <g id="xtick_37">
     <g id="line2d_73">
      <path clip-path="url(#p785dfa91d4)" d="M 686.659091 441 
L 686.659091 60.48 
" style="fill:none;stroke:#3b4856;stroke-dasharray:2.96,1.28;stroke-dashoffset:0;stroke-opacity:0.3;stroke-width:0.8;"/>
     </g>
     <g id="line2d_74">
      <g>
       <use style="stroke:#000000;stroke-width:0.6;" x="686.659091" xlink:href="#ma76025ffe2" y="441"/>
      </g>
     </g>
    </g>
    <g id="xtick_38">
     <g id="line2d_75">
      <path clip-path="url(#p785dfa91d4)" d="M 724.704545 441 
L 724.704545 60.48 
" style="fill:none;stroke:#3b4856;stroke-dasharray:2.96,1.28;stroke-dashoffset:0;stroke-opacity:0.3;stroke-width:0.8;"/>
     </g>
     <g id="line2d_76">
      <g>
       <use style="stroke:#000000;stroke-width:0.6;" x="724.704545" xlink:href="#ma76025ffe2" y="441"/>
      </g>
     </g>
    </g>
    <g id="xtick_39">
     <g id="line2d_77">
      <path clip-path="url(#p785dfa91d4)" d="M 762.75 441 
L 762.75 60.48 
" style="fill:none;stroke:#3b4856;stroke-dasharray:2.96,1.28;stroke-dashoffset:0;stroke-opacity:0.3;stroke-width:0.8;"/>
     </g>
     <g id="line2d_78">
      <g>
       <use style="stroke:#000000;stroke-width:0.6;" x="762.75" xlink:href="#ma76025ffe2" y="441"/>
      </g>
     </g>
    </g>
    <g id="xtick_40">
     <g id="line2d_79">
      <path clip-path="url(#p785dfa91d4)" d="M 800.795455 441 
L 800.795455 60.48 
" style="fill:none;stroke:#3b4856;stroke-dasharray:2.96,1.28;stroke-dashoffset:0;stroke-opacity:0.3;stroke-width:0.8;"/>
     </g>
     <g id="line2d_80">
      <g>
       <use style="stroke:#000000;stroke-width:0.6;" x="800.795455" xlink:href="#ma76025ffe2" y="441"/>
      </g>
     </g>
    </g>
    <g id="xtick_41">
     <g id="line2d_81">
      <path clip-path="url(#p785dfa91d4)" d="M 838.840909 441 
L 838.840909 60.48 
" style="fill:none;stroke:#3b4856;stroke-dasharray:2.96,1.28;stroke-dashoffset:0;stroke-opacity:0.3;stroke-width:0.8;"/>
     </g>
     <g id="line2d_82">
      <g>
       <use style="stroke:#000000;stroke-width:0.6;" x="838.840909" xlink:href="#ma76025ffe2" y="441"/>
      </g>
     </g>
    </g>
    <g id="xtick_42">
     <g id="line2d_83">
      <path clip-path="url(#p785dfa91d4)" d="M 876.886364 441 
L 876.886364 60.48 
" style="fill:none;stroke:#3b4856;stroke-dasharray:2.96,1.28;stroke-dashoffset:0;stroke-opacity:0.3;stroke-width:0.8;"/>
     </g>
     <g id="line2d_84">
      <g>
       <use style="stroke:#000000;stroke-width:0.6;" x="876.886364" xlink:href="#ma76025ffe2" y="441"/>
      </g>
     </g>
    </g>
    <g id="xtick_43">
     <g id="line2d_85">
      <path clip-path="url(#p785dfa91d4)" d="M 914.931818 441 
L 914.931818 60.48 
" style="fill:none;stroke:#3b4856;stroke-dasharray:2.96,1.28;stroke-dashoffset:0;stroke-opacity:0.3;stroke-width:0.8;"/>
     </g>
     <g id="line2d_86">
      <g>
       <use style="stroke:#000000;stroke-width:0.6;" x="914.931818" xlink:href="#ma76025ffe2" y="441"/>
      </g>
     </g>
    </g>
    <g id="xtick_44">
     <g id="line2d_87">
      <path clip-path="url(#p785dfa91d4)" d="M 952.977273 441 
L 952.977273 60.48 
" style="fill:none;stroke:#3b4856;stroke-dasharray:2.96,1.28;stroke-dashoffset:0;stroke-opacity:0.3;stroke-width:0.8;"/>
     </g>
     <g id="line2d_88">
      <g>
       <use style="stroke:#000000;stroke-width:0.6;" x="952.977273" xlink:href="#ma76025ffe2" y="441"/>
      </g>
     </g>
    </g>
   </g>
   <g id="matplotlib.axis_2">
    <g id="ytick_1">
     <g id="line2d_89">
      <path clip-path="url(#p785dfa91d4)" d="M 135 412.264152 
L 972 412.264152 
" style="fill:none;stroke:#3b4856;stroke-linecap:square;stroke-opacity:0.7;stroke-width:0.8;"/>
     </g>
     <g id="line2d_90">
      <defs>
       <path d="M 0 0 
L -3.5 0 
" id="m237aa5878e" style="stroke:#000000;stroke-width:0.8;"/>
      </defs>
      <g>
       <use style="stroke:#000000;stroke-width:0.8;" x="135" xlink:href="#m237aa5878e" y="412.264152"/>
      </g>
     </g>
     <g id="text_23">
      <!-- −2.0 -->
      <g transform="translate(98.860625 416.823215)scale(0.12 -0.12)">
       <use xlink:href="#DejaVuSans-2212"/>
       <use x="83.789062" xlink:href="#DejaVuSans-32"/>
       <use x="147.412109" xlink:href="#DejaVuSans-2e"/>
       <use x="179.199219" xlink:href="#DejaVuSans-30"/>
      </g>
     </g>
    </g>
    <g id="ytick_2">
     <g id="line2d_91">
      <path clip-path="url(#p785dfa91d4)" d="M 135 369.676682 
L 972 369.676682 
" style="fill:none;stroke:#3b4856;stroke-linecap:square;stroke-opacity:0.7;stroke-width:0.8;"/>
     </g>
     <g id="line2d_92">
      <g>
       <use style="stroke:#000000;stroke-width:0.8;" x="135" xlink:href="#m237aa5878e" y="369.676682"/>
      </g>
     </g>
     <g id="text_24">
      <!-- −1.5 -->
      <g transform="translate(98.860625 374.235744)scale(0.12 -0.12)">
       <use xlink:href="#DejaVuSans-2212"/>
       <use x="83.789062" xlink:href="#DejaVuSans-31"/>
       <use x="147.412109" xlink:href="#DejaVuSans-2e"/>
       <use x="179.199219" xlink:href="#DejaVuSans-35"/>
      </g>
     </g>
    </g>
    <g id="ytick_3">
     <g id="line2d_93">
      <path clip-path="url(#p785dfa91d4)" d="M 135 327.089211 
L 972 327.089211 
" style="fill:none;stroke:#3b4856;stroke-linecap:square;stroke-opacity:0.7;stroke-width:0.8;"/>
     </g>
     <g id="line2d_94">
      <g>
       <use style="stroke:#000000;stroke-width:0.8;" x="135" xlink:href="#m237aa5878e" y="327.089211"/>
      </g>
     </g>
     <g id="text_25">
      <!-- −1.0 -->
      <g transform="translate(98.860625 331.648274)scale(0.12 -0.12)">
       <use xlink:href="#DejaVuSans-2212"/>
       <use x="83.789062" xlink:href="#DejaVuSans-31"/>
       <use x="147.412109" xlink:href="#DejaVuSans-2e"/>
       <use x="179.199219" xlink:href="#DejaVuSans-30"/>
      </g>
     </g>
    </g>
    <g id="ytick_4">
     <g id="line2d_95">
      <path clip-path="url(#p785dfa91d4)" d="M 135 284.501741 
L 972 284.501741 
" style="fill:none;stroke:#3b4856;stroke-linecap:square;stroke-opacity:0.7;stroke-width:0.8;"/>
     </g>
     <g id="line2d_96">
      <g>
       <use style="stroke:#000000;stroke-width:0.8;" x="135" xlink:href="#m237aa5878e" y="284.501741"/>
      </g>
     </g>
     <g id="text_26">
      <!-- −0.5 -->
      <g transform="translate(98.860625 289.060804)scale(0.12 -0.12)">
       <use xlink:href="#DejaVuSans-2212"/>
       <use x="83.789062" xlink:href="#DejaVuSans-30"/>
       <use x="147.412109" xlink:href="#DejaVuSans-2e"/>
       <use x="179.199219" xlink:href="#DejaVuSans-35"/>
      </g>
     </g>
    </g>
    <g id="ytick_5">
     <g id="line2d_97">
      <path clip-path="url(#p785dfa91d4)" d="M 135 241.914271 
L 972 241.914271 
" style="fill:none;stroke:#3b4856;stroke-linecap:square;stroke-opacity:0.7;stroke-width:0.8;"/>
     </g>
     <g id="line2d_98">
      <g>
       <use style="stroke:#000000;stroke-width:0.8;" x="135" xlink:href="#m237aa5878e" y="241.914271"/>
      </g>
     </g>
     <g id="text_27">
      <!-- 0.0 -->
      <g transform="translate(108.91625 246.473333)scale(0.12 -0.12)">
       <use xlink:href="#DejaVuSans-30"/>
       <use x="63.623047" xlink:href="#DejaVuSans-2e"/>
       <use x="95.410156" xlink:href="#DejaVuSans-30"/>
      </g>
     </g>
    </g>
    <g id="ytick_6">
     <g id="line2d_99">
      <path clip-path="url(#p785dfa91d4)" d="M 135 199.3268 
L 972 199.3268 
" style="fill:none;stroke:#3b4856;stroke-linecap:square;stroke-opacity:0.7;stroke-width:0.8;"/>
     </g>
     <g id="line2d_100">
      <g>
       <use style="stroke:#000000;stroke-width:0.8;" x="135" xlink:href="#m237aa5878e" y="199.3268"/>
      </g>
     </g>
     <g id="text_28">
      <!-- 0.5 -->
      <g transform="translate(108.91625 203.885863)scale(0.12 -0.12)">
       <use xlink:href="#DejaVuSans-30"/>
       <use x="63.623047" xlink:href="#DejaVuSans-2e"/>
       <use x="95.410156" xlink:href="#DejaVuSans-35"/>
      </g>
     </g>
    </g>
    <g id="ytick_7">
     <g id="line2d_101">
      <path clip-path="url(#p785dfa91d4)" d="M 135 156.73933 
L 972 156.73933 
" style="fill:none;stroke:#3b4856;stroke-linecap:square;stroke-opacity:0.7;stroke-width:0.8;"/>
     </g>
     <g id="line2d_102">
      <g>
       <use style="stroke:#000000;stroke-width:0.8;" x="135" xlink:href="#m237aa5878e" y="156.73933"/>
      </g>
     </g>
     <g id="text_29">
      <!-- 1.0 -->
      <g transform="translate(108.91625 161.298393)scale(0.12 -0.12)">
       <use xlink:href="#DejaVuSans-31"/>
       <use x="63.623047" xlink:href="#DejaVuSans-2e"/>
       <use x="95.410156" xlink:href="#DejaVuSans-30"/>
      </g>
     </g>
    </g>
    <g id="ytick_8">
     <g id="line2d_103">
      <path clip-path="url(#p785dfa91d4)" d="M 135 114.15186 
L 972 114.15186 
" style="fill:none;stroke:#3b4856;stroke-linecap:square;stroke-opacity:0.7;stroke-width:0.8;"/>
     </g>
     <g id="line2d_104">
      <g>
       <use style="stroke:#000000;stroke-width:0.8;" x="135" xlink:href="#m237aa5878e" y="114.15186"/>
      </g>
     </g>
     <g id="text_30">
      <!-- 1.5 -->
      <g transform="translate(108.91625 118.710922)scale(0.12 -0.12)">
       <use xlink:href="#DejaVuSans-31"/>
       <use x="63.623047" xlink:href="#DejaVuSans-2e"/>
       <use x="95.410156" xlink:href="#DejaVuSans-35"/>
      </g>
     </g>
    </g>
    <g id="ytick_9">
     <g id="line2d_105">
      <path clip-path="url(#p785dfa91d4)" d="M 135 71.564389 
L 972 71.564389 
" style="fill:none;stroke:#3b4856;stroke-linecap:square;stroke-opacity:0.7;stroke-width:0.8;"/>
     </g>
     <g id="line2d_106">
      <g>
       <use style="stroke:#000000;stroke-width:0.8;" x="135" xlink:href="#m237aa5878e" y="71.564389"/>
      </g>
     </g>
     <g id="text_31">
      <!-- 2.0 -->
      <g transform="translate(108.91625 76.123452)scale(0.12 -0.12)">
       <use xlink:href="#DejaVuSans-32"/>
       <use x="63.623047" xlink:href="#DejaVuSans-2e"/>
       <use x="95.410156" xlink:href="#DejaVuSans-30"/>
      </g>
     </g>
    </g>
    <g id="ytick_10">
     <g id="line2d_107">
      <path clip-path="url(#p785dfa91d4)" d="M 135 433.557887 
L 972 433.557887 
" style="fill:none;stroke:#3b4856;stroke-dasharray:2.96,1.28;stroke-dashoffset:0;stroke-opacity:0.3;stroke-width:0.8;"/>
     </g>
     <g id="line2d_108">
      <defs>
       <path d="M 0 0 
L -2 0 
" id="mf68063044c" style="stroke:#000000;stroke-width:0.6;"/>
      </defs>
      <g>
       <use style="stroke:#000000;stroke-width:0.6;" x="135" xlink:href="#mf68063044c" y="433.557887"/>
      </g>
     </g>
    </g>
    <g id="ytick_11">
     <g id="line2d_109">
      <path clip-path="url(#p785dfa91d4)" d="M 135 390.970417 
L 972 390.970417 
" style="fill:none;stroke:#3b4856;stroke-dasharray:2.96,1.28;stroke-dashoffset:0;stroke-opacity:0.3;stroke-width:0.8;"/>
     </g>
     <g id="line2d_110">
      <g>
       <use style="stroke:#000000;stroke-width:0.6;" x="135" xlink:href="#mf68063044c" y="390.970417"/>
      </g>
     </g>
    </g>
    <g id="ytick_12">
     <g id="line2d_111">
      <path clip-path="url(#p785dfa91d4)" d="M 135 348.382947 
L 972 348.382947 
" style="fill:none;stroke:#3b4856;stroke-dasharray:2.96,1.28;stroke-dashoffset:0;stroke-opacity:0.3;stroke-width:0.8;"/>
     </g>
     <g id="line2d_112">
      <g>
       <use style="stroke:#000000;stroke-width:0.6;" x="135" xlink:href="#mf68063044c" y="348.382947"/>
      </g>
     </g>
    </g>
    <g id="ytick_13">
     <g id="line2d_113">
      <path clip-path="url(#p785dfa91d4)" d="M 135 305.795476 
L 972 305.795476 
" style="fill:none;stroke:#3b4856;stroke-dasharray:2.96,1.28;stroke-dashoffset:0;stroke-opacity:0.3;stroke-width:0.8;"/>
     </g>
     <g id="line2d_114">
      <g>
       <use style="stroke:#000000;stroke-width:0.6;" x="135" xlink:href="#mf68063044c" y="305.795476"/>
      </g>
     </g>
    </g>
    <g id="ytick_14">
     <g id="line2d_115">
      <path clip-path="url(#p785dfa91d4)" d="M 135 263.208006 
L 972 263.208006 
" style="fill:none;stroke:#3b4856;stroke-dasharray:2.96,1.28;stroke-dashoffset:0;stroke-opacity:0.3;stroke-width:0.8;"/>
     </g>
     <g id="line2d_116">
      <g>
       <use style="stroke:#000000;stroke-width:0.6;" x="135" xlink:href="#mf68063044c" y="263.208006"/>
      </g>
     </g>
    </g>
    <g id="ytick_15">
     <g id="line2d_117">
      <path clip-path="url(#p785dfa91d4)" d="M 135 220.620536 
L 972 220.620536 
" style="fill:none;stroke:#3b4856;stroke-dasharray:2.96,1.28;stroke-dashoffset:0;stroke-opacity:0.3;stroke-width:0.8;"/>
     </g>
     <g id="line2d_118">
      <g>
       <use style="stroke:#000000;stroke-width:0.6;" x="135" xlink:href="#mf68063044c" y="220.620536"/>
      </g>
     </g>
    </g>
    <g id="ytick_16">
     <g id="line2d_119">
      <path clip-path="url(#p785dfa91d4)" d="M 135 178.033065 
L 972 178.033065 
" style="fill:none;stroke:#3b4856;stroke-dasharray:2.96,1.28;stroke-dashoffset:0;stroke-opacity:0.3;stroke-width:0.8;"/>
     </g>
     <g id="line2d_120">
      <g>
       <use style="stroke:#000000;stroke-width:0.6;" x="135" xlink:href="#mf68063044c" y="178.033065"/>
      </g>
     </g>
    </g>
    <g id="ytick_17">
     <g id="line2d_121">
      <path clip-path="url(#p785dfa91d4)" d="M 135 135.445595 
L 972 135.445595 
" style="fill:none;stroke:#3b4856;stroke-dasharray:2.96,1.28;stroke-dashoffset:0;stroke-opacity:0.3;stroke-width:0.8;"/>
     </g>
     <g id="line2d_122">
      <g>
       <use style="stroke:#000000;stroke-width:0.6;" x="135" xlink:href="#mf68063044c" y="135.445595"/>
      </g>
     </g>
    </g>
    <g id="ytick_18">
     <g id="line2d_123">
      <path clip-path="url(#p785dfa91d4)" d="M 135 92.858125 
L 972 92.858125 
" style="fill:none;stroke:#3b4856;stroke-dasharray:2.96,1.28;stroke-dashoffset:0;stroke-opacity:0.3;stroke-width:0.8;"/>
     </g>
     <g id="line2d_124">
      <g>
       <use style="stroke:#000000;stroke-width:0.6;" x="135" xlink:href="#mf68063044c" y="92.858125"/>
      </g>
     </g>
    </g>
   </g>
   <g id="line2d_125">
    <path clip-path="url(#p785dfa91d4)" d="M 173.045455 227.148407 
L 176.101314 218.890144 
L 179.157174 216.443386 
L 182.213034 224.598379 
L 185.268894 229.650345 
L 188.324754 221.076074 
L 191.380613 209.29523 
L 194.436473 208.563851 
L 197.492333 200.661513 
L 200.548193 192.282667 
L 203.604053 201.378367 
L 206.659912 224.073496 
L 209.715772 227.86169 
L 212.771632 211.167292 
L 215.827492 188.026835 
L 218.883352 176.528834 
L 221.939211 169.841122 
L 224.995071 166.021851 
L 228.050931 172.520016 
L 231.106791 190.363865 
L 234.162651 218.556011 
L 237.21851 238.821948 
L 240.27437 233.455755 
L 243.33023 219.037733 
L 246.38609 215.432084 
L 249.44195 220.358967 
L 252.497809 242.063746 
L 255.553669 262.247858 
L 258.609529 272.181252 
L 261.665389 269.978237 
L 264.721249 261.947281 
L 267.777108 242.545872 
L 270.832968 234.79745 
L 276.944688 234.79745 
L 280.000548 200.334916 
L 283.056407 204.851038 
L 286.112267 221.768881 
L 289.168127 246.611703 
L 292.223987 273.603463 
L 295.279847 271.240405 
L 298.335706 269.458487 
L 301.391566 277.93385 
L 304.447426 300.376795 
L 307.503286 318.376793 
L 310.559146 318.955885 
L 313.615005 291.628236 
L 316.670865 275.145553 
L 319.726725 248.184114 
L 322.782585 259.853868 
L 325.838445 291.347089 
L 328.894304 333.490634 
L 331.950164 364.161288 
L 335.006024 388.063736 
L 338.061884 364.772959 
L 341.117744 329.685787 
L 344.173604 321.425142 
L 347.229463 329.917792 
L 350.285323 332.14644 
L 356.397043 297.493948 
L 359.452903 290.661869 
L 362.508762 289.748985 
L 365.564622 282.523115 
L 368.620482 323.099532 
L 371.676342 365.549504 
L 374.732202 364.028036 
L 377.788061 352.751704 
L 380.843921 346.892458 
L 383.899781 350.059574 
L 386.955641 358.812256 
L 390.011501 355.244724 
L 393.06736 352.630804 
L 396.12322 341.194356 
L 399.17908 328.969095 
L 402.23494 333.463856 
L 405.2908 344.187592 
L 408.346659 338.61287 
L 411.402519 324.996055 
L 414.458379 320.566162 
L 417.514239 325.785352 
L 420.570099 329.354614 
L 423.625958 324.380289 
L 426.681818 310.888853 
L 429.737678 306.20052 
L 432.793538 297.995469 
L 435.849398 306.121533 
L 438.905257 318.228699 
L 441.961117 332.820567 
L 445.016977 317.902639 
L 448.072837 293.655976 
L 451.128697 291.089229 
L 454.184556 304.393296 
L 457.240416 316.129099 
L 460.296276 371.968786 
L 463.352136 381.017224 
L 466.407996 356.769964 
L 469.463855 316.629328 
L 472.519715 297.546715 
L 475.575575 270.946173 
L 478.631435 250.708744 
L 481.687295 245.711337 
L 484.743154 275.962197 
L 487.799014 307.93682 
L 490.854874 328.943259 
L 493.910734 303.121934 
L 496.966594 271.469651 
L 500.022453 274.851732 
L 503.078313 290.355967 
L 506.134173 287.981588 
L 512.245893 311.395499 
L 515.301752 305.682603 
L 518.357612 302.380617 
L 521.413472 305.281232 
L 524.469332 305.070181 
L 527.525192 276.856754 
L 530.581051 245.215251 
L 533.636911 237.688673 
L 536.692771 240.062249 
L 539.748631 236.852826 
L 542.804491 225.544792 
L 545.86035 220.211894 
L 548.91621 238.024709 
L 551.97207 225.644379 
L 555.02793 226.533108 
L 558.08379 217.917874 
L 561.13965 216.751018 
L 564.195509 208.931407 
L 567.251369 206.158075 
L 570.307229 198.749244 
L 573.363089 203.436694 
L 576.418949 203.436694 
L 579.474808 196.829765 
L 582.530668 176.884029 
L 585.586528 167.047445 
L 588.642388 170.25766 
L 591.698248 184.628941 
L 594.754107 182.087785 
L 597.809967 195.86399 
L 600.865827 216.681982 
L 603.921687 230.400284 
L 606.977547 230.400284 
M 619.200986 176.021587 
L 622.256846 176.021587 
L 625.312705 181.453107 
L 628.368565 181.813654 
L 631.424425 174.612744 
L 634.480285 152.248663 
L 637.536145 148.58983 
L 640.592004 156.644916 
L 646.703724 179.726299 
L 649.759584 196.683151 
L 652.815444 210.511905 
L 655.871303 202.433433 
L 658.927163 166.020566 
L 661.983023 151.317856 
L 665.038883 153.064976 
L 668.094743 168.91318 
L 671.150602 183.643316 
L 674.206462 181.584115 
L 677.262322 177.91632 
L 680.318182 185.048627 
L 683.374042 199.333869 
L 686.429901 179.346225 
L 689.485761 138.555116 
L 692.541621 99.352268 
L 695.597481 93.393926 
L 698.653341 119.418166 
L 701.7092 161.477183 
L 704.76506 180.945938 
L 707.82092 165.402852 
L 710.87678 161.40019 
L 713.93264 190.572214 
L 716.988499 187.065094 
L 720.044359 174.737598 
L 723.100219 173.084642 
L 726.156079 183.891384 
L 729.211939 180.098649 
L 732.267798 174.971875 
L 735.323658 161.027239 
L 738.379518 149.480004 
L 741.435378 139.11211 
L 744.491238 143.993844 
L 747.547097 153.093095 
L 753.658817 186.703083 
L 756.714677 192.46021 
L 759.770537 196.915729 
L 762.826396 213.200476 
L 765.882256 225.605226 
L 768.938116 224.12593 
L 771.993976 207.93968 
L 775.049836 180.712054 
L 778.105696 147.416834 
L 781.161555 123.479182 
L 784.217415 118.342205 
L 787.273275 132.468506 
L 793.384995 198.155113 
L 796.440854 208.712475 
L 799.496714 199.580048 
L 802.552574 199.818696 
L 805.608434 208.382666 
L 808.664294 204.480375 
L 811.720153 178.734997 
L 814.776013 155.072815 
L 817.831873 150.274383 
L 820.887733 179.098946 
L 823.943593 215.260116 
L 826.999452 232.199179 
L 830.055312 243.971528 
L 833.111172 258.010168 
L 836.167032 277.591788 
L 839.222892 302.687081 
L 842.278751 318.481781 
L 845.334611 335.729836 
M 851.446331 238.759258 
L 854.502191 223.327625 
L 857.55805 215.414779 
L 860.61391 206.176825 
L 863.66977 220.417361 
L 866.72563 247.313792 
L 869.78149 256.712632 
L 872.837349 251.715552 
L 875.893209 243.246215 
L 878.949069 242.812572 
L 882.004929 256.768109 
L 885.060789 280.504173 
L 888.116648 281.325192 
L 891.172508 247.586585 
L 894.228368 247.064349 
L 897.284228 283.761245 
L 900.340088 314.238472 
L 903.395947 300.399658 
L 906.451807 266.254146 
L 909.507667 237.383037 
L 912.563527 228.223292 
L 915.619387 229.327165 
L 918.675246 228.500691 
L 921.731106 227.160198 
L 924.786966 226.258033 
L 927.842826 226.295899 
L 927.842826 226.295899 
" style="fill:none;stroke:#c81d6b;stroke-linecap:square;stroke-width:1.5;"/>
   </g>
   <g id="line2d_126">
    <path clip-path="url(#p785dfa91d4)" d="M 173.045455 213.39974 
L 176.101314 212.932975 
L 182.213034 212.557275 
L 188.324754 212.656626 
L 191.380613 212.592251 
L 203.604053 213.105776 
L 206.659912 213.51668 
L 209.715772 213.673112 
L 215.827492 213.728431 
L 218.883352 214.205636 
L 224.995071 215.937607 
L 228.050931 217.293697 
L 231.106791 218.828947 
L 234.162651 220.815919 
L 246.38609 230.180612 
L 249.44195 232.644178 
L 255.553669 238.194031 
L 258.609529 240.985956 
L 261.665389 243.594403 
L 270.832968 252.459427 
L 273.888828 255.599355 
L 280.000548 262.294579 
L 289.168127 271.644535 
L 292.223987 274.915983 
L 298.335706 280.339733 
L 304.447426 286.007362 
L 307.503286 288.679549 
L 310.559146 291.004063 
L 313.615005 293.177827 
L 319.726725 297.947519 
L 322.782585 300.658687 
L 328.894304 305.656276 
L 335.006024 310.032589 
L 338.061884 312.108911 
L 344.173604 315.232097 
L 347.229463 316.851925 
L 350.285323 318.250797 
L 356.397043 320.717167 
L 359.452903 322.030564 
L 362.508762 323.495097 
L 365.564622 324.615276 
L 371.676342 327.488771 
L 374.732202 328.338029 
L 377.788061 328.900965 
L 383.899781 329.554991 
L 386.955641 329.860435 
L 393.06736 330.060351 
L 396.12322 329.882061 
L 402.23494 328.766937 
L 405.2908 328.051117 
L 417.514239 324.07735 
L 420.570099 323.219191 
L 423.625958 322.106422 
L 426.681818 320.793998 
L 429.737678 319.719958 
L 435.849398 317.28462 
L 441.961117 314.931308 
L 448.072837 311.593488 
L 451.128697 310.314106 
L 454.184556 309.204294 
L 457.240416 307.941948 
L 463.352136 304.965821 
L 466.407996 303.48195 
L 481.687295 293.92163 
L 484.743154 292.374173 
L 490.854874 288.63339 
L 493.910734 286.778883 
L 496.966594 284.586892 
L 500.022453 282.758775 
L 503.078313 281.166632 
L 506.134173 279.118891 
L 509.190033 277.289024 
L 512.245893 275.228704 
L 518.357612 270.030682 
L 524.469332 264.369002 
L 530.581051 258.012665 
L 539.748631 249.329261 
L 542.804491 246.417914 
L 545.86035 243.776221 
L 548.91621 241.492692 
L 551.97207 238.774957 
L 555.02793 236.346765 
L 558.08379 233.633681 
L 567.251369 224.561611 
L 582.530668 208.226416 
L 588.642388 202.086909 
L 594.754107 196.887671 
L 597.809967 194.768435 
L 610.033406 187.155152 
L 613.089266 185.438988 
L 616.145126 183.875968 
L 622.256846 180.392493 
L 625.312705 178.382851 
L 631.424425 175.432124 
L 634.480285 174.090293 
L 637.536145 172.992755 
L 640.592004 172.35644 
L 646.703724 171.569255 
L 649.759584 171.080662 
L 652.815444 170.744424 
L 655.871303 170.093796 
L 674.206462 167.197552 
L 677.262322 166.596796 
L 683.374042 165.930676 
L 686.429901 165.689827 
L 689.485761 165.285226 
L 692.541621 165.034722 
L 698.653341 165.969022 
L 704.76506 167.533937 
L 713.93264 168.958496 
L 716.988499 169.111728 
L 720.044359 169.143202 
L 729.211939 169.9368 
L 735.323658 170.794694 
L 744.491238 172.387314 
L 747.547097 173.053064 
L 753.658817 174.923471 
L 756.714677 175.989988 
L 762.826396 178.52308 
L 765.882256 180.187378 
L 768.938116 181.669331 
L 771.993976 182.692913 
L 781.161555 185.320027 
L 784.217415 186.607019 
L 787.273275 188.237631 
L 790.329135 189.706054 
L 805.608434 199.185557 
L 811.720153 203.179583 
L 814.776013 205.585754 
L 820.887733 210.911032 
L 823.943593 213.696325 
L 826.999452 216.658136 
L 833.111172 222.847216 
L 836.167032 225.782402 
L 839.222892 228.495779 
L 851.446331 237.573062 
L 857.55805 241.62 
L 866.72563 246.831507 
L 875.893209 251.273936 
L 885.060789 255.239744 
L 888.116648 256.366356 
L 894.228368 257.355067 
L 897.284228 257.878395 
L 900.340088 258.218011 
L 903.395947 257.920979 
L 912.563527 255.902644 
L 915.619387 255.331333 
L 918.675246 255.08615 
L 921.731106 255.018985 
L 930.898686 255.51998 
L 933.954545 255.74058 
L 933.954545 255.74058 
" style="fill:none;stroke:#ffc100;stroke-linecap:square;stroke-width:1.5;"/>
   </g>
   <g id="line2d_127">
    <path clip-path="url(#p785dfa91d4)" d="M 173.045455 242.969586 
L 185.268894 246.61874 
L 209.715772 253.96707 
L 218.883352 256.852991 
L 267.777108 273.351268 
L 283.056407 278.001959 
L 298.335706 282.569214 
L 307.503286 285.225425 
L 316.670865 287.535137 
L 331.950164 291.022358 
L 338.061884 292.206251 
L 350.285323 294.146758 
L 359.452903 295.323551 
L 368.620482 296.274635 
L 374.732202 296.794307 
L 386.955641 297.492631 
L 396.12322 297.762671 
L 405.2908 297.735796 
L 414.458379 297.239333 
L 420.570099 296.726917 
L 429.737678 295.692537 
L 435.849398 294.874478 
L 445.016977 293.298997 
L 457.240416 290.580399 
L 466.407996 288.22838 
L 472.519715 286.366786 
L 481.687295 283.29249 
L 487.799014 281.137912 
L 493.910734 278.842587 
L 506.134173 273.717763 
L 512.245893 270.932732 
L 518.357612 267.856265 
L 527.525192 262.831302 
L 555.02793 247.082899 
L 576.418949 234.383191 
L 588.642388 227.301082 
L 600.865827 220.527211 
L 610.033406 215.748398 
L 616.145126 212.749732 
L 625.312705 208.576916 
L 634.480285 204.809142 
L 643.647864 201.503524 
L 652.815444 198.541199 
L 658.927163 196.748418 
L 665.038883 195.225624 
L 671.150602 193.964827 
L 677.262322 193.032713 
L 683.374042 192.317513 
L 692.541621 191.426452 
L 698.653341 191.099459 
L 710.87678 190.940257 
L 726.156079 191.21204 
L 732.267798 191.473821 
L 741.435378 192.128381 
L 747.547097 192.83428 
L 756.714677 194.212757 
L 778.105696 197.763365 
L 784.217415 198.891951 
L 799.496714 202.258854 
L 814.776013 205.775883 
L 823.943593 208.115369 
L 839.222892 212.016403 
L 851.446331 214.866283 
L 882.004929 222.421121 
L 888.116648 223.91725 
L 903.395947 227.137251 
L 915.619387 229.198979 
L 933.954545 232.588895 
L 933.954545 232.588895 
" style="fill:none;stroke:#348fea;stroke-linecap:square;stroke-width:1.5;"/>
   </g>
   <g id="patch_3">
    <path d="M 135 441 
L 135 60.48 
" style="fill:none;stroke:#3b4856;stroke-linecap:square;stroke-linejoin:miter;stroke-width:0.8;"/>
   </g>
   <g id="patch_4">
    <path d="M 972 441 
L 972 60.48 
" style="fill:none;stroke:#3b4856;stroke-linecap:square;stroke-linejoin:miter;stroke-width:0.8;"/>
   </g>
   <g id="patch_5">
    <path d="M 135 441 
L 972 441 
" style="fill:none;stroke:#3b4856;stroke-linecap:square;stroke-linejoin:miter;stroke-width:0.8;"/>
   </g>
   <g id="patch_6">
    <path d="M 135 60.48 
L 972 60.48 
" style="fill:none;stroke:#3b4856;stroke-linecap:square;stroke-linejoin:miter;stroke-width:0.8;"/>
   </g>
   <g id="text_32">
    <!-- Треугольное ядро $K(r) = (1 - |r|)[|r| \leq 1]$ -->
    <g transform="translate(406.548 54.48)scale(0.144 -0.144)">
     <defs>
      <path d="M -19 4666 
L 3928 4666 
L 3928 4134 
L 2272 4134 
L 2272 0 
L 1638 0 
L 1638 4134 
L -19 4134 
L -19 4666 
z
" id="DejaVuSans-422" transform="scale(0.015625)"/>
      <path d="M 1159 525 
L 1159 -1331 
L 581 -1331 
L 581 3500 
L 1159 3500 
L 1159 2969 
Q 1341 3281 1617 3432 
Q 1894 3584 2278 3584 
Q 2916 3584 3314 3078 
Q 3713 2572 3713 1747 
Q 3713 922 3314 415 
Q 2916 -91 2278 -91 
Q 1894 -91 1617 61 
Q 1341 213 1159 525 
z
M 3116 1747 
Q 3116 2381 2855 2742 
Q 2594 3103 2138 3103 
Q 1681 3103 1420 2742 
Q 1159 2381 1159 1747 
Q 1159 1113 1420 752 
Q 1681 391 2138 391 
Q 2594 391 2855 752 
Q 3116 1113 3116 1747 
z
" id="DejaVuSans-440" transform="scale(0.015625)"/>
      <path d="M 3597 1894 
L 3597 1613 
L 953 1613 
Q 991 1019 1311 708 
Q 1631 397 2203 397 
Q 2534 397 2845 478 
Q 3156 559 3463 722 
L 3463 178 
Q 3153 47 2828 -22 
Q 2503 -91 2169 -91 
Q 1331 -91 842 396 
Q 353 884 353 1716 
Q 353 2575 817 3079 
Q 1281 3584 2069 3584 
Q 2775 3584 3186 3129 
Q 3597 2675 3597 1894 
z
M 3022 2063 
Q 3016 2534 2758 2815 
Q 2500 3097 2075 3097 
Q 1594 3097 1305 2825 
Q 1016 2553 972 2059 
L 3022 2063 
z
" id="DejaVuSans-435" transform="scale(0.015625)"/>
      <path d="M 2059 -325 
Q 1816 -950 1584 -1140 
Q 1353 -1331 966 -1331 
L 506 -1331 
L 506 -850 
L 844 -850 
Q 1081 -850 1212 -737 
Q 1344 -625 1503 -206 
L 1606 56 
L 191 3500 
L 800 3500 
L 1894 763 
L 2988 3500 
L 3597 3500 
L 2059 -325 
z
" id="DejaVuSans-443" transform="scale(0.015625)"/>
      <path d="M 581 0 
L 581 3500 
L 3050 3500 
L 3050 3041 
L 1159 3041 
L 1159 0 
L 581 0 
z
" id="DejaVuSans-433" transform="scale(0.015625)"/>
      <path d="M 1959 3097 
Q 1497 3097 1228 2736 
Q 959 2375 959 1747 
Q 959 1119 1226 758 
Q 1494 397 1959 397 
Q 2419 397 2687 759 
Q 2956 1122 2956 1747 
Q 2956 2369 2687 2733 
Q 2419 3097 1959 3097 
z
M 1959 3584 
Q 2709 3584 3137 3096 
Q 3566 2609 3566 1747 
Q 3566 888 3137 398 
Q 2709 -91 1959 -91 
Q 1206 -91 779 398 
Q 353 888 353 1747 
Q 353 2609 779 3096 
Q 1206 3584 1959 3584 
z
" id="DejaVuSans-43e" transform="scale(0.015625)"/>
      <path d="M 238 0 
L 238 478 
Q 806 566 981 959 
Q 1194 1513 1194 2928 
L 1194 3500 
L 3559 3500 
L 3559 0 
L 2984 0 
L 2984 3041 
L 1769 3041 
L 1769 2694 
Q 1769 1344 1494 738 
Q 1200 91 238 0 
z
" id="DejaVuSans-43b" transform="scale(0.015625)"/>
      <path d="M 2781 1038 
Q 2781 1319 2576 1466 
Q 2372 1613 1978 1613 
L 1159 1613 
L 1159 459 
L 1978 459 
Q 2372 459 2576 607 
Q 2781 756 2781 1038 
z
M 581 3500 
L 1159 3500 
L 1159 2072 
L 2003 2072 
Q 2672 2072 3033 1817 
Q 3394 1563 3394 1038 
Q 3394 513 3033 256 
Q 2672 0 2003 0 
L 581 0 
L 581 3500 
z
" id="DejaVuSans-44c" transform="scale(0.015625)"/>
      <path d="M 581 3500 
L 1159 3500 
L 1159 2072 
L 3025 2072 
L 3025 3500 
L 3603 3500 
L 3603 0 
L 3025 0 
L 3025 1613 
L 1159 1613 
L 1159 0 
L 581 0 
L 581 3500 
z
" id="DejaVuSans-43d" transform="scale(0.015625)"/>
      <path id="DejaVuSans-20" transform="scale(0.015625)"/>
      <path d="M 1181 2491 
Q 1181 2231 1381 2084 
Q 1581 1938 1953 1938 
L 2728 1938 
L 2728 3041 
L 1953 3041 
Q 1581 3041 1381 2897 
Q 1181 2753 1181 2491 
z
M 363 0 
L 1431 1534 
Q 1069 1616 828 1830 
Q 588 2044 588 2491 
Q 588 2997 923 3248 
Q 1259 3500 1938 3500 
L 3306 3500 
L 3306 0 
L 2728 0 
L 2728 1478 
L 2013 1478 
L 981 0 
L 363 0 
z
" id="DejaVuSans-44f" transform="scale(0.015625)"/>
      <path d="M 1384 459 
L 3053 459 
L 3053 3041 
L 1844 3041 
L 1844 2603 
Q 1844 1316 1475 628 
L 1384 459 
z
M 550 459 
Q 834 584 959 850 
Q 1266 1509 1266 2838 
L 1266 3500 
L 3631 3500 
L 3631 459 
L 4091 459 
L 4091 -884 
L 3631 -884 
L 3631 0 
L 794 0 
L 794 -884 
L 334 -884 
L 334 459 
L 550 459 
z
" id="DejaVuSans-434" transform="scale(0.015625)"/>
      <path d="M 1081 4666 
L 1716 4666 
L 1331 2700 
L 3781 4666 
L 4622 4666 
L 1850 2438 
L 3878 0 
L 3109 0 
L 1247 2272 
L 806 0 
L 172 0 
L 1081 4666 
z
" id="DejaVuSans-Oblique-4b" transform="scale(0.015625)"/>
      <path d="M 1984 4856 
Q 1566 4138 1362 3434 
Q 1159 2731 1159 2009 
Q 1159 1288 1364 580 
Q 1569 -128 1984 -844 
L 1484 -844 
Q 1016 -109 783 600 
Q 550 1309 550 2009 
Q 550 2706 781 3412 
Q 1013 4119 1484 4856 
L 1984 4856 
z
" id="DejaVuSans-28" transform="scale(0.015625)"/>
      <path d="M 2853 2969 
Q 2766 3016 2653 3041 
Q 2541 3066 2413 3066 
Q 1953 3066 1609 2717 
Q 1266 2369 1153 1784 
L 800 0 
L 225 0 
L 909 3500 
L 1484 3500 
L 1375 2956 
Q 1603 3259 1920 3421 
Q 2238 3584 2597 3584 
Q 2691 3584 2781 3573 
Q 2872 3563 2963 3538 
L 2853 2969 
z
" id="DejaVuSans-Oblique-72" transform="scale(0.015625)"/>
      <path d="M 513 4856 
L 1013 4856 
Q 1481 4119 1714 3412 
Q 1947 2706 1947 2009 
Q 1947 1309 1714 600 
Q 1481 -109 1013 -844 
L 513 -844 
Q 928 -128 1133 580 
Q 1338 1288 1338 2009 
Q 1338 2731 1133 3434 
Q 928 4138 513 4856 
z
" id="DejaVuSans-29" transform="scale(0.015625)"/>
      <path d="M 678 2906 
L 4684 2906 
L 4684 2381 
L 678 2381 
L 678 2906 
z
M 678 1631 
L 4684 1631 
L 4684 1100 
L 678 1100 
L 678 1631 
z
" id="DejaVuSans-3d" transform="scale(0.015625)"/>
      <path d="M 1344 4891 
L 1344 -1509 
L 813 -1509 
L 813 4891 
L 1344 4891 
z
" id="DejaVuSans-7c" transform="scale(0.015625)"/>
      <path d="M 550 4863 
L 1875 4863 
L 1875 4416 
L 1125 4416 
L 1125 -397 
L 1875 -397 
L 1875 -844 
L 550 -844 
L 550 4863 
z
" id="DejaVuSans-5b" transform="scale(0.015625)"/>
      <path d="M 4684 3175 
L 1684 2309 
L 4684 1453 
L 4684 897 
L 678 2047 
L 678 2578 
L 4684 3725 
L 4684 3175 
z
M 678 531 
L 4684 531 
L 4684 0 
L 678 0 
L 678 531 
z
" id="DejaVuSans-2264" transform="scale(0.015625)"/>
      <path d="M 1947 4863 
L 1947 -844 
L 622 -844 
L 622 -397 
L 1369 -397 
L 1369 4416 
L 622 4416 
L 622 4863 
L 1947 4863 
z
" id="DejaVuSans-5d" transform="scale(0.015625)"/>
     </defs>
     <use transform="translate(0 0.578125)" xlink:href="#DejaVuSans-422"/>
     <use transform="translate(61.083984 0.578125)" xlink:href="#DejaVuSans-440"/>
     <use transform="translate(124.560547 0.578125)" xlink:href="#DejaVuSans-435"/>
     <use transform="translate(186.083984 0.578125)" xlink:href="#DejaVuSans-443"/>
     <use transform="translate(245.263672 0.578125)" xlink:href="#DejaVuSans-433"/>
     <use transform="translate(297.802734 0.578125)" xlink:href="#DejaVuSans-43e"/>
     <use transform="translate(358.984375 0.578125)" xlink:href="#DejaVuSans-43b"/>
     <use transform="translate(422.900391 0.578125)" xlink:href="#DejaVuSans-44c"/>
     <use transform="translate(481.835938 0.578125)" xlink:href="#DejaVuSans-43d"/>
     <use transform="translate(547.216797 0.578125)" xlink:href="#DejaVuSans-43e"/>
     <use transform="translate(608.398438 0.578125)" xlink:href="#DejaVuSans-435"/>
     <use transform="translate(669.921875 0.578125)" xlink:href="#DejaVuSans-20"/>
     <use transform="translate(701.708984 0.578125)" xlink:href="#DejaVuSans-44f"/>
     <use transform="translate(761.865234 0.578125)" xlink:href="#DejaVuSans-434"/>
     <use transform="translate(831.005859 0.578125)" xlink:href="#DejaVuSans-440"/>
     <use transform="translate(894.482422 0.578125)" xlink:href="#DejaVuSans-43e"/>
     <use transform="translate(955.664062 0.578125)" xlink:href="#DejaVuSans-20"/>
     <use transform="translate(987.451172 0.578125)" xlink:href="#DejaVuSans-Oblique-4b"/>
     <use transform="translate(1053.027344 0.578125)" xlink:href="#DejaVuSans-28"/>
     <use transform="translate(1092.041016 0.578125)" xlink:href="#DejaVuSans-Oblique-72"/>
     <use transform="translate(1133.154297 0.578125)" xlink:href="#DejaVuSans-29"/>
     <use transform="translate(1191.650391 0.578125)" xlink:href="#DejaVuSans-3d"/>
     <use transform="translate(1294.921875 0.578125)" xlink:href="#DejaVuSans-28"/>
     <use transform="translate(1333.935547 0.578125)" xlink:href="#DejaVuSans-31"/>
     <use transform="translate(1417.041016 0.578125)" xlink:href="#DejaVuSans-2212"/>
     <use transform="translate(1520.3125 0.578125)" xlink:href="#DejaVuSans-7c"/>
     <use transform="translate(1554.003906 0.578125)" xlink:href="#DejaVuSans-Oblique-72"/>
     <use transform="translate(1595.117188 0.578125)" xlink:href="#DejaVuSans-7c"/>
     <use transform="translate(1628.808594 0.578125)" xlink:href="#DejaVuSans-29"/>
     <use transform="translate(1667.822266 0.578125)" xlink:href="#DejaVuSans-5b"/>
     <use transform="translate(1706.835938 0.578125)" xlink:href="#DejaVuSans-7c"/>
     <use transform="translate(1740.527344 0.578125)" xlink:href="#DejaVuSans-Oblique-72"/>
     <use transform="translate(1781.640625 0.578125)" xlink:href="#DejaVuSans-7c"/>
     <use transform="translate(1834.814453 0.578125)" xlink:href="#DejaVuSans-2264"/>
     <use transform="translate(1938.085938 0.578125)" xlink:href="#DejaVuSans-31"/>
     <use transform="translate(2001.708984 0.578125)" xlink:href="#DejaVuSans-5d"/>
    </g>
   </g>
   <g id="legend_1">
    <g id="patch_7">
     <path d="M 880.828125 122.92125 
L 963.6 122.92125 
Q 966 122.92125 966 120.52125 
L 966 68.88 
Q 966 66.48 963.6 66.48 
L 880.828125 66.48 
Q 878.428125 66.48 878.428125 68.88 
L 878.428125 120.52125 
Q 878.428125 122.92125 880.828125 122.92125 
z
" style="fill:#ffffff;opacity:0.8;stroke:#cccccc;stroke-linejoin:miter;"/>
    </g>
    <g id="line2d_128">
     <path d="M 883.228125 76.198125 
L 907.228125 76.198125 
" style="fill:none;stroke:#c81d6b;stroke-linecap:square;stroke-width:1.5;"/>
    </g>
    <g id="line2d_129"/>
    <g id="text_33">
     <!-- h = 0.1 -->
     <g transform="translate(916.828125 80.398125)scale(0.12 -0.12)">
      <defs>
       <path d="M 3513 2113 
L 3513 0 
L 2938 0 
L 2938 2094 
Q 2938 2591 2744 2837 
Q 2550 3084 2163 3084 
Q 1697 3084 1428 2787 
Q 1159 2491 1159 1978 
L 1159 0 
L 581 0 
L 581 4863 
L 1159 4863 
L 1159 2956 
Q 1366 3272 1645 3428 
Q 1925 3584 2291 3584 
Q 2894 3584 3203 3211 
Q 3513 2838 3513 2113 
z
" id="DejaVuSans-68" transform="scale(0.015625)"/>
      </defs>
      <use xlink:href="#DejaVuSans-68"/>
      <use x="63.378906" xlink:href="#DejaVuSans-20"/>
      <use x="95.166016" xlink:href="#DejaVuSans-3d"/>
      <use x="178.955078" xlink:href="#DejaVuSans-20"/>
      <use x="210.742188" xlink:href="#DejaVuSans-30"/>
      <use x="274.365234" xlink:href="#DejaVuSans-2e"/>
      <use x="306.152344" xlink:href="#DejaVuSans-31"/>
     </g>
    </g>
    <g id="line2d_130">
     <path d="M 883.228125 93.811875 
L 907.228125 93.811875 
" style="fill:none;stroke:#ffc100;stroke-linecap:square;stroke-width:1.5;"/>
    </g>
    <g id="line2d_131"/>
    <g id="text_34">
     <!-- h = 1 -->
     <g transform="translate(916.828125 98.011875)scale(0.12 -0.12)">
      <use xlink:href="#DejaVuSans-68"/>
      <use x="63.378906" xlink:href="#DejaVuSans-20"/>
      <use x="95.166016" xlink:href="#DejaVuSans-3d"/>
      <use x="178.955078" xlink:href="#DejaVuSans-20"/>
      <use x="210.742188" xlink:href="#DejaVuSans-31"/>
     </g>
    </g>
    <g id="line2d_132">
     <path d="M 883.228125 111.425625 
L 907.228125 111.425625 
" style="fill:none;stroke:#348fea;stroke-linecap:square;stroke-width:1.5;"/>
    </g>
    <g id="line2d_133"/>
    <g id="text_35">
     <!-- h = 3 -->
     <g transform="translate(916.828125 115.625625)scale(0.12 -0.12)">
      <use xlink:href="#DejaVuSans-68"/>
      <use x="63.378906" xlink:href="#DejaVuSans-20"/>
      <use x="95.166016" xlink:href="#DejaVuSans-3d"/>
      <use x="178.955078" xlink:href="#DejaVuSans-20"/>
      <use x="210.742188" xlink:href="#DejaVuSans-33"/>
     </g>
    </g>
   </g>
  </g>
 </g>
 <defs>
  <clipPath id="p785dfa91d4">
   <rect height="380.52" width="837" x="135" y="60.48"/>
  </clipPath>
 </defs>
</svg>
