<?xml version="1.0" encoding="utf-8" standalone="no"?>
<!DOCTYPE svg PUBLIC "-//W3C//DTD SVG 1.1//EN"
  "http://www.w3.org/Graphics/SVG/1.1/DTD/svg11.dtd">
<!-- Created with matplotlib (https://matplotlib.org/) -->
<svg height="288pt" version="1.1" viewBox="0 0 864 288" width="864pt" xmlns="http://www.w3.org/2000/svg" xmlns:xlink="http://www.w3.org/1999/xlink">
 <defs>
  <style type="text/css">
*{stroke-linecap:butt;stroke-linejoin:round;}
  </style>
 </defs>
 <g id="figure_1">
  <g id="patch_1">
   <path d="M 0 288 
L 864 288 
L 864 0 
L 0 0 
z
" style="fill:#ffffff;"/>
  </g>
  <g id="axes_1">
   <g id="patch_2">
    <path d="M 108 252 
L 304.941176 252 
L 304.941176 34.56 
L 108 34.56 
z
" style="fill:#ffffff;"/>
   </g>
   <g id="PathCollection_1">
    <defs>
     <path d="M 0 3 
C 0.795609 3 1.55874 2.683901 2.12132 2.12132 
C 2.683901 1.55874 3 0.795609 3 0 
C 3 -0.795609 2.683901 -1.55874 2.12132 -2.12132 
C 1.55874 -2.683901 0.795609 -3 0 -3 
C -0.795609 -3 -1.55874 -2.683901 -2.12132 -2.12132 
C -2.683901 -1.55874 -3 -0.795609 -3 0 
C -3 0.795609 -2.683901 1.55874 -2.12132 2.12132 
C -1.55874 2.683901 -0.795609 3 0 3 
z
" id="m038d1aad41" style="stroke:#348fea;"/>
    </defs>
    <g clip-path="url(#pc55681ea69)">
     <use style="fill:#348fea;stroke:#348fea;" x="158.590977" xlink:href="#m038d1aad41" y="125.911469"/>
     <use style="fill:#348fea;stroke:#348fea;" x="191.780323" xlink:href="#m038d1aad41" y="165.167435"/>
     <use style="fill:#348fea;stroke:#348fea;" x="208.58267" xlink:href="#m038d1aad41" y="162.566505"/>
     <use style="fill:#348fea;stroke:#348fea;" x="211.326987" xlink:href="#m038d1aad41" y="161.856794"/>
     <use style="fill:#348fea;stroke:#348fea;" x="239.45673" xlink:href="#m038d1aad41" y="134.296439"/>
     <use style="fill:#348fea;stroke:#348fea;" x="255.293872" xlink:href="#m038d1aad41" y="197.470986"/>
     <use style="fill:#348fea;stroke:#348fea;" x="157.666191" xlink:href="#m038d1aad41" y="68.873716"/>
     <use style="fill:#348fea;stroke:#348fea;" x="220.100288" xlink:href="#m038d1aad41" y="132.069577"/>
     <use style="fill:#348fea;stroke:#348fea;" x="237.678724" xlink:href="#m038d1aad41" y="198.749546"/>
     <use style="fill:#348fea;stroke:#348fea;" x="215.687833" xlink:href="#m038d1aad41" y="141.33937"/>
     <use style="fill:#348fea;stroke:#348fea;" x="152.008726" xlink:href="#m038d1aad41" y="129.403951"/>
     <use style="fill:#348fea;stroke:#348fea;" x="188.513856" xlink:href="#m038d1aad41" y="121.984199"/>
     <use style="fill:#348fea;stroke:#348fea;" x="295.271479" xlink:href="#m038d1aad41" y="205.58737"/>
     <use style="fill:#348fea;stroke:#348fea;" x="136.855324" xlink:href="#m038d1aad41" y="135.01374"/>
     <use style="fill:#348fea;stroke:#348fea;" x="273.323601" xlink:href="#m038d1aad41" y="148.581901"/>
     <use style="fill:#348fea;stroke:#348fea;" x="180.873019" xlink:href="#m038d1aad41" y="155.095254"/>
     <use style="fill:#348fea;stroke:#348fea;" x="221.955551" xlink:href="#m038d1aad41" y="133.502713"/>
     <use style="fill:#348fea;stroke:#348fea;" x="133.894423" xlink:href="#m038d1aad41" y="125.021729"/>
     <use style="fill:#348fea;stroke:#348fea;" x="125.535792" xlink:href="#m038d1aad41" y="146.752123"/>
     <use style="fill:#348fea;stroke:#348fea;" x="220.464455" xlink:href="#m038d1aad41" y="165.450262"/>
     <use style="fill:#348fea;stroke:#348fea;" x="164.9011" xlink:href="#m038d1aad41" y="139.303868"/>
     <use style="fill:#348fea;stroke:#348fea;" x="175.586333" xlink:href="#m038d1aad41" y="126.806497"/>
     <use style="fill:#348fea;stroke:#348fea;" x="157.321416" xlink:href="#m038d1aad41" y="87.367675"/>
     <use style="fill:#348fea;stroke:#348fea;" x="225.786217" xlink:href="#m038d1aad41" y="180.308577"/>
     <use style="fill:#348fea;stroke:#348fea;" x="173.236519" xlink:href="#m038d1aad41" y="102.329391"/>
     <use style="fill:#348fea;stroke:#348fea;" x="278.955648" xlink:href="#m038d1aad41" y="223.409484"/>
     <use style="fill:#348fea;stroke:#348fea;" x="268.326301" xlink:href="#m038d1aad41" y="218.906422"/>
     <use style="fill:#348fea;stroke:#348fea;" x="226.845524" xlink:href="#m038d1aad41" y="172.918095"/>
     <use style="fill:#348fea;stroke:#348fea;" x="144.021061" xlink:href="#m038d1aad41" y="95.891893"/>
     <use style="fill:#348fea;stroke:#348fea;" x="288.551997" xlink:href="#m038d1aad41" y="195.580156"/>
     <use style="fill:#348fea;stroke:#348fea;" x="278.326042" xlink:href="#m038d1aad41" y="192.643127"/>
     <use style="fill:#348fea;stroke:#348fea;" x="248.102451" xlink:href="#m038d1aad41" y="177.810384"/>
     <use style="fill:#348fea;stroke:#348fea;" x="177.617366" xlink:href="#m038d1aad41" y="126.097609"/>
     <use style="fill:#348fea;stroke:#348fea;" x="168.12022" xlink:href="#m038d1aad41" y="94.163193"/>
     <use style="fill:#348fea;stroke:#348fea;" x="291.164401" xlink:href="#m038d1aad41" y="228.946861"/>
     <use style="fill:#348fea;stroke:#348fea;" x="163.507411" xlink:href="#m038d1aad41" y="145.525179"/>
     <use style="fill:#348fea;stroke:#348fea;" x="295.532473" xlink:href="#m038d1aad41" y="186.128608"/>
     <use style="fill:#348fea;stroke:#348fea;" x="150.685326" xlink:href="#m038d1aad41" y="98.343436"/>
     <use style="fill:#348fea;stroke:#348fea;" x="278.005502" xlink:href="#m038d1aad41" y="177.038243"/>
     <use style="fill:#348fea;stroke:#348fea;" x="230.956623" xlink:href="#m038d1aad41" y="98.039159"/>
     <use style="fill:#348fea;stroke:#348fea;" x="295.989305" xlink:href="#m038d1aad41" y="200.142196"/>
     <use style="fill:#348fea;stroke:#348fea;" x="270.098706" xlink:href="#m038d1aad41" y="183.266791"/>
     <use style="fill:#348fea;stroke:#348fea;" x="233.71813" xlink:href="#m038d1aad41" y="142.323121"/>
     <use style="fill:#348fea;stroke:#348fea;" x="246.881645" xlink:href="#m038d1aad41" y="183.620589"/>
     <use style="fill:#348fea;stroke:#348fea;" x="273.635685" xlink:href="#m038d1aad41" y="183.254327"/>
     <use style="fill:#348fea;stroke:#348fea;" x="144.658397" xlink:href="#m038d1aad41" y="107.77118"/>
     <use style="fill:#348fea;stroke:#348fea;" x="192.701615" xlink:href="#m038d1aad41" y="162.081839"/>
     <use style="fill:#348fea;stroke:#348fea;" x="287.659707" xlink:href="#m038d1aad41" y="202.193956"/>
     <use style="fill:#348fea;stroke:#348fea;" x="238.458277" xlink:href="#m038d1aad41" y="144.258496"/>
     <use style="fill:#348fea;stroke:#348fea;" x="193.50525" xlink:href="#m038d1aad41" y="162.449184"/>
     <use style="fill:#348fea;stroke:#348fea;" x="231.976124" xlink:href="#m038d1aad41" y="177.126955"/>
     <use style="fill:#348fea;stroke:#348fea;" x="125.159874" xlink:href="#m038d1aad41" y="107.836381"/>
     <use style="fill:#348fea;stroke:#348fea;" x="170.667631" xlink:href="#m038d1aad41" y="149.331293"/>
     <use style="fill:#348fea;stroke:#348fea;" x="269.476821" xlink:href="#m038d1aad41" y="191.011172"/>
     <use style="fill:#348fea;stroke:#348fea;" x="214.939149" xlink:href="#m038d1aad41" y="160.314471"/>
     <use style="fill:#348fea;stroke:#348fea;" x="257.967125" xlink:href="#m038d1aad41" y="227.800388"/>
     <use style="fill:#348fea;stroke:#348fea;" x="192.812634" xlink:href="#m038d1aad41" y="141.538041"/>
     <use style="fill:#348fea;stroke:#348fea;" x="287.582343" xlink:href="#m038d1aad41" y="217.414648"/>
     <use style="fill:#348fea;stroke:#348fea;" x="218.469954" xlink:href="#m038d1aad41" y="155.690202"/>
     <use style="fill:#348fea;stroke:#348fea;" x="213.833101" xlink:href="#m038d1aad41" y="164.169093"/>
     <use style="fill:#348fea;stroke:#348fea;" x="151.705416" xlink:href="#m038d1aad41" y="95.942795"/>
     <use style="fill:#348fea;stroke:#348fea;" x="222.280236" xlink:href="#m038d1aad41" y="164.868145"/>
     <use style="fill:#348fea;stroke:#348fea;" x="191.527091" xlink:href="#m038d1aad41" y="165.220888"/>
     <use style="fill:#348fea;stroke:#348fea;" x="119.790272" xlink:href="#m038d1aad41" y="104.300192"/>
     <use style="fill:#348fea;stroke:#348fea;" x="262.066822" xlink:href="#m038d1aad41" y="204.486979"/>
     <use style="fill:#348fea;stroke:#348fea;" x="176.198596" xlink:href="#m038d1aad41" y="153.188217"/>
     <use style="fill:#348fea;stroke:#348fea;" x="274.107648" xlink:href="#m038d1aad41" y="192.355071"/>
     <use style="fill:#348fea;stroke:#348fea;" x="216.146674" xlink:href="#m038d1aad41" y="116.911152"/>
     <use style="fill:#348fea;stroke:#348fea;" x="221.270398" xlink:href="#m038d1aad41" y="170.757567"/>
     <use style="fill:#348fea;stroke:#348fea;" x="133.400413" xlink:href="#m038d1aad41" y="102.135241"/>
     <use style="fill:#348fea;stroke:#348fea;" x="188.953559" xlink:href="#m038d1aad41" y="133.426821"/>
     <use style="fill:#348fea;stroke:#348fea;" x="163.754594" xlink:href="#m038d1aad41" y="105.190585"/>
     <use style="fill:#348fea;stroke:#348fea;" x="286.100696" xlink:href="#m038d1aad41" y="210.089095"/>
     <use style="fill:#348fea;stroke:#348fea;" x="257.333174" xlink:href="#m038d1aad41" y="160.961171"/>
     <use style="fill:#348fea;stroke:#348fea;" x="218.709436" xlink:href="#m038d1aad41" y="146.063443"/>
     <use style="fill:#348fea;stroke:#348fea;" x="266.460106" xlink:href="#m038d1aad41" y="193.823537"/>
     <use style="fill:#348fea;stroke:#348fea;" x="267.994433" xlink:href="#m038d1aad41" y="213.012865"/>
     <use style="fill:#348fea;stroke:#348fea;" x="288.032658" xlink:href="#m038d1aad41" y="195.114027"/>
     <use style="fill:#348fea;stroke:#348fea;" x="286.241281" xlink:href="#m038d1aad41" y="197.414916"/>
     <use style="fill:#348fea;stroke:#348fea;" x="266.917265" xlink:href="#m038d1aad41" y="181.64779"/>
     <use style="fill:#348fea;stroke:#348fea;" x="215.347714" xlink:href="#m038d1aad41" y="176.723053"/>
     <use style="fill:#348fea;stroke:#348fea;" x="239.114907" xlink:href="#m038d1aad41" y="175.749379"/>
     <use style="fill:#348fea;stroke:#348fea;" x="174.7331" xlink:href="#m038d1aad41" y="140.68779"/>
     <use style="fill:#348fea;stroke:#348fea;" x="128.519792" xlink:href="#m038d1aad41" y="110.899674"/>
     <use style="fill:#348fea;stroke:#348fea;" x="162.161661" xlink:href="#m038d1aad41" y="112.767673"/>
     <use style="fill:#348fea;stroke:#348fea;" x="123.671264" xlink:href="#m038d1aad41" y="123.021958"/>
     <use style="fill:#348fea;stroke:#348fea;" x="287.88184" xlink:href="#m038d1aad41" y="177.659537"/>
     <use style="fill:#348fea;stroke:#348fea;" x="259.547628" xlink:href="#m038d1aad41" y="185.108416"/>
     <use style="fill:#348fea;stroke:#348fea;" x="240.323991" xlink:href="#m038d1aad41" y="221.741743"/>
     <use style="fill:#348fea;stroke:#348fea;" x="284.353312" xlink:href="#m038d1aad41" y="210.184784"/>
     <use style="fill:#348fea;stroke:#348fea;" x="235.856186" xlink:href="#m038d1aad41" y="184.719682"/>
     <use style="fill:#348fea;stroke:#348fea;" x="238.158707" xlink:href="#m038d1aad41" y="182.646665"/>
     <use style="fill:#348fea;stroke:#348fea;" x="215.474254" xlink:href="#m038d1aad41" y="157.144155"/>
     <use style="fill:#348fea;stroke:#348fea;" x="140.894874" xlink:href="#m038d1aad41" y="136.798995"/>
     <use style="fill:#348fea;stroke:#348fea;" x="196.908662" xlink:href="#m038d1aad41" y="213.885237"/>
     <use style="fill:#348fea;stroke:#348fea;" x="145.409902" xlink:href="#m038d1aad41" y="83.11967"/>
     <use style="fill:#348fea;stroke:#348fea;" x="200.02927" xlink:href="#m038d1aad41" y="140.58598"/>
     <use style="fill:#348fea;stroke:#348fea;" x="174.270003" xlink:href="#m038d1aad41" y="146.205913"/>
     <use style="fill:#348fea;stroke:#348fea;" x="271.42694" xlink:href="#m038d1aad41" y="171.806336"/>
     <use style="fill:#348fea;stroke:#348fea;" x="166.403989" xlink:href="#m038d1aad41" y="136.910766"/>
    </g>
   </g>
   <g id="matplotlib.axis_1">
    <g id="xtick_1">
     <g id="line2d_1">
      <defs>
       <path d="M 0 0 
L 0 3.5 
" id="m64a20e8b9e" style="stroke:#000000;stroke-width:0.8;"/>
      </defs>
      <g>
       <use style="stroke:#000000;stroke-width:0.8;" x="116.951872" xlink:href="#m64a20e8b9e" y="252"/>
      </g>
     </g>
     <g id="text_1">
      <!-- −2 -->
      <defs>
       <path d="M 10.59375 35.5 
L 73.1875 35.5 
L 73.1875 27.203125 
L 10.59375 27.203125 
z
" id="DejaVuSans-8722"/>
       <path d="M 19.1875 8.296875 
L 53.609375 8.296875 
L 53.609375 0 
L 7.328125 0 
L 7.328125 8.296875 
Q 12.9375 14.109375 22.625 23.890625 
Q 32.328125 33.6875 34.8125 36.53125 
Q 39.546875 41.84375 41.421875 45.53125 
Q 43.3125 49.21875 43.3125 52.78125 
Q 43.3125 58.59375 39.234375 62.25 
Q 35.15625 65.921875 28.609375 65.921875 
Q 23.96875 65.921875 18.8125 64.3125 
Q 13.671875 62.703125 7.8125 59.421875 
L 7.8125 69.390625 
Q 13.765625 71.78125 18.9375 73 
Q 24.125 74.21875 28.421875 74.21875 
Q 39.75 74.21875 46.484375 68.546875 
Q 53.21875 62.890625 53.21875 53.421875 
Q 53.21875 48.921875 51.53125 44.890625 
Q 49.859375 40.875 45.40625 35.40625 
Q 44.1875 33.984375 37.640625 27.21875 
Q 31.109375 20.453125 19.1875 8.296875 
z
" id="DejaVuSans-50"/>
      </defs>
      <g transform="translate(109.580778 266.598437)scale(0.1 -0.1)">
       <use xlink:href="#DejaVuSans-8722"/>
       <use x="83.789062" xlink:href="#DejaVuSans-50"/>
      </g>
     </g>
    </g>
    <g id="xtick_2">
     <g id="line2d_2">
      <g>
       <use style="stroke:#000000;stroke-width:0.8;" x="162.216427" xlink:href="#m64a20e8b9e" y="252"/>
      </g>
     </g>
     <g id="text_2">
      <!-- −1 -->
      <defs>
       <path d="M 12.40625 8.296875 
L 28.515625 8.296875 
L 28.515625 63.921875 
L 10.984375 60.40625 
L 10.984375 69.390625 
L 28.421875 72.90625 
L 38.28125 72.90625 
L 38.28125 8.296875 
L 54.390625 8.296875 
L 54.390625 0 
L 12.40625 0 
z
" id="DejaVuSans-49"/>
      </defs>
      <g transform="translate(154.845333 266.598437)scale(0.1 -0.1)">
       <use xlink:href="#DejaVuSans-8722"/>
       <use x="83.789062" xlink:href="#DejaVuSans-49"/>
      </g>
     </g>
    </g>
    <g id="xtick_3">
     <g id="line2d_3">
      <g>
       <use style="stroke:#000000;stroke-width:0.8;" x="207.480982" xlink:href="#m64a20e8b9e" y="252"/>
      </g>
     </g>
     <g id="text_3">
      <!-- 0 -->
      <defs>
       <path d="M 31.78125 66.40625 
Q 24.171875 66.40625 20.328125 58.90625 
Q 16.5 51.421875 16.5 36.375 
Q 16.5 21.390625 20.328125 13.890625 
Q 24.171875 6.390625 31.78125 6.390625 
Q 39.453125 6.390625 43.28125 13.890625 
Q 47.125 21.390625 47.125 36.375 
Q 47.125 51.421875 43.28125 58.90625 
Q 39.453125 66.40625 31.78125 66.40625 
z
M 31.78125 74.21875 
Q 44.046875 74.21875 50.515625 64.515625 
Q 56.984375 54.828125 56.984375 36.375 
Q 56.984375 17.96875 50.515625 8.265625 
Q 44.046875 -1.421875 31.78125 -1.421875 
Q 19.53125 -1.421875 13.0625 8.265625 
Q 6.59375 17.96875 6.59375 36.375 
Q 6.59375 54.828125 13.0625 64.515625 
Q 19.53125 74.21875 31.78125 74.21875 
z
" id="DejaVuSans-48"/>
      </defs>
      <g transform="translate(204.299732 266.598437)scale(0.1 -0.1)">
       <use xlink:href="#DejaVuSans-48"/>
      </g>
     </g>
    </g>
    <g id="xtick_4">
     <g id="line2d_4">
      <g>
       <use style="stroke:#000000;stroke-width:0.8;" x="252.745537" xlink:href="#m64a20e8b9e" y="252"/>
      </g>
     </g>
     <g id="text_4">
      <!-- 1 -->
      <g transform="translate(249.564287 266.598437)scale(0.1 -0.1)">
       <use xlink:href="#DejaVuSans-49"/>
      </g>
     </g>
    </g>
    <g id="xtick_5">
     <g id="line2d_5">
      <g>
       <use style="stroke:#000000;stroke-width:0.8;" x="298.010092" xlink:href="#m64a20e8b9e" y="252"/>
      </g>
     </g>
     <g id="text_5">
      <!-- 2 -->
      <g transform="translate(294.828842 266.598437)scale(0.1 -0.1)">
       <use xlink:href="#DejaVuSans-50"/>
      </g>
     </g>
    </g>
   </g>
   <g id="matplotlib.axis_2">
    <g id="ytick_1">
     <g id="line2d_6">
      <defs>
       <path d="M 0 0 
L -3.5 0 
" id="m0c25ca7a9c" style="stroke:#000000;stroke-width:0.8;"/>
      </defs>
      <g>
       <use style="stroke:#000000;stroke-width:0.8;" x="108" xlink:href="#m0c25ca7a9c" y="246.564"/>
      </g>
     </g>
     <g id="text_6">
      <!-- −7.5 -->
      <defs>
       <path d="M 8.203125 72.90625 
L 55.078125 72.90625 
L 55.078125 68.703125 
L 28.609375 0 
L 18.3125 0 
L 43.21875 64.59375 
L 8.203125 64.59375 
z
" id="DejaVuSans-55"/>
       <path d="M 10.6875 12.40625 
L 21 12.40625 
L 21 0 
L 10.6875 0 
z
" id="DejaVuSans-46"/>
       <path d="M 10.796875 72.90625 
L 49.515625 72.90625 
L 49.515625 64.59375 
L 19.828125 64.59375 
L 19.828125 46.734375 
Q 21.96875 47.46875 24.109375 47.828125 
Q 26.265625 48.1875 28.421875 48.1875 
Q 40.625 48.1875 47.75 41.5 
Q 54.890625 34.8125 54.890625 23.390625 
Q 54.890625 11.625 47.5625 5.09375 
Q 40.234375 -1.421875 26.90625 -1.421875 
Q 22.3125 -1.421875 17.546875 -0.640625 
Q 12.796875 0.140625 7.71875 1.703125 
L 7.71875 11.625 
Q 12.109375 9.234375 16.796875 8.0625 
Q 21.484375 6.890625 26.703125 6.890625 
Q 35.15625 6.890625 40.078125 11.328125 
Q 45.015625 15.765625 45.015625 23.390625 
Q 45.015625 31 40.078125 35.4375 
Q 35.15625 39.890625 26.703125 39.890625 
Q 22.75 39.890625 18.8125 39.015625 
Q 14.890625 38.140625 10.796875 36.28125 
z
" id="DejaVuSans-53"/>
      </defs>
      <g transform="translate(76.717187 250.363219)scale(0.1 -0.1)">
       <use xlink:href="#DejaVuSans-8722"/>
       <use x="83.789062" xlink:href="#DejaVuSans-55"/>
       <use x="147.412109" xlink:href="#DejaVuSans-46"/>
       <use x="179.199219" xlink:href="#DejaVuSans-53"/>
      </g>
     </g>
    </g>
    <g id="ytick_2">
     <g id="line2d_7">
      <g>
       <use style="stroke:#000000;stroke-width:0.8;" x="108" xlink:href="#m0c25ca7a9c" y="219.384"/>
      </g>
     </g>
     <g id="text_7">
      <!-- −5.0 -->
      <g transform="translate(76.717187 223.183219)scale(0.1 -0.1)">
       <use xlink:href="#DejaVuSans-8722"/>
       <use x="83.789062" xlink:href="#DejaVuSans-53"/>
       <use x="147.412109" xlink:href="#DejaVuSans-46"/>
       <use x="179.199219" xlink:href="#DejaVuSans-48"/>
      </g>
     </g>
    </g>
    <g id="ytick_3">
     <g id="line2d_8">
      <g>
       <use style="stroke:#000000;stroke-width:0.8;" x="108" xlink:href="#m0c25ca7a9c" y="192.204"/>
      </g>
     </g>
     <g id="text_8">
      <!-- −2.5 -->
      <g transform="translate(76.717187 196.003219)scale(0.1 -0.1)">
       <use xlink:href="#DejaVuSans-8722"/>
       <use x="83.789062" xlink:href="#DejaVuSans-50"/>
       <use x="147.412109" xlink:href="#DejaVuSans-46"/>
       <use x="179.199219" xlink:href="#DejaVuSans-53"/>
      </g>
     </g>
    </g>
    <g id="ytick_4">
     <g id="line2d_9">
      <g>
       <use style="stroke:#000000;stroke-width:0.8;" x="108" xlink:href="#m0c25ca7a9c" y="165.024"/>
      </g>
     </g>
     <g id="text_9">
      <!-- 0.0 -->
      <g transform="translate(85.096875 168.823219)scale(0.1 -0.1)">
       <use xlink:href="#DejaVuSans-48"/>
       <use x="63.623047" xlink:href="#DejaVuSans-46"/>
       <use x="95.410156" xlink:href="#DejaVuSans-48"/>
      </g>
     </g>
    </g>
    <g id="ytick_5">
     <g id="line2d_10">
      <g>
       <use style="stroke:#000000;stroke-width:0.8;" x="108" xlink:href="#m0c25ca7a9c" y="137.844"/>
      </g>
     </g>
     <g id="text_10">
      <!-- 2.5 -->
      <g transform="translate(85.096875 141.643219)scale(0.1 -0.1)">
       <use xlink:href="#DejaVuSans-50"/>
       <use x="63.623047" xlink:href="#DejaVuSans-46"/>
       <use x="95.410156" xlink:href="#DejaVuSans-53"/>
      </g>
     </g>
    </g>
    <g id="ytick_6">
     <g id="line2d_11">
      <g>
       <use style="stroke:#000000;stroke-width:0.8;" x="108" xlink:href="#m0c25ca7a9c" y="110.664"/>
      </g>
     </g>
     <g id="text_11">
      <!-- 5.0 -->
      <g transform="translate(85.096875 114.463219)scale(0.1 -0.1)">
       <use xlink:href="#DejaVuSans-53"/>
       <use x="63.623047" xlink:href="#DejaVuSans-46"/>
       <use x="95.410156" xlink:href="#DejaVuSans-48"/>
      </g>
     </g>
    </g>
    <g id="ytick_7">
     <g id="line2d_12">
      <g>
       <use style="stroke:#000000;stroke-width:0.8;" x="108" xlink:href="#m0c25ca7a9c" y="83.484"/>
      </g>
     </g>
     <g id="text_12">
      <!-- 7.5 -->
      <g transform="translate(85.096875 87.283219)scale(0.1 -0.1)">
       <use xlink:href="#DejaVuSans-55"/>
       <use x="63.623047" xlink:href="#DejaVuSans-46"/>
       <use x="95.410156" xlink:href="#DejaVuSans-53"/>
      </g>
     </g>
    </g>
    <g id="ytick_8">
     <g id="line2d_13">
      <g>
       <use style="stroke:#000000;stroke-width:0.8;" x="108" xlink:href="#m0c25ca7a9c" y="56.304"/>
      </g>
     </g>
     <g id="text_13">
      <!-- 10.0 -->
      <g transform="translate(78.734375 60.103219)scale(0.1 -0.1)">
       <use xlink:href="#DejaVuSans-49"/>
       <use x="63.623047" xlink:href="#DejaVuSans-48"/>
       <use x="127.246094" xlink:href="#DejaVuSans-46"/>
       <use x="159.033203" xlink:href="#DejaVuSans-48"/>
      </g>
     </g>
    </g>
   </g>
   <g id="line2d_14">
    <path clip-path="url(#pc55681ea69)" d="M 116.951872 110.664 
L 121.478327 110.824362 
L 126.004783 111.294576 
L 130.531238 112.058334 
L 135.057694 113.099328 
L 139.584149 114.40125 
L 144.110605 115.947792 
L 148.63706 117.722646 
L 153.163516 119.709504 
L 157.689971 121.892058 
L 162.216427 124.254 
L 166.742882 126.779022 
L 171.269338 129.450816 
L 175.795793 132.253074 
L 180.322249 135.169488 
L 184.848704 138.18375 
L 189.37516 141.279552 
L 193.901615 144.440586 
L 198.428071 147.650544 
L 202.954526 150.893118 
L 207.480982 154.152 
L 212.007437 157.410882 
L 216.533893 160.653456 
L 221.060348 163.863414 
L 225.586804 167.024448 
L 230.113259 170.12025 
L 234.639715 173.134512 
L 239.16617 176.050926 
L 243.692626 178.853184 
L 248.219081 181.524978 
L 252.745537 184.05 
L 257.271992 186.411942 
L 261.798448 188.594496 
L 266.324903 190.581354 
L 270.851359 192.356208 
L 275.377814 193.90275 
L 279.90427 195.204672 
L 284.430725 196.245666 
L 288.957181 197.009424 
L 293.483636 197.479638 
" style="fill:none;stroke:#ffc100;stroke-linecap:square;stroke-width:1.5;"/>
   </g>
   <g id="patch_3">
    <path d="M 108 252 
L 108 34.56 
" style="fill:none;stroke:#000000;stroke-linecap:square;stroke-linejoin:miter;stroke-width:0.8;"/>
   </g>
   <g id="patch_4">
    <path d="M 304.941176 252 
L 304.941176 34.56 
" style="fill:none;stroke:#000000;stroke-linecap:square;stroke-linejoin:miter;stroke-width:0.8;"/>
   </g>
   <g id="patch_5">
    <path d="M 108 252 
L 304.941176 252 
" style="fill:none;stroke:#000000;stroke-linecap:square;stroke-linejoin:miter;stroke-width:0.8;"/>
   </g>
   <g id="patch_6">
    <path d="M 108 34.56 
L 304.941176 34.56 
" style="fill:none;stroke:#000000;stroke-linecap:square;stroke-linejoin:miter;stroke-width:0.8;"/>
   </g>
   <g id="text_14">
    <!-- normal -->
    <defs>
     <path d="M 54.890625 33.015625 
L 54.890625 0 
L 45.90625 0 
L 45.90625 32.71875 
Q 45.90625 40.484375 42.875 44.328125 
Q 39.84375 48.1875 33.796875 48.1875 
Q 26.515625 48.1875 22.3125 43.546875 
Q 18.109375 38.921875 18.109375 30.90625 
L 18.109375 0 
L 9.078125 0 
L 9.078125 54.6875 
L 18.109375 54.6875 
L 18.109375 46.1875 
Q 21.34375 51.125 25.703125 53.5625 
Q 30.078125 56 35.796875 56 
Q 45.21875 56 50.046875 50.171875 
Q 54.890625 44.34375 54.890625 33.015625 
z
" id="DejaVuSans-110"/>
     <path d="M 30.609375 48.390625 
Q 23.390625 48.390625 19.1875 42.75 
Q 14.984375 37.109375 14.984375 27.296875 
Q 14.984375 17.484375 19.15625 11.84375 
Q 23.34375 6.203125 30.609375 6.203125 
Q 37.796875 6.203125 41.984375 11.859375 
Q 46.1875 17.53125 46.1875 27.296875 
Q 46.1875 37.015625 41.984375 42.703125 
Q 37.796875 48.390625 30.609375 48.390625 
z
M 30.609375 56 
Q 42.328125 56 49.015625 48.375 
Q 55.71875 40.765625 55.71875 27.296875 
Q 55.71875 13.875 49.015625 6.21875 
Q 42.328125 -1.421875 30.609375 -1.421875 
Q 18.84375 -1.421875 12.171875 6.21875 
Q 5.515625 13.875 5.515625 27.296875 
Q 5.515625 40.765625 12.171875 48.375 
Q 18.84375 56 30.609375 56 
z
" id="DejaVuSans-111"/>
     <path d="M 41.109375 46.296875 
Q 39.59375 47.171875 37.8125 47.578125 
Q 36.03125 48 33.890625 48 
Q 26.265625 48 22.1875 43.046875 
Q 18.109375 38.09375 18.109375 28.8125 
L 18.109375 0 
L 9.078125 0 
L 9.078125 54.6875 
L 18.109375 54.6875 
L 18.109375 46.1875 
Q 20.953125 51.171875 25.484375 53.578125 
Q 30.03125 56 36.53125 56 
Q 37.453125 56 38.578125 55.875 
Q 39.703125 55.765625 41.0625 55.515625 
z
" id="DejaVuSans-114"/>
     <path d="M 52 44.1875 
Q 55.375 50.25 60.0625 53.125 
Q 64.75 56 71.09375 56 
Q 79.640625 56 84.28125 50.015625 
Q 88.921875 44.046875 88.921875 33.015625 
L 88.921875 0 
L 79.890625 0 
L 79.890625 32.71875 
Q 79.890625 40.578125 77.09375 44.375 
Q 74.3125 48.1875 68.609375 48.1875 
Q 61.625 48.1875 57.5625 43.546875 
Q 53.515625 38.921875 53.515625 30.90625 
L 53.515625 0 
L 44.484375 0 
L 44.484375 32.71875 
Q 44.484375 40.625 41.703125 44.40625 
Q 38.921875 48.1875 33.109375 48.1875 
Q 26.21875 48.1875 22.15625 43.53125 
Q 18.109375 38.875 18.109375 30.90625 
L 18.109375 0 
L 9.078125 0 
L 9.078125 54.6875 
L 18.109375 54.6875 
L 18.109375 46.1875 
Q 21.1875 51.21875 25.484375 53.609375 
Q 29.78125 56 35.6875 56 
Q 41.65625 56 45.828125 52.96875 
Q 50 49.953125 52 44.1875 
z
" id="DejaVuSans-109"/>
     <path d="M 34.28125 27.484375 
Q 23.390625 27.484375 19.1875 25 
Q 14.984375 22.515625 14.984375 16.5 
Q 14.984375 11.71875 18.140625 8.90625 
Q 21.296875 6.109375 26.703125 6.109375 
Q 34.1875 6.109375 38.703125 11.40625 
Q 43.21875 16.703125 43.21875 25.484375 
L 43.21875 27.484375 
z
M 52.203125 31.203125 
L 52.203125 0 
L 43.21875 0 
L 43.21875 8.296875 
Q 40.140625 3.328125 35.546875 0.953125 
Q 30.953125 -1.421875 24.3125 -1.421875 
Q 15.921875 -1.421875 10.953125 3.296875 
Q 6 8.015625 6 15.921875 
Q 6 25.140625 12.171875 29.828125 
Q 18.359375 34.515625 30.609375 34.515625 
L 43.21875 34.515625 
L 43.21875 35.40625 
Q 43.21875 41.609375 39.140625 45 
Q 35.0625 48.390625 27.6875 48.390625 
Q 23 48.390625 18.546875 47.265625 
Q 14.109375 46.140625 10.015625 43.890625 
L 10.015625 52.203125 
Q 14.9375 54.109375 19.578125 55.046875 
Q 24.21875 56 28.609375 56 
Q 40.484375 56 46.34375 49.84375 
Q 52.203125 43.703125 52.203125 31.203125 
z
" id="DejaVuSans-97"/>
     <path d="M 9.421875 75.984375 
L 18.40625 75.984375 
L 18.40625 0 
L 9.421875 0 
z
" id="DejaVuSans-108"/>
    </defs>
    <g transform="translate(185.447151 28.56)scale(0.12 -0.12)">
     <use xlink:href="#DejaVuSans-110"/>
     <use x="63.378906" xlink:href="#DejaVuSans-111"/>
     <use x="124.560547" xlink:href="#DejaVuSans-114"/>
     <use x="163.923828" xlink:href="#DejaVuSans-109"/>
     <use x="261.335938" xlink:href="#DejaVuSans-97"/>
     <use x="322.615234" xlink:href="#DejaVuSans-108"/>
    </g>
   </g>
  </g>
  <g id="axes_2">
   <g id="patch_7">
    <path d="M 344.329412 252 
L 541.270588 252 
L 541.270588 34.56 
L 344.329412 34.56 
z
" style="fill:#ffffff;"/>
   </g>
   <g id="PathCollection_2">
    <g clip-path="url(#p7fe99ad140)">
     <use style="fill:#348fea;stroke:#348fea;" x="405.34675" xlink:href="#m038d1aad41" y="162.694639"/>
     <use style="fill:#348fea;stroke:#348fea;" x="493.80478" xlink:href="#m038d1aad41" y="195.210003"/>
     <use style="fill:#348fea;stroke:#348fea;" x="516.129805" xlink:href="#m038d1aad41" y="202.049071"/>
     <use style="fill:#348fea;stroke:#348fea;" x="496.77358" xlink:href="#m038d1aad41" y="202.15932"/>
     <use style="fill:#348fea;stroke:#348fea;" x="476.053941" xlink:href="#m038d1aad41" y="295.401487"/>
     <use style="fill:#348fea;stroke:#348fea;" x="432.314642" xlink:href="#m038d1aad41" y="138.266438"/>
     <use style="fill:#348fea;stroke:#348fea;" x="530.435669" xlink:href="#m038d1aad41" y="185.98871"/>
     <use style="fill:#348fea;stroke:#348fea;" x="506.604564" xlink:href="#m038d1aad41" y="200.59407"/>
     <use style="fill:#348fea;stroke:#348fea;" x="476.044763" xlink:href="#m038d1aad41" y="188.97662"/>
     <use style="fill:#348fea;stroke:#348fea;" x="427.816702" xlink:href="#m038d1aad41" y="133.512877"/>
     <use style="fill:#348fea;stroke:#348fea;" x="384.986226" xlink:href="#m038d1aad41" y="64.664299"/>
     <use style="fill:#348fea;stroke:#348fea;" x="384.385305" xlink:href="#m038d1aad41" y="115.361977"/>
     <use style="fill:#348fea;stroke:#348fea;" x="412.987065" xlink:href="#m038d1aad41" y="97.029981"/>
     <use style="fill:#348fea;stroke:#348fea;" x="530.905523" xlink:href="#m038d1aad41" y="191.161971"/>
     <use style="fill:#348fea;stroke:#348fea;" x="505.061372" xlink:href="#m038d1aad41" y="195.391861"/>
     <use style="fill:#348fea;stroke:#348fea;" x="365.054358" xlink:href="#m038d1aad41" y="138.810567"/>
     <use style="fill:#348fea;stroke:#348fea;" x="426.110081" xlink:href="#m038d1aad41" y="116.477781"/>
     <use style="fill:#348fea;stroke:#348fea;" x="408.451454" xlink:href="#m038d1aad41" y="182.61905"/>
     <use style="fill:#348fea;stroke:#348fea;" x="494.410048" xlink:href="#m038d1aad41" y="205.530155"/>
     <use style="fill:#348fea;stroke:#348fea;" x="464.18446" xlink:href="#m038d1aad41" y="153.997611"/>
     <use style="fill:#348fea;stroke:#348fea;" x="430.131331" xlink:href="#m038d1aad41" y="144.320195"/>
     <use style="fill:#348fea;stroke:#348fea;" x="463.778155" xlink:href="#m038d1aad41" y="127.761783"/>
     <use style="fill:#348fea;stroke:#348fea;" x="393.782277" xlink:href="#m038d1aad41" y="105.735711"/>
     <use style="fill:#348fea;stroke:#348fea;" x="477.110345" xlink:href="#m038d1aad41" y="186.519305"/>
     <use style="fill:#348fea;stroke:#348fea;" x="412.71655" xlink:href="#m038d1aad41" y="138.02419"/>
     <use style="fill:#348fea;stroke:#348fea;" x="400.019157" xlink:href="#m038d1aad41" y="120.389061"/>
     <use style="fill:#348fea;stroke:#348fea;" x="532.318717" xlink:href="#m038d1aad41" y="211.036572"/>
     <use style="fill:#348fea;stroke:#348fea;" x="510.701512" xlink:href="#m038d1aad41" y="256.669125"/>
     <use style="fill:#348fea;stroke:#348fea;" x="445.140636" xlink:href="#m038d1aad41" y="136.882861"/>
     <use style="fill:#348fea;stroke:#348fea;" x="446.001848" xlink:href="#m038d1aad41" y="166.770502"/>
     <use style="fill:#348fea;stroke:#348fea;" x="391.509847" xlink:href="#m038d1aad41" y="115.114886"/>
     <use style="fill:#348fea;stroke:#348fea;" x="435.647902" xlink:href="#m038d1aad41" y="143.633889"/>
     <use style="fill:#348fea;stroke:#348fea;" x="407.625883" xlink:href="#m038d1aad41" y="135.339071"/>
     <use style="fill:#348fea;stroke:#348fea;" x="427.921652" xlink:href="#m038d1aad41" y="160.957475"/>
     <use style="fill:#348fea;stroke:#348fea;" x="388.658302" xlink:href="#m038d1aad41" y="129.90074"/>
     <use style="fill:#348fea;stroke:#348fea;" x="426.169143" xlink:href="#m038d1aad41" y="132.934501"/>
     <use style="fill:#348fea;stroke:#348fea;" x="525.782813" xlink:href="#m038d1aad41" y="226.397236"/>
     <use style="fill:#348fea;stroke:#348fea;" x="438.057973" xlink:href="#m038d1aad41" y="161.223416"/>
     <use style="fill:#348fea;stroke:#348fea;" x="406.892195" xlink:href="#m038d1aad41" y="93.409165"/>
     <use style="fill:#348fea;stroke:#348fea;" x="513.613545" xlink:href="#m038d1aad41" y="226.802633"/>
     <use style="fill:#348fea;stroke:#348fea;" x="447.08562" xlink:href="#m038d1aad41" y="169.388911"/>
     <use style="fill:#348fea;stroke:#348fea;" x="513.041378" xlink:href="#m038d1aad41" y="215.817415"/>
     <use style="fill:#348fea;stroke:#348fea;" x="486.404011" xlink:href="#m038d1aad41" y="198.783644"/>
     <use style="fill:#348fea;stroke:#348fea;" x="426.610227" xlink:href="#m038d1aad41" y="139.194594"/>
     <use style="fill:#348fea;stroke:#348fea;" x="473.49844" xlink:href="#m038d1aad41" y="193.510337"/>
     <use style="fill:#348fea;stroke:#348fea;" x="408.23002" xlink:href="#m038d1aad41" y="141.944196"/>
     <use style="fill:#348fea;stroke:#348fea;" x="429.808139" xlink:href="#m038d1aad41" y="153.203888"/>
     <use style="fill:#348fea;stroke:#348fea;" x="374.809442" xlink:href="#m038d1aad41" y="93.202179"/>
     <use style="fill:#348fea;stroke:#348fea;" x="360.040204" xlink:href="#m038d1aad41" y="70.954042"/>
     <use style="fill:#348fea;stroke:#348fea;" x="483.743568" xlink:href="#m038d1aad41" y="173.031029"/>
     <use style="fill:#348fea;stroke:#348fea;" x="449.455196" xlink:href="#m038d1aad41" y="141.257434"/>
     <use style="fill:#348fea;stroke:#348fea;" x="444.359151" xlink:href="#m038d1aad41" y="186.547989"/>
     <use style="fill:#348fea;stroke:#348fea;" x="489.009098" xlink:href="#m038d1aad41" y="171.1168"/>
     <use style="fill:#348fea;stroke:#348fea;" x="506.68132" xlink:href="#m038d1aad41" y="186.922457"/>
     <use style="fill:#348fea;stroke:#348fea;" x="457.958214" xlink:href="#m038d1aad41" y="155.332423"/>
     <use style="fill:#348fea;stroke:#348fea;" x="383.643398" xlink:href="#m038d1aad41" y="55.506778"/>
     <use style="fill:#348fea;stroke:#348fea;" x="419.916391" xlink:href="#m038d1aad41" y="157.739841"/>
     <use style="fill:#348fea;stroke:#348fea;" x="520.30997" xlink:href="#m038d1aad41" y="194.926076"/>
     <use style="fill:#348fea;stroke:#348fea;" x="398.629693" xlink:href="#m038d1aad41" y="126.578776"/>
     <use style="fill:#348fea;stroke:#348fea;" x="494.853102" xlink:href="#m038d1aad41" y="186.496615"/>
     <use style="fill:#348fea;stroke:#348fea;" x="494.325616" xlink:href="#m038d1aad41" y="170.219819"/>
     <use style="fill:#348fea;stroke:#348fea;" x="413.970139" xlink:href="#m038d1aad41" y="215.515356"/>
     <use style="fill:#348fea;stroke:#348fea;" x="372.577247" xlink:href="#m038d1aad41" y="119.682222"/>
     <use style="fill:#348fea;stroke:#348fea;" x="356.029595" xlink:href="#m038d1aad41" y="103.993961"/>
     <use style="fill:#348fea;stroke:#348fea;" x="455.324175" xlink:href="#m038d1aad41" y="168.027388"/>
     <use style="fill:#348fea;stroke:#348fea;" x="444.613914" xlink:href="#m038d1aad41" y="128.176894"/>
     <use style="fill:#348fea;stroke:#348fea;" x="409.450339" xlink:href="#m038d1aad41" y="129.037903"/>
     <use style="fill:#348fea;stroke:#348fea;" x="428.255122" xlink:href="#m038d1aad41" y="157.179262"/>
     <use style="fill:#348fea;stroke:#348fea;" x="510.027136" xlink:href="#m038d1aad41" y="248.24432"/>
     <use style="fill:#348fea;stroke:#348fea;" x="485.787841" xlink:href="#m038d1aad41" y="189.685453"/>
     <use style="fill:#348fea;stroke:#348fea;" x="363.459533" xlink:href="#m038d1aad41" y="93.474233"/>
     <use style="fill:#348fea;stroke:#348fea;" x="461.193122" xlink:href="#m038d1aad41" y="152.634308"/>
     <use style="fill:#348fea;stroke:#348fea;" x="468.509749" xlink:href="#m038d1aad41" y="169.498521"/>
     <use style="fill:#348fea;stroke:#348fea;" x="511.773656" xlink:href="#m038d1aad41" y="179.535946"/>
     <use style="fill:#348fea;stroke:#348fea;" x="383.202287" xlink:href="#m038d1aad41" y="114.656418"/>
     <use style="fill:#348fea;stroke:#348fea;" x="526.330774" xlink:href="#m038d1aad41" y="198.136576"/>
     <use style="fill:#348fea;stroke:#348fea;" x="446.757734" xlink:href="#m038d1aad41" y="135.92081"/>
     <use style="fill:#348fea;stroke:#348fea;" x="408.507972" xlink:href="#m038d1aad41" y="111.270908"/>
     <use style="fill:#348fea;stroke:#348fea;" x="435.680435" xlink:href="#m038d1aad41" y="192.753261"/>
     <use style="fill:#348fea;stroke:#348fea;" x="520.073106" xlink:href="#m038d1aad41" y="225.609563"/>
     <use style="fill:#348fea;stroke:#348fea;" x="373.162146" xlink:href="#m038d1aad41" y="113.145669"/>
     <use style="fill:#348fea;stroke:#348fea;" x="455.722033" xlink:href="#m038d1aad41" y="142.418757"/>
     <use style="fill:#348fea;stroke:#348fea;" x="443.039094" xlink:href="#m038d1aad41" y="168.687065"/>
     <use style="fill:#348fea;stroke:#348fea;" x="421.802143" xlink:href="#m038d1aad41" y="162.540916"/>
     <use style="fill:#348fea;stroke:#348fea;" x="439.268745" xlink:href="#m038d1aad41" y="165.405431"/>
     <use style="fill:#348fea;stroke:#348fea;" x="486.976152" xlink:href="#m038d1aad41" y="182.809966"/>
     <use style="fill:#348fea;stroke:#348fea;" x="408.593104" xlink:href="#m038d1aad41" y="122.64825"/>
     <use style="fill:#348fea;stroke:#348fea;" x="505.981942" xlink:href="#m038d1aad41" y="212.996404"/>
     <use style="fill:#348fea;stroke:#348fea;" x="400.725547" xlink:href="#m038d1aad41" y="112.222765"/>
     <use style="fill:#348fea;stroke:#348fea;" x="474.819304" xlink:href="#m038d1aad41" y="117.714391"/>
     <use style="fill:#348fea;stroke:#348fea;" x="399.207318" xlink:href="#m038d1aad41" y="167.353016"/>
     <use style="fill:#348fea;stroke:#348fea;" x="530.664232" xlink:href="#m038d1aad41" y="181.310058"/>
     <use style="fill:#348fea;stroke:#348fea;" x="387.888695" xlink:href="#m038d1aad41" y="117.736467"/>
     <use style="fill:#348fea;stroke:#348fea;" x="505.694622" xlink:href="#m038d1aad41" y="173.437436"/>
     <use style="fill:#348fea;stroke:#348fea;" x="501.57216" xlink:href="#m038d1aad41" y="202.09369"/>
     <use style="fill:#348fea;stroke:#348fea;" x="526.785817" xlink:href="#m038d1aad41" y="184.179655"/>
     <use style="fill:#348fea;stroke:#348fea;" x="473.630302" xlink:href="#m038d1aad41" y="174.560986"/>
     <use style="fill:#348fea;stroke:#348fea;" x="367.313164" xlink:href="#m038d1aad41" y="89.942774"/>
     <use style="fill:#348fea;stroke:#348fea;" x="447.127813" xlink:href="#m038d1aad41" y="154.658418"/>
     <use style="fill:#348fea;stroke:#348fea;" x="404.650426" xlink:href="#m038d1aad41" y="114.876509"/>
    </g>
   </g>
   <g id="matplotlib.axis_3">
    <g id="xtick_6">
     <g id="line2d_15">
      <g>
       <use style="stroke:#000000;stroke-width:0.8;" x="353.281283" xlink:href="#m64a20e8b9e" y="252"/>
      </g>
     </g>
     <g id="text_15">
      <!-- −2 -->
      <g transform="translate(345.91019 266.598437)scale(0.1 -0.1)">
       <use xlink:href="#DejaVuSans-8722"/>
       <use x="83.789062" xlink:href="#DejaVuSans-50"/>
      </g>
     </g>
    </g>
    <g id="xtick_7">
     <g id="line2d_16">
      <g>
       <use style="stroke:#000000;stroke-width:0.8;" x="398.092325" xlink:href="#m64a20e8b9e" y="252"/>
      </g>
     </g>
     <g id="text_16">
      <!-- −1 -->
      <g transform="translate(390.721231 266.598437)scale(0.1 -0.1)">
       <use xlink:href="#DejaVuSans-8722"/>
       <use x="83.789062" xlink:href="#DejaVuSans-49"/>
      </g>
     </g>
    </g>
    <g id="xtick_8">
     <g id="line2d_17">
      <g>
       <use style="stroke:#000000;stroke-width:0.8;" x="442.903366" xlink:href="#m64a20e8b9e" y="252"/>
      </g>
     </g>
     <g id="text_17">
      <!-- 0 -->
      <g transform="translate(439.722116 266.598437)scale(0.1 -0.1)">
       <use xlink:href="#DejaVuSans-48"/>
      </g>
     </g>
    </g>
    <g id="xtick_9">
     <g id="line2d_18">
      <g>
       <use style="stroke:#000000;stroke-width:0.8;" x="487.714407" xlink:href="#m64a20e8b9e" y="252"/>
      </g>
     </g>
     <g id="text_18">
      <!-- 1 -->
      <g transform="translate(484.533157 266.598437)scale(0.1 -0.1)">
       <use xlink:href="#DejaVuSans-49"/>
      </g>
     </g>
    </g>
    <g id="xtick_10">
     <g id="line2d_19">
      <g>
       <use style="stroke:#000000;stroke-width:0.8;" x="532.525448" xlink:href="#m64a20e8b9e" y="252"/>
      </g>
     </g>
     <g id="text_19">
      <!-- 2 -->
      <g transform="translate(529.344198 266.598437)scale(0.1 -0.1)">
       <use xlink:href="#DejaVuSans-50"/>
      </g>
     </g>
    </g>
   </g>
   <g id="matplotlib.axis_4">
    <g id="ytick_9">
     <g id="line2d_20">
      <g>
       <use style="stroke:#000000;stroke-width:0.8;" x="344.329412" xlink:href="#m0c25ca7a9c" y="246.564"/>
      </g>
     </g>
     <g id="text_20">
      <!-- −7.5 -->
      <g transform="translate(313.046599 250.363219)scale(0.1 -0.1)">
       <use xlink:href="#DejaVuSans-8722"/>
       <use x="83.789062" xlink:href="#DejaVuSans-55"/>
       <use x="147.412109" xlink:href="#DejaVuSans-46"/>
       <use x="179.199219" xlink:href="#DejaVuSans-53"/>
      </g>
     </g>
    </g>
    <g id="ytick_10">
     <g id="line2d_21">
      <g>
       <use style="stroke:#000000;stroke-width:0.8;" x="344.329412" xlink:href="#m0c25ca7a9c" y="219.384"/>
      </g>
     </g>
     <g id="text_21">
      <!-- −5.0 -->
      <g transform="translate(313.046599 223.183219)scale(0.1 -0.1)">
       <use xlink:href="#DejaVuSans-8722"/>
       <use x="83.789062" xlink:href="#DejaVuSans-53"/>
       <use x="147.412109" xlink:href="#DejaVuSans-46"/>
       <use x="179.199219" xlink:href="#DejaVuSans-48"/>
      </g>
     </g>
    </g>
    <g id="ytick_11">
     <g id="line2d_22">
      <g>
       <use style="stroke:#000000;stroke-width:0.8;" x="344.329412" xlink:href="#m0c25ca7a9c" y="192.204"/>
      </g>
     </g>
     <g id="text_22">
      <!-- −2.5 -->
      <g transform="translate(313.046599 196.003219)scale(0.1 -0.1)">
       <use xlink:href="#DejaVuSans-8722"/>
       <use x="83.789062" xlink:href="#DejaVuSans-50"/>
       <use x="147.412109" xlink:href="#DejaVuSans-46"/>
       <use x="179.199219" xlink:href="#DejaVuSans-53"/>
      </g>
     </g>
    </g>
    <g id="ytick_12">
     <g id="line2d_23">
      <g>
       <use style="stroke:#000000;stroke-width:0.8;" x="344.329412" xlink:href="#m0c25ca7a9c" y="165.024"/>
      </g>
     </g>
     <g id="text_23">
      <!-- 0.0 -->
      <g transform="translate(321.426287 168.823219)scale(0.1 -0.1)">
       <use xlink:href="#DejaVuSans-48"/>
       <use x="63.623047" xlink:href="#DejaVuSans-46"/>
       <use x="95.410156" xlink:href="#DejaVuSans-48"/>
      </g>
     </g>
    </g>
    <g id="ytick_13">
     <g id="line2d_24">
      <g>
       <use style="stroke:#000000;stroke-width:0.8;" x="344.329412" xlink:href="#m0c25ca7a9c" y="137.844"/>
      </g>
     </g>
     <g id="text_24">
      <!-- 2.5 -->
      <g transform="translate(321.426287 141.643219)scale(0.1 -0.1)">
       <use xlink:href="#DejaVuSans-50"/>
       <use x="63.623047" xlink:href="#DejaVuSans-46"/>
       <use x="95.410156" xlink:href="#DejaVuSans-53"/>
      </g>
     </g>
    </g>
    <g id="ytick_14">
     <g id="line2d_25">
      <g>
       <use style="stroke:#000000;stroke-width:0.8;" x="344.329412" xlink:href="#m0c25ca7a9c" y="110.664"/>
      </g>
     </g>
     <g id="text_25">
      <!-- 5.0 -->
      <g transform="translate(321.426287 114.463219)scale(0.1 -0.1)">
       <use xlink:href="#DejaVuSans-53"/>
       <use x="63.623047" xlink:href="#DejaVuSans-46"/>
       <use x="95.410156" xlink:href="#DejaVuSans-48"/>
      </g>
     </g>
    </g>
    <g id="ytick_15">
     <g id="line2d_26">
      <g>
       <use style="stroke:#000000;stroke-width:0.8;" x="344.329412" xlink:href="#m0c25ca7a9c" y="83.484"/>
      </g>
     </g>
     <g id="text_26">
      <!-- 7.5 -->
      <g transform="translate(321.426287 87.283219)scale(0.1 -0.1)">
       <use xlink:href="#DejaVuSans-55"/>
       <use x="63.623047" xlink:href="#DejaVuSans-46"/>
       <use x="95.410156" xlink:href="#DejaVuSans-53"/>
      </g>
     </g>
    </g>
    <g id="ytick_16">
     <g id="line2d_27">
      <g>
       <use style="stroke:#000000;stroke-width:0.8;" x="344.329412" xlink:href="#m0c25ca7a9c" y="56.304"/>
      </g>
     </g>
     <g id="text_27">
      <!-- 10.0 -->
      <g transform="translate(315.063787 60.103219)scale(0.1 -0.1)">
       <use xlink:href="#DejaVuSans-49"/>
       <use x="63.623047" xlink:href="#DejaVuSans-48"/>
       <use x="127.246094" xlink:href="#DejaVuSans-46"/>
       <use x="159.033203" xlink:href="#DejaVuSans-48"/>
      </g>
     </g>
    </g>
   </g>
   <g id="line2d_28">
    <path clip-path="url(#p7fe99ad140)" d="M 353.281283 110.664 
L 357.762388 110.824362 
L 362.243492 111.294576 
L 366.724596 112.058334 
L 371.2057 113.099328 
L 375.686804 114.40125 
L 380.167908 115.947792 
L 384.649012 117.722646 
L 389.130116 119.709504 
L 393.61122 121.892058 
L 398.092325 124.254 
L 402.573429 126.779022 
L 407.054533 129.450816 
L 411.535637 132.253074 
L 416.016741 135.169488 
L 420.497845 138.18375 
L 424.978949 141.279552 
L 429.460053 144.440586 
L 433.941157 147.650544 
L 438.422262 150.893118 
L 442.903366 154.152 
L 447.38447 157.410882 
L 451.865574 160.653456 
L 456.346678 163.863414 
L 460.827782 167.024448 
L 465.308886 170.12025 
L 469.78999 173.134512 
L 474.271094 176.050926 
L 478.752199 178.853184 
L 483.233303 181.524978 
L 487.714407 184.05 
L 492.195511 186.411942 
L 496.676615 188.594496 
L 501.157719 190.581354 
L 505.638823 192.356208 
L 510.119927 193.90275 
L 514.601032 195.204672 
L 519.082136 196.245666 
L 523.56324 197.009424 
L 528.044344 197.479638 
" style="fill:none;stroke:#ffc100;stroke-linecap:square;stroke-width:1.5;"/>
   </g>
   <g id="patch_8">
    <path d="M 344.329412 252 
L 344.329412 34.56 
" style="fill:none;stroke:#000000;stroke-linecap:square;stroke-linejoin:miter;stroke-width:0.8;"/>
   </g>
   <g id="patch_9">
    <path d="M 541.270588 252 
L 541.270588 34.56 
" style="fill:none;stroke:#000000;stroke-linecap:square;stroke-linejoin:miter;stroke-width:0.8;"/>
   </g>
   <g id="patch_10">
    <path d="M 344.329412 252 
L 541.270588 252 
" style="fill:none;stroke:#000000;stroke-linecap:square;stroke-linejoin:miter;stroke-width:0.8;"/>
   </g>
   <g id="patch_11">
    <path d="M 344.329412 34.56 
L 541.270588 34.56 
" style="fill:none;stroke:#000000;stroke-linecap:square;stroke-linejoin:miter;stroke-width:0.8;"/>
   </g>
   <g id="text_28">
    <!-- laplace -->
    <defs>
     <path d="M 18.109375 8.203125 
L 18.109375 -20.796875 
L 9.078125 -20.796875 
L 9.078125 54.6875 
L 18.109375 54.6875 
L 18.109375 46.390625 
Q 20.953125 51.265625 25.265625 53.625 
Q 29.59375 56 35.59375 56 
Q 45.5625 56 51.78125 48.09375 
Q 58.015625 40.1875 58.015625 27.296875 
Q 58.015625 14.40625 51.78125 6.484375 
Q 45.5625 -1.421875 35.59375 -1.421875 
Q 29.59375 -1.421875 25.265625 0.953125 
Q 20.953125 3.328125 18.109375 8.203125 
z
M 48.6875 27.296875 
Q 48.6875 37.203125 44.609375 42.84375 
Q 40.53125 48.484375 33.40625 48.484375 
Q 26.265625 48.484375 22.1875 42.84375 
Q 18.109375 37.203125 18.109375 27.296875 
Q 18.109375 17.390625 22.1875 11.75 
Q 26.265625 6.109375 33.40625 6.109375 
Q 40.53125 6.109375 44.609375 11.75 
Q 48.6875 17.390625 48.6875 27.296875 
z
" id="DejaVuSans-112"/>
     <path d="M 48.78125 52.59375 
L 48.78125 44.1875 
Q 44.96875 46.296875 41.140625 47.34375 
Q 37.3125 48.390625 33.40625 48.390625 
Q 24.65625 48.390625 19.8125 42.84375 
Q 14.984375 37.3125 14.984375 27.296875 
Q 14.984375 17.28125 19.8125 11.734375 
Q 24.65625 6.203125 33.40625 6.203125 
Q 37.3125 6.203125 41.140625 7.25 
Q 44.96875 8.296875 48.78125 10.40625 
L 48.78125 2.09375 
Q 45.015625 0.34375 40.984375 -0.53125 
Q 36.96875 -1.421875 32.421875 -1.421875 
Q 20.0625 -1.421875 12.78125 6.34375 
Q 5.515625 14.109375 5.515625 27.296875 
Q 5.515625 40.671875 12.859375 48.328125 
Q 20.21875 56 33.015625 56 
Q 37.15625 56 41.109375 55.140625 
Q 45.0625 54.296875 48.78125 52.59375 
z
" id="DejaVuSans-99"/>
     <path d="M 56.203125 29.59375 
L 56.203125 25.203125 
L 14.890625 25.203125 
Q 15.484375 15.921875 20.484375 11.0625 
Q 25.484375 6.203125 34.421875 6.203125 
Q 39.59375 6.203125 44.453125 7.46875 
Q 49.3125 8.734375 54.109375 11.28125 
L 54.109375 2.78125 
Q 49.265625 0.734375 44.1875 -0.34375 
Q 39.109375 -1.421875 33.890625 -1.421875 
Q 20.796875 -1.421875 13.15625 6.1875 
Q 5.515625 13.8125 5.515625 26.8125 
Q 5.515625 40.234375 12.765625 48.109375 
Q 20.015625 56 32.328125 56 
Q 43.359375 56 49.78125 48.890625 
Q 56.203125 41.796875 56.203125 29.59375 
z
M 47.21875 32.234375 
Q 47.125 39.59375 43.09375 43.984375 
Q 39.0625 48.390625 32.421875 48.390625 
Q 24.90625 48.390625 20.390625 44.140625 
Q 15.875 39.890625 15.1875 32.171875 
z
" id="DejaVuSans-101"/>
    </defs>
    <g transform="translate(421.3125 28.56)scale(0.12 -0.12)">
     <use xlink:href="#DejaVuSans-108"/>
     <use x="27.783203" xlink:href="#DejaVuSans-97"/>
     <use x="89.0625" xlink:href="#DejaVuSans-112"/>
     <use x="152.539062" xlink:href="#DejaVuSans-108"/>
     <use x="180.322266" xlink:href="#DejaVuSans-97"/>
     <use x="241.601562" xlink:href="#DejaVuSans-99"/>
     <use x="296.582031" xlink:href="#DejaVuSans-101"/>
    </g>
   </g>
  </g>
  <g id="axes_3">
   <g id="patch_12">
    <path d="M 580.658824 252 
L 777.6 252 
L 777.6 34.56 
L 580.658824 34.56 
z
" style="fill:#ffffff;"/>
   </g>
   <g id="PathCollection_3">
    <g clip-path="url(#p39d9f832b5)">
     <use style="fill:#348fea;stroke:#348fea;" x="717.7277" xlink:href="#m038d1aad41" y="138.40443"/>
     <use style="fill:#348fea;stroke:#348fea;" x="705.344175" xlink:href="#m038d1aad41" y="149.891143"/>
     <use style="fill:#348fea;stroke:#348fea;" x="745.283515" xlink:href="#m038d1aad41" y="190.746205"/>
     <use style="fill:#348fea;stroke:#348fea;" x="605.861048" xlink:href="#m038d1aad41" y="103.376314"/>
     <use style="fill:#348fea;stroke:#348fea;" x="668.000331" xlink:href="#m038d1aad41" y="129.534497"/>
     <use style="fill:#348fea;stroke:#348fea;" x="705.787535" xlink:href="#m038d1aad41" y="163.839411"/>
     <use style="fill:#348fea;stroke:#348fea;" x="593.639075" xlink:href="#m038d1aad41" y="101.574737"/>
     <use style="fill:#348fea;stroke:#348fea;" x="659.596794" xlink:href="#m038d1aad41" y="125.385853"/>
     <use style="fill:#348fea;stroke:#348fea;" x="608.110474" xlink:href="#m038d1aad41" y="106.54457"/>
     <use style="fill:#348fea;stroke:#348fea;" x="754.365833" xlink:href="#m038d1aad41" y="185.056514"/>
     <use style="fill:#348fea;stroke:#348fea;" x="634.568545" xlink:href="#m038d1aad41" y="81.687701"/>
     <use style="fill:#348fea;stroke:#348fea;" x="620.236045" xlink:href="#m038d1aad41" y="104.388831"/>
     <use style="fill:#348fea;stroke:#348fea;" x="728.448971" xlink:href="#m038d1aad41" y="173.351482"/>
     <use style="fill:#348fea;stroke:#348fea;" x="629.7648" xlink:href="#m038d1aad41" y="95.301986"/>
     <use style="fill:#348fea;stroke:#348fea;" x="741.710421" xlink:href="#m038d1aad41" y="180.483401"/>
     <use style="fill:#348fea;stroke:#348fea;" x="604.527084" xlink:href="#m038d1aad41" y="105.322773"/>
     <use style="fill:#348fea;stroke:#348fea;" x="765.861827" xlink:href="#m038d1aad41" y="187.732809"/>
     <use style="fill:#348fea;stroke:#348fea;" x="668.367208" xlink:href="#m038d1aad41" y="110.512622"/>
     <use style="fill:#348fea;stroke:#348fea;" x="623.582538" xlink:href="#m038d1aad41" y="87.273916"/>
     <use style="fill:#348fea;stroke:#348fea;" x="593.283425" xlink:href="#m038d1aad41" y="94.632882"/>
     <use style="fill:#348fea;stroke:#348fea;" x="713.179241" xlink:href="#m038d1aad41" y="146.080981"/>
     <use style="fill:#348fea;stroke:#348fea;" x="620.98915" xlink:href="#m038d1aad41" y="115.937995"/>
     <use style="fill:#348fea;stroke:#348fea;" x="751.239596" xlink:href="#m038d1aad41" y="192.4821"/>
     <use style="fill:#348fea;stroke:#348fea;" x="631.625623" xlink:href="#m038d1aad41" y="101.557746"/>
     <use style="fill:#348fea;stroke:#348fea;" x="714.939342" xlink:href="#m038d1aad41" y="104.622266"/>
     <use style="fill:#348fea;stroke:#348fea;" x="757.802334" xlink:href="#m038d1aad41" y="193.841701"/>
     <use style="fill:#348fea;stroke:#348fea;" x="589.912389" xlink:href="#m038d1aad41" y="96.967825"/>
     <use style="fill:#348fea;stroke:#348fea;" x="677.423291" xlink:href="#m038d1aad41" y="82.442121"/>
     <use style="fill:#348fea;stroke:#348fea;" x="720.179604" xlink:href="#m038d1aad41" y="168.955113"/>
     <use style="fill:#348fea;stroke:#348fea;" x="638.010493" xlink:href="#m038d1aad41" y="125.604621"/>
     <use style="fill:#348fea;stroke:#348fea;" x="761.144644" xlink:href="#m038d1aad41" y="159.97835"/>
     <use style="fill:#348fea;stroke:#348fea;" x="592.611759" xlink:href="#m038d1aad41" y="109.762691"/>
     <use style="fill:#348fea;stroke:#348fea;" x="683.962182" xlink:href="#m038d1aad41" y="127.989695"/>
     <use style="fill:#348fea;stroke:#348fea;" x="761.040453" xlink:href="#m038d1aad41" y="180.436907"/>
     <use style="fill:#348fea;stroke:#348fea;" x="625.538827" xlink:href="#m038d1aad41" y="115.104119"/>
     <use style="fill:#348fea;stroke:#348fea;" x="648.70905" xlink:href="#m038d1aad41" y="75.639868"/>
     <use style="fill:#348fea;stroke:#348fea;" x="638.060713" xlink:href="#m038d1aad41" y="115.981628"/>
     <use style="fill:#348fea;stroke:#348fea;" x="692.386582" xlink:href="#m038d1aad41" y="136.882605"/>
     <use style="fill:#348fea;stroke:#348fea;" x="625.106253" xlink:href="#m038d1aad41" y="118.389939"/>
     <use style="fill:#348fea;stroke:#348fea;" x="679.506217" xlink:href="#m038d1aad41" y="121.17126"/>
     <use style="fill:#348fea;stroke:#348fea;" x="754.554933" xlink:href="#m038d1aad41" y="173.081675"/>
     <use style="fill:#348fea;stroke:#348fea;" x="723.240685" xlink:href="#m038d1aad41" y="159.460048"/>
     <use style="fill:#348fea;stroke:#348fea;" x="609.687509" xlink:href="#m038d1aad41" y="97.653303"/>
     <use style="fill:#348fea;stroke:#348fea;" x="598.422313" xlink:href="#m038d1aad41" y="106.293378"/>
     <use style="fill:#348fea;stroke:#348fea;" x="730.84531" xlink:href="#m038d1aad41" y="113.506177"/>
     <use style="fill:#348fea;stroke:#348fea;" x="596.436509" xlink:href="#m038d1aad41" y="69.926959"/>
     <use style="fill:#348fea;stroke:#348fea;" x="734.402996" xlink:href="#m038d1aad41" y="167.662695"/>
     <use style="fill:#348fea;stroke:#348fea;" x="729.90537" xlink:href="#m038d1aad41" y="185.261892"/>
     <use style="fill:#348fea;stroke:#348fea;" x="679.51652" xlink:href="#m038d1aad41" y="149.600866"/>
     <use style="fill:#348fea;stroke:#348fea;" x="754.416438" xlink:href="#m038d1aad41" y="174.529551"/>
     <use style="fill:#348fea;stroke:#348fea;" x="654.661626" xlink:href="#m038d1aad41" y="126.905832"/>
     <use style="fill:#348fea;stroke:#348fea;" x="726.02732" xlink:href="#m038d1aad41" y="170.025461"/>
     <use style="fill:#348fea;stroke:#348fea;" x="701.99593" xlink:href="#m038d1aad41" y="164.474163"/>
     <use style="fill:#348fea;stroke:#348fea;" x="610.875394" xlink:href="#m038d1aad41" y="106.997099"/>
     <use style="fill:#348fea;stroke:#348fea;" x="710.708224" xlink:href="#m038d1aad41" y="170.03654"/>
     <use style="fill:#348fea;stroke:#348fea;" x="767.779277" xlink:href="#m038d1aad41" y="187.965874"/>
     <use style="fill:#348fea;stroke:#348fea;" x="679.730183" xlink:href="#m038d1aad41" y="98.047179"/>
     <use style="fill:#348fea;stroke:#348fea;" x="608.218496" xlink:href="#m038d1aad41" y="105.201405"/>
     <use style="fill:#348fea;stroke:#348fea;" x="658.818597" xlink:href="#m038d1aad41" y="132.464122"/>
     <use style="fill:#348fea;stroke:#348fea;" x="678.995755" xlink:href="#m038d1aad41" y="130.312228"/>
     <use style="fill:#348fea;stroke:#348fea;" x="668.434455" xlink:href="#m038d1aad41" y="134.753663"/>
     <use style="fill:#348fea;stroke:#348fea;" x="632.778139" xlink:href="#m038d1aad41" y="79.631788"/>
     <use style="fill:#348fea;stroke:#348fea;" x="641.258717" xlink:href="#m038d1aad41" y="103.705557"/>
     <use style="fill:#348fea;stroke:#348fea;" x="607.672836" xlink:href="#m038d1aad41" y="107.512273"/>
     <use style="fill:#348fea;stroke:#348fea;" x="766.333459" xlink:href="#m038d1aad41" y="189.442635"/>
     <use style="fill:#348fea;stroke:#348fea;" x="590.968533" xlink:href="#m038d1aad41" y="103.686031"/>
     <use style="fill:#348fea;stroke:#348fea;" x="631.591254" xlink:href="#m038d1aad41" y="101.143189"/>
     <use style="fill:#348fea;stroke:#348fea;" x="641.506751" xlink:href="#m038d1aad41" y="118.75991"/>
     <use style="fill:#348fea;stroke:#348fea;" x="693.756944" xlink:href="#m038d1aad41" y="152.806769"/>
     <use style="fill:#348fea;stroke:#348fea;" x="693.372077" xlink:href="#m038d1aad41" y="160.508585"/>
     <use style="fill:#348fea;stroke:#348fea;" x="636.39323" xlink:href="#m038d1aad41" y="117.478524"/>
     <use style="fill:#348fea;stroke:#348fea;" x="657.281643" xlink:href="#m038d1aad41" y="136.456268"/>
     <use style="fill:#348fea;stroke:#348fea;" x="599.120146" xlink:href="#m038d1aad41" y="101.944249"/>
     <use style="fill:#348fea;stroke:#348fea;" x="645.752781" xlink:href="#m038d1aad41" y="98.137854"/>
     <use style="fill:#348fea;stroke:#348fea;" x="620.53688" xlink:href="#m038d1aad41" y="103.812464"/>
     <use style="fill:#348fea;stroke:#348fea;" x="610.735937" xlink:href="#m038d1aad41" y="79.293913"/>
     <use style="fill:#348fea;stroke:#348fea;" x="699.73966" xlink:href="#m038d1aad41" y="164.067189"/>
     <use style="fill:#348fea;stroke:#348fea;" x="591.01491" xlink:href="#m038d1aad41" y="94.058268"/>
     <use style="fill:#348fea;stroke:#348fea;" x="711.627941" xlink:href="#m038d1aad41" y="154.148401"/>
     <use style="fill:#348fea;stroke:#348fea;" x="740.323046" xlink:href="#m038d1aad41" y="184.325736"/>
     <use style="fill:#348fea;stroke:#348fea;" x="695.365505" xlink:href="#m038d1aad41" y="158.319216"/>
     <use style="fill:#348fea;stroke:#348fea;" x="716.918013" xlink:href="#m038d1aad41" y="128.581658"/>
     <use style="fill:#348fea;stroke:#348fea;" x="650.895405" xlink:href="#m038d1aad41" y="125.535516"/>
     <use style="fill:#348fea;stroke:#348fea;" x="692.869651" xlink:href="#m038d1aad41" y="12.133855"/>
     <use style="fill:#348fea;stroke:#348fea;" x="674.011752" xlink:href="#m038d1aad41" y="142.898278"/>
     <use style="fill:#348fea;stroke:#348fea;" x="747.000286" xlink:href="#m038d1aad41" y="170.387128"/>
     <use style="fill:#348fea;stroke:#348fea;" x="742.996406" xlink:href="#m038d1aad41" y="174.622436"/>
     <use style="fill:#348fea;stroke:#348fea;" x="672.223251" xlink:href="#m038d1aad41" y="141.988156"/>
     <use style="fill:#348fea;stroke:#348fea;" x="626.919312" xlink:href="#m038d1aad41" y="109.148136"/>
     <use style="fill:#348fea;stroke:#348fea;" x="708.370017" xlink:href="#m038d1aad41" y="117.395048"/>
     <use style="fill:#348fea;stroke:#348fea;" x="676.408641" xlink:href="#m038d1aad41" y="92.561491"/>
     <use style="fill:#348fea;stroke:#348fea;" x="641.996197" xlink:href="#m038d1aad41" y="117.792685"/>
     <use style="fill:#348fea;stroke:#348fea;" x="630.953051" xlink:href="#m038d1aad41" y="113.884763"/>
     <use style="fill:#348fea;stroke:#348fea;" x="656.58742" xlink:href="#m038d1aad41" y="130.462087"/>
     <use style="fill:#348fea;stroke:#348fea;" x="737.101701" xlink:href="#m038d1aad41" y="156.210797"/>
     <use style="fill:#348fea;stroke:#348fea;" x="614.510106" xlink:href="#m038d1aad41" y="114.05569"/>
     <use style="fill:#348fea;stroke:#348fea;" x="601.914229" xlink:href="#m038d1aad41" y="62.892487"/>
     <use style="fill:#348fea;stroke:#348fea;" x="765.324936" xlink:href="#m038d1aad41" y="139.350659"/>
     <use style="fill:#348fea;stroke:#348fea;" x="691.940229" xlink:href="#m038d1aad41" y="156.497055"/>
     <use style="fill:#348fea;stroke:#348fea;" x="686.868843" xlink:href="#m038d1aad41" y="117.471922"/>
    </g>
   </g>
   <g id="matplotlib.axis_5">
    <g id="xtick_11">
     <g id="line2d_29">
      <g>
       <use style="stroke:#000000;stroke-width:0.8;" x="589.610695" xlink:href="#m64a20e8b9e" y="252"/>
      </g>
     </g>
     <g id="text_29">
      <!-- −2 -->
      <g transform="translate(582.239601 266.598437)scale(0.1 -0.1)">
       <use xlink:href="#DejaVuSans-8722"/>
       <use x="83.789062" xlink:href="#DejaVuSans-50"/>
      </g>
     </g>
    </g>
    <g id="xtick_12">
     <g id="line2d_30">
      <g>
       <use style="stroke:#000000;stroke-width:0.8;" x="635.517729" xlink:href="#m64a20e8b9e" y="252"/>
      </g>
     </g>
     <g id="text_30">
      <!-- −1 -->
      <g transform="translate(628.146636 266.598437)scale(0.1 -0.1)">
       <use xlink:href="#DejaVuSans-8722"/>
       <use x="83.789062" xlink:href="#DejaVuSans-49"/>
      </g>
     </g>
    </g>
    <g id="xtick_13">
     <g id="line2d_31">
      <g>
       <use style="stroke:#000000;stroke-width:0.8;" x="681.424763" xlink:href="#m64a20e8b9e" y="252"/>
      </g>
     </g>
     <g id="text_31">
      <!-- 0 -->
      <g transform="translate(678.243513 266.598437)scale(0.1 -0.1)">
       <use xlink:href="#DejaVuSans-48"/>
      </g>
     </g>
    </g>
    <g id="xtick_14">
     <g id="line2d_32">
      <g>
       <use style="stroke:#000000;stroke-width:0.8;" x="727.331798" xlink:href="#m64a20e8b9e" y="252"/>
      </g>
     </g>
     <g id="text_32">
      <!-- 1 -->
      <g transform="translate(724.150548 266.598437)scale(0.1 -0.1)">
       <use xlink:href="#DejaVuSans-49"/>
      </g>
     </g>
    </g>
    <g id="xtick_15">
     <g id="line2d_33">
      <g>
       <use style="stroke:#000000;stroke-width:0.8;" x="773.238832" xlink:href="#m64a20e8b9e" y="252"/>
      </g>
     </g>
     <g id="text_33">
      <!-- 2 -->
      <g transform="translate(770.057582 266.598437)scale(0.1 -0.1)">
       <use xlink:href="#DejaVuSans-50"/>
      </g>
     </g>
    </g>
   </g>
   <g id="matplotlib.axis_6">
    <g id="ytick_17">
     <g id="line2d_34">
      <g>
       <use style="stroke:#000000;stroke-width:0.8;" x="580.658824" xlink:href="#m0c25ca7a9c" y="246.564"/>
      </g>
     </g>
     <g id="text_34">
      <!-- −7.5 -->
      <g transform="translate(549.376011 250.363219)scale(0.1 -0.1)">
       <use xlink:href="#DejaVuSans-8722"/>
       <use x="83.789062" xlink:href="#DejaVuSans-55"/>
       <use x="147.412109" xlink:href="#DejaVuSans-46"/>
       <use x="179.199219" xlink:href="#DejaVuSans-53"/>
      </g>
     </g>
    </g>
    <g id="ytick_18">
     <g id="line2d_35">
      <g>
       <use style="stroke:#000000;stroke-width:0.8;" x="580.658824" xlink:href="#m0c25ca7a9c" y="219.384"/>
      </g>
     </g>
     <g id="text_35">
      <!-- −5.0 -->
      <g transform="translate(549.376011 223.183219)scale(0.1 -0.1)">
       <use xlink:href="#DejaVuSans-8722"/>
       <use x="83.789062" xlink:href="#DejaVuSans-53"/>
       <use x="147.412109" xlink:href="#DejaVuSans-46"/>
       <use x="179.199219" xlink:href="#DejaVuSans-48"/>
      </g>
     </g>
    </g>
    <g id="ytick_19">
     <g id="line2d_36">
      <g>
       <use style="stroke:#000000;stroke-width:0.8;" x="580.658824" xlink:href="#m0c25ca7a9c" y="192.204"/>
      </g>
     </g>
     <g id="text_36">
      <!-- −2.5 -->
      <g transform="translate(549.376011 196.003219)scale(0.1 -0.1)">
       <use xlink:href="#DejaVuSans-8722"/>
       <use x="83.789062" xlink:href="#DejaVuSans-50"/>
       <use x="147.412109" xlink:href="#DejaVuSans-46"/>
       <use x="179.199219" xlink:href="#DejaVuSans-53"/>
      </g>
     </g>
    </g>
    <g id="ytick_20">
     <g id="line2d_37">
      <g>
       <use style="stroke:#000000;stroke-width:0.8;" x="580.658824" xlink:href="#m0c25ca7a9c" y="165.024"/>
      </g>
     </g>
     <g id="text_37">
      <!-- 0.0 -->
      <g transform="translate(557.755699 168.823219)scale(0.1 -0.1)">
       <use xlink:href="#DejaVuSans-48"/>
       <use x="63.623047" xlink:href="#DejaVuSans-46"/>
       <use x="95.410156" xlink:href="#DejaVuSans-48"/>
      </g>
     </g>
    </g>
    <g id="ytick_21">
     <g id="line2d_38">
      <g>
       <use style="stroke:#000000;stroke-width:0.8;" x="580.658824" xlink:href="#m0c25ca7a9c" y="137.844"/>
      </g>
     </g>
     <g id="text_38">
      <!-- 2.5 -->
      <g transform="translate(557.755699 141.643219)scale(0.1 -0.1)">
       <use xlink:href="#DejaVuSans-50"/>
       <use x="63.623047" xlink:href="#DejaVuSans-46"/>
       <use x="95.410156" xlink:href="#DejaVuSans-53"/>
      </g>
     </g>
    </g>
    <g id="ytick_22">
     <g id="line2d_39">
      <g>
       <use style="stroke:#000000;stroke-width:0.8;" x="580.658824" xlink:href="#m0c25ca7a9c" y="110.664"/>
      </g>
     </g>
     <g id="text_39">
      <!-- 5.0 -->
      <g transform="translate(557.755699 114.463219)scale(0.1 -0.1)">
       <use xlink:href="#DejaVuSans-53"/>
       <use x="63.623047" xlink:href="#DejaVuSans-46"/>
       <use x="95.410156" xlink:href="#DejaVuSans-48"/>
      </g>
     </g>
    </g>
    <g id="ytick_23">
     <g id="line2d_40">
      <g>
       <use style="stroke:#000000;stroke-width:0.8;" x="580.658824" xlink:href="#m0c25ca7a9c" y="83.484"/>
      </g>
     </g>
     <g id="text_40">
      <!-- 7.5 -->
      <g transform="translate(557.755699 87.283219)scale(0.1 -0.1)">
       <use xlink:href="#DejaVuSans-55"/>
       <use x="63.623047" xlink:href="#DejaVuSans-46"/>
       <use x="95.410156" xlink:href="#DejaVuSans-53"/>
      </g>
     </g>
    </g>
    <g id="ytick_24">
     <g id="line2d_41">
      <g>
       <use style="stroke:#000000;stroke-width:0.8;" x="580.658824" xlink:href="#m0c25ca7a9c" y="56.304"/>
      </g>
     </g>
     <g id="text_41">
      <!-- 10.0 -->
      <g transform="translate(551.393199 60.103219)scale(0.1 -0.1)">
       <use xlink:href="#DejaVuSans-49"/>
       <use x="63.623047" xlink:href="#DejaVuSans-48"/>
       <use x="127.246094" xlink:href="#DejaVuSans-46"/>
       <use x="159.033203" xlink:href="#DejaVuSans-48"/>
      </g>
     </g>
    </g>
   </g>
   <g id="line2d_42">
    <path clip-path="url(#p39d9f832b5)" d="M 589.610695 110.664 
L 594.201399 110.824362 
L 598.792102 111.294576 
L 603.382805 112.058334 
L 607.973509 113.099328 
L 612.564212 114.40125 
L 617.154916 115.947792 
L 621.745619 117.722646 
L 626.336323 119.709504 
L 630.927026 121.892058 
L 635.517729 124.254 
L 640.108433 126.779022 
L 644.699136 129.450816 
L 649.28984 132.253074 
L 653.880543 135.169488 
L 658.471246 138.18375 
L 663.06195 141.279552 
L 667.652653 144.440586 
L 672.243357 147.650544 
L 676.83406 150.893118 
L 681.424763 154.152 
L 686.015467 157.410882 
L 690.60617 160.653456 
L 695.196874 163.863414 
L 699.787577 167.024448 
L 704.378281 170.12025 
L 708.968984 173.134512 
L 713.559687 176.050926 
L 718.150391 178.853184 
L 722.741094 181.524978 
L 727.331798 184.05 
L 731.922501 186.411942 
L 736.513204 188.594496 
L 741.103908 190.581354 
L 745.694611 192.356208 
L 750.285315 193.90275 
L 754.876018 195.204672 
L 759.466722 196.245666 
L 764.057425 197.009424 
L 768.648128 197.479638 
" style="fill:none;stroke:#ffc100;stroke-linecap:square;stroke-width:1.5;"/>
   </g>
   <g id="patch_13">
    <path d="M 580.658824 252 
L 580.658824 34.56 
" style="fill:none;stroke:#000000;stroke-linecap:square;stroke-linejoin:miter;stroke-width:0.8;"/>
   </g>
   <g id="patch_14">
    <path d="M 777.6 252 
L 777.6 34.56 
" style="fill:none;stroke:#000000;stroke-linecap:square;stroke-linejoin:miter;stroke-width:0.8;"/>
   </g>
   <g id="patch_15">
    <path d="M 580.658824 252 
L 777.6 252 
" style="fill:none;stroke:#000000;stroke-linecap:square;stroke-linejoin:miter;stroke-width:0.8;"/>
   </g>
   <g id="patch_16">
    <path d="M 580.658824 34.56 
L 777.6 34.56 
" style="fill:none;stroke:#000000;stroke-linecap:square;stroke-linejoin:miter;stroke-width:0.8;"/>
   </g>
   <g id="text_42">
    <!-- exponential -->
    <defs>
     <path d="M 54.890625 54.6875 
L 35.109375 28.078125 
L 55.90625 0 
L 45.3125 0 
L 29.390625 21.484375 
L 13.484375 0 
L 2.875 0 
L 24.125 28.609375 
L 4.6875 54.6875 
L 15.28125 54.6875 
L 29.78125 35.203125 
L 44.28125 54.6875 
z
" id="DejaVuSans-120"/>
     <path d="M 18.3125 70.21875 
L 18.3125 54.6875 
L 36.8125 54.6875 
L 36.8125 47.703125 
L 18.3125 47.703125 
L 18.3125 18.015625 
Q 18.3125 11.328125 20.140625 9.421875 
Q 21.96875 7.515625 27.59375 7.515625 
L 36.8125 7.515625 
L 36.8125 0 
L 27.59375 0 
Q 17.1875 0 13.234375 3.875 
Q 9.28125 7.765625 9.28125 18.015625 
L 9.28125 47.703125 
L 2.6875 47.703125 
L 2.6875 54.6875 
L 9.28125 54.6875 
L 9.28125 70.21875 
z
" id="DejaVuSans-116"/>
     <path d="M 9.421875 54.6875 
L 18.40625 54.6875 
L 18.40625 0 
L 9.421875 0 
z
M 9.421875 75.984375 
L 18.40625 75.984375 
L 18.40625 64.59375 
L 9.421875 64.59375 
z
" id="DejaVuSans-105"/>
    </defs>
    <g transform="translate(643.851287 28.56)scale(0.12 -0.12)">
     <use xlink:href="#DejaVuSans-101"/>
     <use x="59.773438" xlink:href="#DejaVuSans-120"/>
     <use x="118.953125" xlink:href="#DejaVuSans-112"/>
     <use x="182.429688" xlink:href="#DejaVuSans-111"/>
     <use x="243.611328" xlink:href="#DejaVuSans-110"/>
     <use x="306.990234" xlink:href="#DejaVuSans-101"/>
     <use x="368.513672" xlink:href="#DejaVuSans-110"/>
     <use x="431.892578" xlink:href="#DejaVuSans-116"/>
     <use x="471.101562" xlink:href="#DejaVuSans-105"/>
     <use x="498.884766" xlink:href="#DejaVuSans-97"/>
     <use x="560.164062" xlink:href="#DejaVuSans-108"/>
    </g>
   </g>
  </g>
 </g>
 <defs>
  <clipPath id="pc55681ea69">
   <rect height="217.44" width="196.941176" x="108" y="34.56"/>
  </clipPath>
  <clipPath id="p7fe99ad140">
   <rect height="217.44" width="196.941176" x="344.329412" y="34.56"/>
  </clipPath>
  <clipPath id="p39d9f832b5">
   <rect height="217.44" width="196.941176" x="580.658824" y="34.56"/>
  </clipPath>
 </defs>
</svg>
