<svg width="800" height="178" viewBox="0 0 800 178" fill="none" xmlns="http://www.w3.org/2000/svg">
<g clip-path="url(#clip0_2228_3060)">
<path d="M0 177.778H800V0H0V177.778Z" fill="white"/>
<path d="M55.0625 155.145H675.063V20.9224H55.0625V155.145Z" fill="white"/>
<path d="M72.0602 89.1982C73.2177 89.1982 74.3281 88.7383 75.1466 87.9198C75.9651 87.1013 76.425 85.9909 76.425 84.8334C76.425 83.6758 75.9651 82.5655 75.1466 81.7469C74.3281 80.9284 73.2177 80.4685 72.0602 80.4685C70.9026 80.4685 69.7923 80.9284 68.9737 81.7469C68.1552 82.5655 67.6953 83.6758 67.6953 84.8334C67.6953 85.9909 68.1552 87.1013 68.9737 87.9198C69.7923 88.7383 70.9026 89.1982 72.0602 89.1982Z" fill="#FFC100" stroke="#FFC100"/>
<path d="M254.177 49.2148C255.335 49.2148 256.445 48.7549 257.264 47.9364C258.082 47.1179 258.542 46.0075 258.542 44.85C258.542 43.6924 258.082 42.5821 257.264 41.7635C256.445 40.945 255.335 40.4851 254.177 40.4851C253.02 40.4851 251.909 40.945 251.091 41.7635C250.272 42.5821 249.812 43.6924 249.812 44.85C249.812 46.0075 250.272 47.1179 251.091 47.9364C251.909 48.7549 253.02 49.2148 254.177 49.2148Z" fill="#FFC100" stroke="#FFC100"/>
<path d="M291.693 91.6999C292.851 91.6999 293.961 91.24 294.779 90.4215C295.598 89.603 296.058 88.4926 296.058 87.3351C296.058 86.1775 295.598 85.0672 294.779 84.2487C293.961 83.4301 292.851 82.9702 291.693 82.9702C290.535 82.9702 289.425 83.4301 288.607 84.2487C287.788 85.0672 287.328 86.1775 287.328 87.3351C287.328 88.4926 287.788 89.603 288.607 90.4215C289.425 91.24 290.535 91.6999 291.693 91.6999Z" fill="#FFC100" stroke="#FFC100"/>
<path d="M323.037 120.795C324.194 120.795 325.305 120.335 326.123 119.517C326.942 118.698 327.402 117.588 327.402 116.43C327.402 115.273 326.942 114.162 326.123 113.344C325.305 112.525 324.194 112.065 323.037 112.065C321.879 112.065 320.769 112.525 319.95 113.344C319.132 114.162 318.672 115.273 318.672 116.43C318.672 117.588 319.132 118.698 319.95 119.517C320.769 120.335 321.879 120.795 323.037 120.795Z" fill="#FFC100" stroke="#FFC100"/>
<path d="M338.896 131.402C340.054 131.402 341.164 130.942 341.983 130.123C342.801 129.305 343.261 128.194 343.261 127.037C343.261 125.879 342.801 124.769 341.983 123.95C341.164 123.132 340.054 122.672 338.896 122.672C337.739 122.672 336.628 123.132 335.81 123.95C334.991 124.769 334.531 125.879 334.531 127.037C334.531 128.194 334.991 129.305 335.81 130.123C336.628 130.942 337.739 131.402 338.896 131.402Z" fill="#FFC100" stroke="#FFC100"/>
<path d="M366.13 143.501C367.288 143.501 368.398 143.041 369.217 142.222C370.035 141.404 370.495 140.293 370.495 139.136C370.495 137.978 370.035 136.868 369.217 136.049C368.398 135.231 367.288 134.771 366.13 134.771C364.973 134.771 363.863 135.231 363.044 136.049C362.226 136.868 361.766 137.978 361.766 139.136C361.766 140.293 362.226 141.404 363.044 142.222C363.863 143.041 364.973 143.501 366.13 143.501Z" fill="#FFC100" stroke="#FFC100"/>
<path d="M55.0625 155.145V159.466Z" fill="black"/>
<path d="M55.0625 155.145V159.466" stroke="black" stroke-width="0.8"/>
<path d="M47.2734 168.785H55.0011V169.809H47.2734V168.785Z" fill="black"/>
<path d="M61.3183 168.314C61.9008 168.439 62.3555 168.698 62.6821 169.093C63.01 169.487 63.174 169.973 63.174 170.551C63.174 171.439 62.8686 172.126 62.2577 172.614C61.6469 173.1 60.7788 173.343 59.6535 173.343C59.2767 173.343 58.8884 173.305 58.4884 173.231C58.0885 173.156 57.6757 173.044 57.25 172.895V171.72C57.5869 171.917 57.956 172.066 58.3573 172.166C58.7598 172.266 59.1803 172.317 59.6188 172.317C60.3814 172.317 60.9627 172.166 61.3627 171.865C61.7626 171.564 61.9626 171.126 61.9626 170.551C61.9626 170.02 61.7767 169.606 61.4051 169.307C61.0334 169.008 60.5165 168.858 59.8542 168.858H58.8048V167.857H59.9024C60.5004 167.857 60.9582 167.737 61.2758 167.498C61.5935 167.259 61.7523 166.914 61.7523 166.464C61.7523 166.002 61.5883 165.648 61.2604 165.401C60.9338 165.153 60.465 165.029 59.8542 165.029C59.5198 165.029 59.1617 165.065 58.7797 165.139C58.3978 165.211 57.9779 165.323 57.5201 165.474V164.39C57.983 164.262 58.4164 164.165 58.8202 164.101C59.224 164.037 59.6047 164.004 59.9622 164.004C60.8868 164.004 61.6179 164.215 62.1555 164.635C62.6943 165.054 62.9637 165.622 62.9637 166.337C62.9637 166.836 62.821 167.257 62.5355 167.6C62.25 167.943 61.8443 168.181 61.3183 168.314Z" fill="black"/>
<path d="M132.562 155.145V159.466Z" fill="black"/>
<path d="M132.562 155.145V159.466" stroke="black" stroke-width="0.8"/>
<path d="M124.773 168.785H132.501V169.809H124.773V168.785Z" fill="black"/>
<path d="M136.175 172.143H140.425V173.167H134.711V172.143C135.173 171.665 135.802 171.023 136.599 170.218C137.398 169.411 137.9 168.891 138.104 168.657C138.494 168.22 138.766 167.85 138.92 167.546C139.076 167.243 139.153 166.944 139.153 166.651C139.153 166.173 138.986 165.783 138.65 165.482C138.314 165.18 137.877 165.029 137.338 165.029C136.956 165.029 136.553 165.095 136.129 165.227C135.706 165.36 135.253 165.561 134.771 165.831V164.6C135.261 164.404 135.719 164.255 136.144 164.155C136.571 164.055 136.961 164.004 137.315 164.004C138.247 164.004 138.991 164.238 139.545 164.705C140.099 165.17 140.376 165.793 140.376 166.572C140.376 166.942 140.307 167.293 140.168 167.625C140.031 167.956 139.778 168.346 139.412 168.796C139.312 168.913 138.992 169.25 138.453 169.807C137.916 170.364 137.156 171.142 136.175 172.143Z" fill="black"/>
<path d="M210.062 155.145V159.466Z" fill="black"/>
<path d="M210.062 155.145V159.466" stroke="black" stroke-width="0.8"/>
<path d="M202.273 168.785H210.001V169.809H202.273V168.785Z" fill="black"/>
<path d="M212.84 172.143H214.828V165.276L212.664 165.71V164.6L214.817 164.166H216.034V172.143H218.023V173.167H212.84V172.143Z" fill="black"/>
<path d="M287.57 155.145V159.466Z" fill="black"/>
<path d="M287.57 155.145V159.466" stroke="black" stroke-width="0.8"/>
<path d="M287.563 164.969C286.936 164.969 286.465 165.278 286.149 165.895C285.834 166.511 285.676 167.438 285.676 168.676C285.676 169.91 285.834 170.835 286.149 171.452C286.465 172.07 286.936 172.378 287.563 172.378C288.194 172.378 288.667 172.07 288.982 171.452C289.299 170.835 289.457 169.91 289.457 168.676C289.457 167.438 289.299 166.511 288.982 165.895C288.667 165.278 288.194 164.969 287.563 164.969ZM287.563 164.004C288.572 164.004 289.343 164.404 289.876 165.202C290.408 166 290.674 167.158 290.674 168.676C290.674 170.191 290.408 171.348 289.876 172.147C289.343 172.944 288.572 173.343 287.563 173.343C286.554 173.343 285.784 172.944 285.252 172.147C284.719 171.348 284.453 170.191 284.453 168.676C284.453 167.158 284.719 166 285.252 165.202C285.784 164.404 286.554 164.004 287.563 164.004Z" fill="black"/>
<path d="M365.062 155.145V159.466Z" fill="black"/>
<path d="M365.062 155.145V159.466" stroke="black" stroke-width="0.8"/>
<path d="M362.668 172.143H364.657V165.276L362.492 165.71V164.6L364.645 164.166H365.862V172.143H367.851V173.167H362.668V172.143Z" fill="black"/>
<path d="M442.562 155.145V159.466Z" fill="black"/>
<path d="M442.562 155.145V159.466" stroke="black" stroke-width="0.8"/>
<path d="M441.003 172.143H445.253V173.167H439.539V172.143C440.001 171.665 440.63 171.023 441.428 170.218C442.226 169.411 442.728 168.891 442.932 168.657C443.322 168.22 443.594 167.85 443.748 167.546C443.904 167.243 443.982 166.944 443.982 166.651C443.982 166.173 443.814 165.783 443.478 165.482C443.142 165.18 442.705 165.029 442.166 165.029C441.784 165.029 441.381 165.095 440.957 165.227C440.534 165.36 440.081 165.561 439.599 165.831V164.6C440.089 164.404 440.547 164.255 440.972 164.155C441.399 164.055 441.79 164.004 442.143 164.004C443.076 164.004 443.819 164.238 444.373 164.705C444.927 165.17 445.205 165.793 445.205 166.572C445.205 166.942 445.135 167.293 444.996 167.625C444.859 167.956 444.607 168.346 444.24 168.796C444.14 168.913 443.82 169.25 443.281 169.807C442.744 170.364 441.984 171.142 441.003 172.143Z" fill="black"/>
<path d="M520.062 155.145V159.466Z" fill="black"/>
<path d="M520.062 155.145V159.466" stroke="black" stroke-width="0.8"/>
<path d="M521.146 168.314C521.729 168.439 522.184 168.698 522.51 169.093C522.838 169.487 523.002 169.973 523.002 170.551C523.002 171.439 522.697 172.126 522.086 172.614C521.475 173.1 520.607 173.343 519.482 173.343C519.105 173.343 518.716 173.305 518.317 173.231C517.917 173.156 517.504 173.044 517.078 172.895V171.72C517.415 171.917 517.784 172.066 518.185 172.166C518.588 172.266 519.008 172.317 519.447 172.317C520.21 172.317 520.791 172.166 521.191 171.865C521.591 171.564 521.791 171.126 521.791 170.551C521.791 170.02 521.605 169.606 521.233 169.307C520.862 169.008 520.345 168.858 519.682 168.858H518.633V167.857H519.731C520.329 167.857 520.786 167.737 521.104 167.498C521.422 167.259 521.58 166.914 521.58 166.464C521.58 166.002 521.416 165.648 521.089 165.401C520.762 165.153 520.293 165.029 519.682 165.029C519.348 165.029 518.99 165.065 518.608 165.139C518.226 165.211 517.806 165.323 517.348 165.474V164.39C517.811 164.262 518.245 164.165 518.648 164.101C519.052 164.037 519.433 164.004 519.79 164.004C520.715 164.004 521.446 164.215 521.984 164.635C522.522 165.054 522.792 165.622 522.792 166.337C522.792 166.836 522.649 167.257 522.364 167.6C522.078 167.943 521.672 168.181 521.146 168.314Z" fill="black"/>
<path d="M597.562 155.145V159.466Z" fill="black"/>
<path d="M597.562 155.145V159.466" stroke="black" stroke-width="0.8"/>
<path d="M598.305 165.227L595.23 170.033H598.305V165.227ZM597.984 164.166H599.516V170.033H600.801V171.045H599.516V173.167H598.305V171.045H594.242V169.871L597.984 164.166Z" fill="black"/>
<path d="M675.07 155.145V159.466Z" fill="black"/>
<path d="M675.07 155.145V159.466" stroke="black" stroke-width="0.8"/>
<path d="M672.474 164.166H677.254V165.193H673.589V167.398C673.765 167.337 673.941 167.292 674.117 167.263C674.295 167.233 674.472 167.218 674.65 167.218C675.654 167.218 676.449 167.493 677.036 168.044C677.624 168.594 677.917 169.339 677.917 170.28C677.917 171.248 677.616 172.001 677.013 172.538C676.41 173.075 675.56 173.343 674.463 173.343C674.084 173.343 673.699 173.311 673.307 173.246C672.916 173.182 672.512 173.086 672.094 172.957V171.732C672.455 171.929 672.829 172.075 673.215 172.172C673.6 172.268 674.008 172.317 674.437 172.317C675.133 172.317 675.684 172.134 676.089 171.769C676.495 171.403 676.698 170.907 676.698 170.28C676.698 169.653 676.495 169.157 676.089 168.792C675.684 168.426 675.133 168.242 674.437 168.242C674.112 168.242 673.787 168.278 673.463 168.35C673.141 168.423 672.811 168.535 672.474 168.688V164.166Z" fill="black"/>
<path d="M55.0632 150.815H50.7422Z" fill="black"/>
<path d="M55.0632 150.815H50.7422" stroke="black" stroke-width="0.8"/>
<path d="M42.4924 147.307C41.8661 147.307 41.3948 147.616 41.0784 148.233C40.7633 148.849 40.6058 149.776 40.6058 151.015C40.6058 152.248 40.7633 153.173 41.0784 153.79C41.3948 154.408 41.8661 154.716 42.4924 154.716C43.1238 154.716 43.5971 154.408 43.9121 153.79C44.2285 153.173 44.3867 152.248 44.3867 151.015C44.3867 149.776 44.2285 148.849 43.9121 148.233C43.5971 147.616 43.1238 147.307 42.4924 147.307ZM42.4924 146.343C43.5019 146.343 44.2729 146.742 44.8053 147.54C45.3377 148.338 45.6039 149.496 45.6039 151.015C45.6039 152.53 45.3377 153.686 44.8053 154.485C44.2729 155.282 43.5019 155.681 42.4924 155.681C41.4841 155.681 40.7138 155.282 40.1814 154.485C39.649 153.686 39.3828 152.53 39.3828 151.015C39.3828 149.496 39.649 148.338 40.1814 147.54C40.7138 146.742 41.4841 146.343 42.4924 146.343Z" fill="black"/>
<path d="M55.0632 107.517H50.7422Z" fill="black"/>
<path d="M55.0632 107.517H50.7422" stroke="black" stroke-width="0.8"/>
<path d="M32.2459 111.183H34.2347V104.316L32.0703 104.75V103.641L34.2231 103.207H35.4403V111.183H37.4291V112.208H32.2459V111.183Z" fill="black"/>
<path d="M42.4924 104.009C41.8661 104.009 41.3948 104.318 41.0784 104.935C40.7633 105.551 40.6058 106.479 40.6058 107.717C40.6058 108.95 40.7633 109.876 41.0784 110.493C41.3948 111.11 41.8661 111.419 42.4924 111.419C43.1238 111.419 43.5971 111.11 43.9121 110.493C44.2285 109.876 44.3867 108.95 44.3867 107.717C44.3867 106.479 44.2285 105.551 43.9121 104.935C43.5971 104.318 43.1238 104.009 42.4924 104.009ZM42.4924 103.045C43.5019 103.045 44.2729 103.444 44.8053 104.243C45.3377 105.04 45.6039 106.198 45.6039 107.717C45.6039 109.232 45.3377 110.389 44.8053 111.187C44.2729 111.985 43.5019 112.383 42.4924 112.383C41.4841 112.383 40.7138 111.985 40.1814 111.187C39.649 110.389 39.3828 109.232 39.3828 107.717C39.3828 106.198 39.649 105.04 40.1814 104.243C40.7138 103.444 41.4841 103.045 42.4924 103.045Z" fill="black"/>
<path d="M55.0632 64.22H50.7422Z" fill="black"/>
<path d="M55.0632 64.22H50.7422" stroke="black" stroke-width="0.8"/>
<path d="M33.0813 67.8861H37.3309V68.9104H31.6172V67.8861C32.0789 67.4077 32.7084 66.766 33.5057 65.9609C34.3043 65.1546 34.8058 64.6344 35.0103 64.4004C35.4 63.9631 35.672 63.5928 35.8263 63.2893C35.9819 62.9858 36.0597 62.6874 36.0597 62.3942C36.0597 61.9158 35.8919 61.5261 35.5562 61.2252C35.2206 60.923 34.7833 60.7719 34.2445 60.7719C33.8626 60.7719 33.4594 60.8381 33.035 60.9706C32.6119 61.103 32.1592 61.3043 31.677 61.5744V60.3437C32.167 60.1469 32.6248 59.9984 33.0504 59.8981C33.4774 59.7977 33.8677 59.7476 34.2214 59.7476C35.1537 59.7476 35.897 59.981 36.4513 60.4478C37.0056 60.9134 37.2827 61.5358 37.2827 62.3151C37.2827 62.6855 37.2133 63.0366 37.0744 63.3683C36.9368 63.6989 36.6847 64.0892 36.3182 64.5393C36.2179 64.6563 35.8983 64.9932 35.3595 65.5501C34.8219 66.1069 34.0625 66.8856 33.0813 67.8861Z" fill="black"/>
<path d="M42.4924 60.7121C41.8661 60.7121 41.3948 61.0207 41.0784 61.638C40.7633 62.254 40.6058 63.1812 40.6058 64.4197C40.6058 65.6529 40.7633 66.5782 41.0784 67.1955C41.3948 67.8128 41.8661 68.1214 42.4924 68.1214C43.1238 68.1214 43.5971 67.8128 43.9121 67.1955C44.2285 66.5782 44.3867 65.6529 44.3867 64.4197C44.3867 63.1812 44.2285 62.254 43.9121 61.638C43.5971 61.0207 43.1238 60.7121 42.4924 60.7121ZM42.4924 59.7476C43.5019 59.7476 44.2729 60.1469 44.8053 60.9455C45.3377 61.7428 45.6039 62.9009 45.6039 64.4197C45.6039 65.9346 45.3377 67.0913 44.8053 67.8899C44.2729 68.6873 43.5019 69.0859 42.4924 69.0859C41.4841 69.0859 40.7138 68.6873 40.1814 67.8899C39.649 67.0913 39.3828 65.9346 39.3828 64.4197C39.3828 62.9009 39.649 61.7428 40.1814 60.9455C40.7138 60.1469 41.4841 59.7476 42.4924 59.7476Z" fill="black"/>
<path d="M55.0632 20.9224H50.7422Z" fill="black"/>
<path d="M55.0632 20.9224H50.7422" stroke="black" stroke-width="0.8"/>
<path d="M35.7245 20.7594C36.3071 20.8841 36.7617 21.1439 37.0883 21.5387C37.4163 21.9322 37.5802 22.4183 37.5802 22.997C37.5802 23.8844 37.2748 24.5718 36.664 25.0592C36.0531 25.5453 35.1851 25.7883 34.0598 25.7883C33.683 25.7883 33.2946 25.751 32.8947 25.6764C32.4947 25.6019 32.0819 25.49 31.6562 25.3408V24.166C31.9932 24.3628 32.3623 24.5113 32.7635 24.6116C33.166 24.7119 33.5865 24.7621 34.0251 24.7621C34.7877 24.7621 35.369 24.6116 35.7689 24.3107C36.1689 24.0098 36.3688 23.5719 36.3688 22.997C36.3688 22.4659 36.183 22.0512 35.8113 21.7528C35.4397 21.4532 34.9227 21.3034 34.2604 21.3034H33.211V20.3022H34.3086C34.9066 20.3022 35.3645 20.1826 35.6821 19.9434C35.9997 19.7042 36.1586 19.3596 36.1586 18.9095C36.1586 18.4478 35.9946 18.0935 35.6667 17.8466C35.34 17.5984 34.8713 17.4743 34.2604 17.4743C33.9261 17.4743 33.5679 17.5109 33.186 17.5842C32.804 17.6563 32.3841 17.7681 31.9263 17.9199V16.8358C32.3893 16.7072 32.8227 16.6107 33.2265 16.5464C33.6303 16.4821 34.0109 16.45 34.3684 16.45C35.2931 16.45 36.0242 16.6602 36.5617 17.0808C37.1006 17.5 37.37 18.0671 37.37 18.7822C37.37 19.2811 37.2272 19.7023 36.9417 20.0457C36.6563 20.389 36.2505 20.6269 35.7245 20.7594Z" fill="black"/>
<path d="M42.4924 17.4145C41.8661 17.4145 41.3948 17.7231 41.0784 18.3404C40.7633 18.9564 40.6058 19.8836 40.6058 21.122C40.6058 22.3553 40.7633 23.2806 41.0784 23.8979C41.3948 24.5152 41.8661 24.8238 42.4924 24.8238C43.1238 24.8238 43.5971 24.5152 43.9121 23.8979C44.2285 23.2806 44.3867 22.3553 44.3867 21.122C44.3867 19.8836 44.2285 18.9564 43.9121 18.3404C43.5971 17.7231 43.1238 17.4145 42.4924 17.4145ZM42.4924 16.45C43.5019 16.45 44.2729 16.8493 44.8053 17.6479C45.3377 18.4452 45.6039 19.6033 45.6039 21.122C45.6039 22.637 45.3377 23.7937 44.8053 24.5923C44.2729 25.3897 43.5019 25.7883 42.4924 25.7883C41.4841 25.7883 40.7138 25.3897 40.1814 24.5923C39.649 23.7937 39.3828 22.637 39.3828 21.122C39.3828 19.6033 39.649 18.4452 40.1814 17.6479C40.7138 16.8493 41.4841 16.45 42.4924 16.45Z" fill="black"/>
<path d="M0.374228 159.109V153.418H1.40046V157.892H4.06443V153.605H5.08873V157.892H8.35069V153.31H9.375V159.109H0.374228Z" fill="black"/>
<path d="M2.62346 145.743L5.90856 148.185L9.375 145.618V146.926L6.72261 148.892L9.375 150.855V152.165L5.84298 149.542L2.62346 151.941V150.633L5.02894 148.843L2.62346 147.053V145.743Z" fill="black"/>
<path d="M8.36507 142.978H11.9453V144.093H2.62625V142.978H3.65056C3.24933 142.744 2.95161 142.449 2.75743 142.095C2.56195 141.738 2.46422 141.313 2.46422 140.819C2.46422 139.999 2.78958 139.333 3.4403 138.821C4.09102 138.308 4.94686 138.051 6.00781 138.051C7.06877 138.051 7.92525 138.308 8.57726 138.821C9.22798 139.333 9.55334 139.999 9.55334 140.819C9.55334 141.313 9.4556 141.738 9.26013 142.095C9.06465 142.449 8.7663 142.744 8.36507 142.978ZM6.00781 139.203C5.19248 139.203 4.55269 139.371 4.08845 139.706C3.6242 140.042 3.39207 140.503 3.39207 141.09C3.39207 141.677 3.6242 142.139 4.08845 142.475C4.55269 142.81 5.19248 142.978 6.00781 142.978C6.82314 142.978 7.46293 142.81 7.92718 142.475C8.39143 142.139 8.62355 141.677 8.62355 141.09C8.62355 140.503 8.39143 140.042 7.92718 139.706C7.46293 139.371 6.82314 139.203 6.00781 139.203Z" fill="black"/>
<path d="M5.7256 130.439H6.26765V135.539C7.03154 135.49 7.61346 135.26 8.01341 134.848C8.41336 134.437 8.61333 133.863 8.61333 133.128C8.61333 132.702 8.56125 132.289 8.45708 131.889C8.35291 131.489 8.19602 131.092 7.9864 130.697H9.03578C9.20425 131.096 9.33285 131.504 9.42159 131.922C9.51032 132.34 9.55469 132.764 9.55469 133.193C9.55469 134.271 9.24154 135.124 8.61526 135.753C7.98769 136.382 7.13892 136.696 6.06896 136.696C4.96428 136.696 4.08787 136.398 3.43972 135.801C2.79028 135.205 2.46557 134.399 2.46557 133.386C2.46557 132.478 2.75813 131.76 3.34327 131.231C3.92712 130.703 4.72123 130.439 5.7256 130.439ZM5.39959 131.548C4.79388 131.555 4.31035 131.725 3.94898 132.057C3.58632 132.389 3.405 132.828 3.405 133.375C3.405 133.993 3.57989 134.488 3.92969 134.86C4.27948 135.232 4.77202 135.446 5.40731 135.502L5.39959 131.548Z" fill="black"/>
<path d="M2.88609 123.759H3.9239C3.75029 124.073 3.6204 124.387 3.53424 124.702C3.44808 125.018 3.405 125.336 3.405 125.657C3.405 126.377 3.63326 126.937 4.0898 127.336C4.54504 127.733 5.18483 127.932 6.00916 127.932C6.83349 127.932 7.47393 127.733 7.93046 127.336C8.38571 126.937 8.61333 126.377 8.61333 125.657C8.61333 125.336 8.57025 125.018 8.48409 124.702C8.39792 124.387 8.26804 124.073 8.09443 123.759H9.12066C9.26469 124.069 9.37272 124.39 9.44473 124.722C9.51804 125.052 9.55469 125.405 9.55469 125.779C9.55469 126.796 9.23511 127.604 8.59597 128.204C7.95682 128.802 7.09455 129.101 6.00916 129.101C4.90834 129.101 4.04286 128.798 3.41271 128.194C2.78128 127.588 2.46557 126.759 2.46557 125.706C2.46557 125.365 2.50093 125.032 2.57166 124.706C2.64111 124.381 2.74592 124.065 2.88609 123.759Z" fill="black"/>
<path d="M0.706018 120.733H2.62346V118.449H3.48573V120.733H7.15085C7.70126 120.733 8.05491 120.658 8.21181 120.507C8.3687 120.357 8.44715 120.05 8.44715 119.587V118.449H9.375V119.587C9.375 120.444 9.21553 121.035 8.8966 121.36C8.57639 121.685 7.99447 121.848 7.15085 121.848H3.48573V122.662H2.62346V121.848H0.706018V120.733Z" fill="black"/>
<path d="M5.7256 111.215H6.26765V116.315C7.03154 116.266 7.61346 116.036 8.01341 115.624C8.41336 115.213 8.61333 114.639 8.61333 113.904C8.61333 113.478 8.56125 113.065 8.45708 112.665C8.35291 112.265 8.19602 111.868 7.9864 111.473H9.03578C9.20425 111.872 9.33285 112.28 9.42159 112.698C9.51032 113.116 9.55469 113.54 9.55469 113.969C9.55469 115.047 9.24154 115.9 8.61526 116.529C7.98769 117.158 7.13892 117.472 6.06896 117.472C4.96428 117.472 4.08787 117.174 3.43972 116.577C2.79028 115.981 2.46557 115.176 2.46557 114.162C2.46557 113.254 2.75813 112.536 3.34327 112.008C3.92712 111.479 4.72123 111.215 5.7256 111.215ZM5.39959 112.324C4.79388 112.332 4.31035 112.501 3.94898 112.833C3.58632 113.165 3.405 113.604 3.405 114.151C3.405 114.769 3.57989 115.264 3.92969 115.636C4.27948 116.008 4.77202 116.222 5.40731 116.278L5.39959 112.324Z" fill="black"/>
<path d="M3.65191 104.952H-0.00163915V103.843H9.37915V104.952H8.36642C8.76765 105.185 9.066 105.479 9.26148 105.836C9.45695 106.191 9.55469 106.618 9.55469 107.117C9.55469 107.932 9.22933 108.596 8.57861 109.109C7.9266 109.621 7.07012 109.877 6.00916 109.877C4.94821 109.877 4.09237 109.621 3.44165 109.109C2.79093 108.596 2.46557 107.932 2.46557 107.117C2.46557 106.618 2.5633 106.191 2.75878 105.836C2.95296 105.479 3.25068 105.185 3.65191 104.952ZM6.00916 108.731C6.82449 108.731 7.46428 108.563 7.92853 108.228C8.39278 107.892 8.6249 107.431 8.6249 106.845C8.6249 106.258 8.39278 105.796 7.92853 105.46C7.46428 105.121 6.82449 104.952 6.00916 104.952C5.19383 104.952 4.55404 105.121 4.0898 105.46C3.62555 105.796 3.39342 106.258 3.39342 106.845C3.39342 107.431 3.62555 107.892 4.0898 108.228C4.55404 108.563 5.19383 108.731 6.00916 108.731Z" fill="black"/>
<path d="M0.374228 97.5854V96.3682H9.375V97.5854H0.374228Z" fill="black"/>
<path d="M3.91975 88.7362C3.42078 88.4584 3.05298 88.1266 2.81636 87.7408C2.57973 87.355 2.46142 86.901 2.46142 86.3789C2.46142 85.6755 2.70769 85.1328 3.20023 84.7508C3.69149 84.3689 4.39108 84.1779 5.299 84.1779H9.375V85.2929H5.33565C4.68879 85.2929 4.20911 85.408 3.89661 85.6382C3.58282 85.8671 3.42593 86.2162 3.42593 86.6856C3.42593 87.2605 3.6169 87.7151 3.99884 88.0494C4.3795 88.3825 4.89969 88.549 5.55941 88.549H9.375V89.664H5.33565C4.68493 89.664 4.20396 89.7785 3.89275 90.0074C3.58153 90.2363 3.42593 90.5899 3.42593 91.0683C3.42593 91.6355 3.61754 92.0862 4.00077 92.4206C4.384 92.7536 4.90355 92.9202 5.55941 92.9202H9.375V94.0352H2.62346V92.9202H3.67284C3.25875 92.6668 2.95332 92.3633 2.75656 92.0097C2.5598 91.656 2.46142 91.2362 2.46142 90.75C2.46142 90.2588 2.58616 89.8415 2.83565 89.4981C3.08385 89.1548 3.44522 88.9008 3.91975 88.7362Z" fill="black"/>
<path d="M8.36507 80.8941H11.9453V82.009H2.62625V80.8941H3.65056C3.24933 80.66 2.95161 80.3655 2.75743 80.0106C2.56195 79.6544 2.46422 79.2293 2.46422 78.7355C2.46422 77.915 2.78958 77.2489 3.4403 76.737C4.09102 76.2239 4.94686 75.9674 6.00781 75.9674C7.06877 75.9674 7.92525 76.2239 8.57726 76.737C9.22798 77.2489 9.55334 77.915 9.55334 78.7355C9.55334 79.2293 9.4556 79.6544 9.26013 80.0106C9.06465 80.3655 8.7663 80.66 8.36507 80.8941ZM6.00781 77.119C5.19248 77.119 4.55269 77.2868 4.08845 77.6225C3.6242 77.9581 3.39207 78.4191 3.39207 79.0056C3.39207 79.5933 3.6242 80.0549 4.08845 80.3906C4.55269 80.7262 5.19248 80.8941 6.00781 80.8941C6.82314 80.8941 7.46293 80.7262 7.92718 80.3906C8.39143 80.0549 8.62355 79.5933 8.62355 79.0056C8.62355 78.4191 8.39143 77.9581 7.92718 77.6225C7.46293 77.2868 6.82314 77.119 6.00781 77.119Z" fill="black"/>
<path d="M3.65934 70.2179C3.58732 70.3426 3.53459 70.4783 3.50116 70.6249C3.46644 70.7715 3.44907 70.9329 3.44907 71.1091C3.44907 71.7367 3.65291 72.2183 4.06057 72.5539C4.46824 72.8896 5.05401 73.0574 5.8179 73.0574H9.375V74.1724H2.62346V73.0574H3.67284C3.2626 72.8233 2.95846 72.5198 2.76042 72.1469C2.56109 71.7727 2.46142 71.3181 2.46142 70.7831C2.46142 70.7072 2.46656 70.623 2.47685 70.5304C2.48585 70.4378 2.50064 70.3356 2.52122 70.2237L3.65934 70.2179Z" fill="black"/>
<path d="M3.405 66.7162C3.405 67.3104 3.63712 67.7804 4.10137 68.1263C4.56562 68.4723 5.20155 68.6452 6.00916 68.6452C6.81678 68.6452 7.45271 68.4735 7.91696 68.1302C8.3812 67.7855 8.61333 67.3142 8.61333 66.7162C8.61333 66.1247 8.38056 65.6565 7.91503 65.3119C7.44821 64.966 6.81292 64.793 6.00916 64.793C5.20927 64.793 4.57526 64.966 4.10716 65.3119C3.63905 65.6565 3.405 66.1247 3.405 66.7162ZM2.46557 66.7162C2.46557 65.7517 2.77935 64.9943 3.40693 64.4438C4.03321 63.8921 4.90062 63.6163 6.00916 63.6163C7.11384 63.6163 7.98126 63.8921 8.6114 64.4438C9.24026 64.9943 9.55469 65.7517 9.55469 66.7162C9.55469 67.6846 9.24026 68.4433 8.6114 68.9924C7.98126 69.5403 7.11384 69.8142 6.00916 69.8142C4.90062 69.8142 4.03321 69.5403 3.40693 68.9924C2.77935 68.4433 2.46557 67.6846 2.46557 66.7162Z" fill="black"/>
<path d="M2.62346 62.5735V61.3987L8.28897 59.2884L2.62346 57.178V56.0033L9.375 58.5361V60.0426L2.62346 62.5735Z" fill="black"/>
<path d="M5.7256 48.6971H6.26765V53.7974C7.03154 53.7486 7.61346 53.5184 8.01341 53.1068C8.41336 52.6953 8.61333 52.1218 8.61333 51.3862C8.61333 50.9605 8.56125 50.5477 8.45708 50.1477C8.35291 49.7478 8.19602 49.3504 7.9864 48.9556H9.03578C9.20425 49.3543 9.33285 49.7626 9.42159 50.1805C9.51032 50.5985 9.55469 51.0222 9.55469 51.4517C9.55469 52.5294 9.24154 53.3827 8.61526 54.0115C7.98769 54.6404 7.13892 54.9548 6.06896 54.9548C4.96428 54.9548 4.08787 54.6565 3.43972 54.0598C2.79028 53.4631 2.46557 52.658 2.46557 51.6446C2.46557 50.7367 2.75813 50.0185 3.34327 49.4899C3.92712 48.9614 4.72123 48.6971 5.7256 48.6971ZM5.39959 49.8063C4.79388 49.814 4.31035 49.9838 3.94898 50.3156C3.58632 50.6473 3.405 51.0865 3.405 51.6331C3.405 52.2516 3.57989 52.7468 3.92969 53.1184C4.27948 53.4901 4.77202 53.7042 5.40731 53.7608L5.39959 49.8063Z" fill="black"/>
<path d="M3.91975 41.6204C3.42078 41.3427 3.05298 41.0109 2.81636 40.6251C2.57973 40.2393 2.46142 39.7853 2.46142 39.2632C2.46142 38.5597 2.70769 38.017 3.20023 37.6351C3.69149 37.2532 4.39108 37.0622 5.299 37.0622H9.375V38.1771H5.33565C4.68879 38.1771 4.20911 38.2922 3.89661 38.5224C3.58282 38.7514 3.42593 39.1005 3.42593 39.5699C3.42593 40.1447 3.6169 40.5993 3.99884 40.9337C4.3795 41.2668 4.89969 41.4333 5.55941 41.4333H9.375V42.5483H5.33565C4.68493 42.5483 4.20396 42.6627 3.89275 42.8917C3.58153 43.1206 3.42593 43.4742 3.42593 43.9526C3.42593 44.5197 3.61754 44.9705 4.00077 45.3049C4.384 45.6379 4.90355 45.8045 5.55941 45.8045H9.375V46.9194H2.62346V45.8045H3.67284C3.25875 45.5511 2.95332 45.2476 2.75656 44.894C2.5598 44.5403 2.46142 44.1204 2.46142 43.6343C2.46142 43.1431 2.58616 42.7258 2.83565 42.3824C3.08385 42.039 3.44522 41.785 3.91975 41.6204Z" fill="black"/>
<path d="M5.7256 29.0753H6.26765V34.1756C7.03154 34.1267 7.61346 33.8965 8.01341 33.485C8.41336 33.0735 8.61333 32.4999 8.61333 31.7643C8.61333 31.3387 8.56125 30.9259 8.45708 30.5259C8.35291 30.126 8.19602 29.7286 7.9864 29.3338H9.03578C9.20425 29.7324 9.33285 30.1407 9.42159 30.5587C9.51032 30.9767 9.55469 31.4004 9.55469 31.8299C9.55469 32.9076 9.24154 33.7609 8.61526 34.3897C7.98769 35.0186 7.13892 35.333 6.06896 35.333C4.96428 35.333 4.08787 35.0347 3.43972 34.4379C2.79028 33.8412 2.46557 33.0362 2.46557 32.0228C2.46557 31.1149 2.75813 30.3967 3.34327 29.8681C3.92712 29.3396 4.72123 29.0753 5.7256 29.0753ZM5.39959 30.1845C4.79388 30.1922 4.31035 30.3619 3.94898 30.6937C3.58632 31.0255 3.405 31.4647 3.405 32.0112C3.405 32.6298 3.57989 33.1249 3.92969 33.4966C4.27948 33.8682 4.77202 34.0824 5.40731 34.1389L5.39959 30.1845Z" fill="black"/>
<path d="M5.299 21.642H9.375V22.7512H5.33565C4.6965 22.7512 4.21875 22.8759 3.90239 23.1254C3.58475 23.3749 3.42593 23.7485 3.42593 24.2462C3.42593 24.8454 3.6169 25.318 3.99884 25.664C4.3795 26.0099 4.89969 26.1829 5.55941 26.1829H9.375V27.2979H2.62346V26.1829H3.67284C3.26646 25.9167 2.96296 25.6042 2.76235 25.2454C2.56173 24.8853 2.46142 24.4699 2.46142 23.9992C2.46142 23.2238 2.70126 22.6374 3.18094 22.24C3.66062 21.8413 4.36664 21.642 5.299 21.642Z" fill="black"/>
<path d="M0.706018 18.3332H2.62346V16.0492H3.48573V18.3332H7.15085C7.70126 18.3332 8.05491 18.258 8.21181 18.1075C8.3687 17.957 8.44715 17.6503 8.44715 17.1874V16.0492H9.375V17.1874C9.375 18.0438 9.21553 18.6348 8.8966 18.9601C8.57639 19.2855 7.99447 19.4482 7.15085 19.4482H3.48573V20.2622H2.62346V19.4482H0.706018V18.3332Z" fill="black"/>
<path d="M13.8406 153.869C14.7639 154.406 15.6783 154.806 16.5836 155.069C17.4877 155.33 18.404 155.46 19.3325 155.46C20.2597 155.46 21.1785 155.328 22.089 155.065C22.9995 154.801 23.9152 154.402 24.8359 153.869V154.833C23.8907 155.435 22.9622 155.886 22.0504 156.186C21.1387 156.485 20.2327 156.635 19.3325 156.635C18.4361 156.635 17.534 156.486 16.6261 156.189C15.7169 155.891 14.7884 155.439 13.8406 154.833V153.869Z" fill="black"/>
<path d="M14.5341 150.619H16.4516V148.335H17.3139V150.619H20.979C21.5294 150.619 21.883 150.543 22.0399 150.393C22.1968 150.242 22.2753 149.936 22.2753 149.473V148.335H23.2031V149.473C23.2031 150.329 23.0437 150.92 22.7247 151.246C22.4045 151.571 21.8226 151.734 20.979 151.734H17.3139V152.548H16.4516V151.734H14.5341V150.619Z" fill="black"/>
<path d="M19.1271 141.262H23.2031V142.372H19.1638C18.5246 142.372 18.0469 142.496 17.7305 142.746C17.4129 142.995 17.2541 143.369 17.2541 143.867C17.2541 144.466 17.445 144.938 17.827 145.284C18.2076 145.63 18.7278 145.803 19.3875 145.803H23.2031V146.918H13.8223V145.803H17.501C17.0946 145.537 16.7911 145.225 16.5905 144.866C16.3899 144.506 16.2895 144.09 16.2895 143.62C16.2895 142.844 16.5294 142.258 17.0091 141.86C17.4887 141.462 18.1948 141.262 19.1271 141.262Z" fill="black"/>
<path d="M19.5537 133.276H20.0958V138.376C20.8597 138.327 21.4416 138.097 21.8415 137.685C22.2415 137.274 22.4415 136.7 22.4415 135.965C22.4415 135.539 22.3894 135.126 22.2852 134.726C22.181 134.326 22.0241 133.929 21.8145 133.534H22.8639C23.0324 133.933 23.161 134.341 23.2497 134.759C23.3384 135.177 23.3828 135.601 23.3828 136.03C23.3828 137.108 23.0697 137.961 22.4434 138.59C21.8158 139.219 20.967 139.533 19.8971 139.533C18.7924 139.533 17.916 139.235 17.2678 138.638C16.6184 138.042 16.2937 137.237 16.2937 136.223C16.2937 135.315 16.5863 134.597 17.1714 134.069C17.7552 133.54 18.5494 133.276 19.5537 133.276ZM19.2277 134.385C18.622 134.393 18.1385 134.562 17.7771 134.894C17.4144 135.226 17.2331 135.665 17.2331 136.212C17.2331 136.83 17.408 137.325 17.7578 137.697C18.1076 138.069 18.6001 138.283 19.2354 138.339L19.2277 134.385Z" fill="black"/>
<path d="M19.8373 122.684C19.022 122.684 18.3822 122.852 17.9179 123.187C17.4537 123.523 17.2215 123.984 17.2215 124.57C17.2215 125.158 17.4537 125.62 17.9179 125.955C18.3822 126.291 19.022 126.459 19.8373 126.459C20.6526 126.459 21.2924 126.291 21.7567 125.955C22.2209 125.62 22.453 125.158 22.453 124.57C22.453 123.984 22.2209 123.523 21.7567 123.187C21.2924 122.852 20.6526 122.684 19.8373 122.684ZM17.48 126.459C17.0788 126.225 16.7811 125.93 16.5869 125.575C16.3914 125.219 16.2937 124.794 16.2937 124.3C16.2937 123.48 16.6191 122.814 17.2698 122.302C17.9205 121.789 18.7763 121.532 19.8373 121.532C20.8982 121.532 21.7547 121.789 22.4067 122.302C23.0575 122.814 23.3828 123.48 23.3828 124.3C23.3828 124.794 23.2851 125.219 23.0896 125.575C22.8941 125.93 22.5958 126.225 22.1945 126.459H23.2073V127.574H13.8265V126.459H17.48Z" fill="black"/>
<path d="M16.4516 119.695V118.585H23.2031V119.695H16.4516ZM13.8223 119.695V118.585H15.2286V119.695H13.8223Z" fill="black"/>
<path d="M19.7511 111.822C18.9473 111.822 18.3249 111.988 17.8838 112.32C17.4414 112.65 17.2202 113.115 17.2202 113.714C17.2202 114.309 17.4414 114.772 17.8838 115.103C18.3249 115.435 18.9473 115.601 19.7511 115.601C20.551 115.601 21.1721 115.435 21.6145 115.103C22.0569 114.772 22.2781 114.309 22.2781 113.714C22.2781 113.115 22.0569 112.65 21.6145 112.32C21.1721 111.988 20.551 111.822 19.7511 111.822ZM22.3687 110.713C23.5171 110.713 24.3717 110.968 24.9324 111.479C25.4931 111.988 25.7734 112.769 25.7734 113.822C25.7734 114.212 25.7445 114.58 25.6866 114.926C25.6288 115.272 25.5394 115.607 25.4185 115.933H24.3402C24.5164 115.607 24.6463 115.286 24.7298 114.968C24.8147 114.651 24.8572 114.327 24.8572 113.998C24.8572 113.27 24.6675 112.725 24.2881 112.364C23.9087 112.003 23.3352 111.822 22.5674 111.822H22.0177C22.4163 112.051 22.714 112.344 22.9108 112.702C23.1075 113.059 23.2059 113.487 23.2059 113.986C23.2059 114.813 22.8909 115.48 22.2607 115.987C21.6293 116.493 20.7927 116.747 19.7511 116.747C18.7068 116.747 17.8696 116.493 17.2395 115.987C16.6081 115.48 16.2923 114.813 16.2923 113.986C16.2923 113.487 16.3907 113.059 16.5875 112.702C16.7842 112.344 17.0813 112.051 17.4787 111.822H16.4544V110.713H22.3687Z" fill="black"/>
<path d="M19.7511 103.986C18.9473 103.986 18.3249 104.152 17.8838 104.483C17.4414 104.814 17.2202 105.279 17.2202 105.878C17.2202 106.472 17.4414 106.935 17.8838 107.267C18.3249 107.599 18.9473 107.765 19.7511 107.765C20.551 107.765 21.1721 107.599 21.6145 107.267C22.0569 106.935 22.2781 106.472 22.2781 105.878C22.2781 105.279 22.0569 104.814 21.6145 104.483C21.1721 104.152 20.551 103.986 19.7511 103.986ZM22.3687 102.876C23.5171 102.876 24.3717 103.132 24.9324 103.642C25.4931 104.152 25.7734 104.933 25.7734 105.986C25.7734 106.376 25.7445 106.743 25.6866 107.089C25.6288 107.435 25.5394 107.771 25.4185 108.096H24.3402C24.5164 107.771 24.6463 107.449 24.7298 107.132C24.8147 106.814 24.8572 106.491 24.8572 106.162C24.8572 105.434 24.6675 104.889 24.2881 104.528C23.9087 104.166 23.3352 103.986 22.5674 103.986H22.0177C22.4163 104.215 22.714 104.508 22.9108 104.865C23.1075 105.223 23.2059 105.651 23.2059 106.15C23.2059 106.977 22.8909 107.644 22.2607 108.15C21.6293 108.657 20.7927 108.91 19.7511 108.91C18.7068 108.91 17.8696 108.657 17.2395 108.15C16.6081 107.644 16.2923 106.977 16.2923 106.15C16.2923 105.651 16.3907 105.223 16.5875 104.865C16.7842 104.508 17.0813 104.215 17.4787 103.986H16.4544V102.876H22.3687Z" fill="black"/>
<path d="M19.5537 94.816H20.0958V99.9163C20.8597 99.8675 21.4416 99.6373 21.8415 99.2257C22.2415 98.8142 22.4415 98.2407 22.4415 97.5051C22.4415 97.0794 22.3894 96.6666 22.2852 96.2666C22.181 95.8667 22.0241 95.4693 21.8145 95.0745H22.8639C23.0324 95.4732 23.161 95.8815 23.2497 96.2994C23.3384 96.7174 23.3828 97.1411 23.3828 97.5706C23.3828 98.6483 23.0697 99.5016 22.4434 100.13C21.8158 100.759 20.967 101.074 19.8971 101.074C18.7924 101.074 17.916 100.775 17.2678 100.179C16.6184 99.582 16.2937 98.7769 16.2937 97.7635C16.2937 96.8556 16.5863 96.1374 17.1714 95.6088C17.7552 95.0803 18.5494 94.816 19.5537 94.816ZM19.2277 95.9252C18.622 95.9329 18.1385 96.1027 17.7771 96.4345C17.4144 96.7662 17.2331 97.2054 17.2331 97.752C17.2331 98.3705 17.408 98.8657 17.7578 99.2373C18.1076 99.609 18.6001 99.8231 19.2354 99.8797L19.2277 95.9252Z" fill="black"/>
<path d="M17.4875 89.0839C17.4154 89.2086 17.3627 89.3443 17.3293 89.4909C17.2946 89.6375 17.2772 89.7989 17.2772 89.9751C17.2772 90.6026 17.481 91.0842 17.8887 91.4199C18.2964 91.7555 18.8821 91.9234 19.646 91.9234H23.2031V93.0383H16.4516V91.9234H17.501C17.0907 91.6893 16.7866 91.3858 16.5885 91.0129C16.3892 90.6386 16.2895 90.184 16.2895 89.6491C16.2895 89.5732 16.2947 89.4889 16.305 89.3964C16.314 89.3038 16.3288 89.2015 16.3493 89.0896L17.4875 89.0839Z" fill="black"/>
<path d="M14.5341 82.8984H16.4516V80.6144H17.3139V82.8984H20.979C21.5294 82.8984 21.883 82.8231 22.0399 82.6727C22.1968 82.5222 22.2753 82.2155 22.2753 81.7525V80.6144H23.2031V81.7525C23.2031 82.609 23.0437 83.1999 22.7247 83.5253C22.4045 83.8507 21.8226 84.0133 20.979 84.0133H17.3139V84.8274H16.4516V84.0133H14.5341V82.8984Z" fill="black"/>
<path d="M19.1271 73.5419H23.2031V74.6511H19.1638C18.5246 74.6511 18.0469 74.7758 17.7305 75.0253C17.4129 75.2748 17.2541 75.6484 17.2541 76.1461C17.2541 76.7453 17.445 77.2179 17.827 77.5639C18.2076 77.9098 18.7278 78.0828 19.3875 78.0828H23.2031V79.1978H13.8223V78.0828H17.501C17.0946 77.8166 16.7911 77.5041 16.5905 77.1453C16.3899 76.7852 16.2895 76.3698 16.2895 75.8991C16.2895 75.1237 16.5294 74.5373 17.0091 74.1399C17.4887 73.7412 18.1948 73.5419 19.1271 73.5419Z" fill="black"/>
<path d="M19.5537 65.5553H20.0958V70.6556C20.8597 70.6067 21.4416 70.3765 21.8415 69.965C22.2415 69.5535 22.4415 68.9799 22.4415 68.2443C22.4415 67.8186 22.3894 67.4058 22.2852 67.0059C22.181 66.6059 22.0241 66.2086 21.8145 65.8138H22.8639C23.0324 66.2124 23.161 66.6207 23.2497 67.0387C23.3384 67.4566 23.3828 67.8804 23.3828 68.3099C23.3828 69.3876 23.0697 70.2408 22.4434 70.8697C21.8158 71.4986 20.967 71.813 19.8971 71.813C18.7924 71.813 17.916 71.5146 17.2678 70.9179C16.6184 70.3212 16.2937 69.5162 16.2937 68.5028C16.2937 67.5949 16.5863 66.8766 17.1714 66.3481C17.7552 65.8195 18.5494 65.5553 19.5537 65.5553ZM19.2277 66.6645C18.622 66.6722 18.1385 66.8419 17.7771 67.1737C17.4144 67.5055 17.2331 67.9447 17.2331 68.4912C17.2331 69.1098 17.408 69.6049 17.7578 69.9766C18.1076 70.3482 18.6001 70.5623 19.2354 70.6189L19.2277 66.6645Z" fill="black"/>
<path d="M19.8373 54.9632C19.022 54.9632 18.3822 55.131 17.9179 55.4667C17.4537 55.8023 17.2215 56.2634 17.2215 56.8498C17.2215 57.4375 17.4537 57.8992 17.9179 58.2348C18.3822 58.5705 19.022 58.7383 19.8373 58.7383C20.6526 58.7383 21.2924 58.5705 21.7567 58.2348C22.2209 57.8992 22.453 57.4375 22.453 56.8498C22.453 56.2634 22.2209 55.8023 21.7567 55.4667C21.2924 55.131 20.6526 54.9632 19.8373 54.9632ZM17.48 58.7383C17.0788 58.5042 16.7811 58.2098 16.5869 57.8548C16.3914 57.4986 16.2937 57.0736 16.2937 56.5797C16.2937 55.7593 16.6191 55.0931 17.2698 54.5813C17.9205 54.0682 18.7763 53.8116 19.8373 53.8116C20.8982 53.8116 21.7547 54.0682 22.4067 54.5813C23.0575 55.0931 23.3828 55.7593 23.3828 56.5797C23.3828 57.0736 23.2851 57.4986 23.0896 57.8548C22.8941 58.2098 22.5958 58.5042 22.1945 58.7383H23.2073V59.8533H13.8265V58.7383H17.48Z" fill="black"/>
<path d="M19.5537 46.1988H20.0958V51.2991C20.8597 51.2503 21.4416 51.0201 21.8415 50.6085C22.2415 50.197 22.4415 49.6235 22.4415 48.8879C22.4415 48.4622 22.3894 48.0494 22.2852 47.6494C22.181 47.2495 22.0241 46.8521 21.8145 46.4573H22.8639C23.0324 46.856 23.161 47.2643 23.2497 47.6822C23.3384 48.1002 23.3828 48.5239 23.3828 48.9535C23.3828 50.0311 23.0697 50.8844 22.4434 51.5133C21.8158 52.1421 20.967 52.4565 19.8971 52.4565C18.7924 52.4565 17.916 52.1582 17.2678 51.5615C16.6184 50.9648 16.2937 50.1597 16.2937 49.1464C16.2937 48.2384 16.5863 47.5202 17.1714 46.9917C17.7552 46.4631 18.5494 46.1988 19.5537 46.1988ZM19.2277 47.308C18.622 47.3157 18.1385 47.4855 17.7771 47.8173C17.4144 48.1491 17.2331 48.5882 17.2331 49.1348C17.2331 49.7534 17.408 50.2485 17.7578 50.6201C18.1076 50.9918 18.6001 51.2059 19.2354 51.2625L19.2277 47.308Z" fill="black"/>
<path d="M14.5341 43.2812H16.4516V40.9972H17.3139V43.2812H20.979C21.5294 43.2812 21.883 43.206 22.0399 43.0555C22.1968 42.905 22.2753 42.5983 22.2753 42.1354V40.9972H23.2031V42.1354C23.2031 42.9918 23.0437 43.5828 22.7247 43.9081C22.4045 44.2335 21.8226 44.3962 20.979 44.3962H17.3139V45.2102H16.4516V44.3962H14.5341V43.2812Z" fill="black"/>
<path d="M14.5341 38.4406H16.4516V36.1567H17.3139V38.4406H20.979C21.5294 38.4406 21.883 38.3654 22.0399 38.2149C22.1968 38.0645 22.2753 37.7577 22.2753 37.2948V36.1567H23.2031V37.2948C23.2031 38.1513 23.0437 38.7422 22.7247 39.0675C22.4045 39.3929 21.8226 39.5556 20.979 39.5556H17.3139V40.3696H16.4516V39.5556H14.5341V38.4406Z" fill="black"/>
<path d="M19.5537 28.9222H20.0958V34.0225C20.8597 33.9737 21.4416 33.7435 21.8415 33.3319C22.2415 32.9204 22.4415 32.3469 22.4415 31.6113C22.4415 31.1856 22.3894 30.7728 22.2852 30.3728C22.181 29.9729 22.0241 29.5755 21.8145 29.1807H22.8639C23.0324 29.5794 23.161 29.9877 23.2497 30.4056C23.3384 30.8236 23.3828 31.2473 23.3828 31.6768C23.3828 32.7545 23.0697 33.6078 22.4434 34.2366C21.8158 34.8655 20.967 35.1799 19.8971 35.1799C18.7924 35.1799 17.916 34.8816 17.2678 34.2849C16.6184 33.6882 16.2937 32.8831 16.2937 31.8697C16.2937 30.9618 16.5863 30.2436 17.1714 29.715C17.7552 29.1865 18.5494 28.9222 19.5537 28.9222ZM19.2277 30.0314C18.622 30.0391 18.1385 30.2089 17.7771 30.5407C17.4144 30.8724 17.2331 31.3116 17.2331 31.8582C17.2331 32.4767 17.408 32.9719 17.7578 33.3435C18.1076 33.7152 18.6001 33.9293 19.2354 33.9859L19.2277 30.0314Z" fill="black"/>
<path d="M17.4875 23.1901C17.4154 23.3148 17.3627 23.4505 17.3293 23.5971C17.2946 23.7437 17.2772 23.9051 17.2772 24.0813C17.2772 24.7088 17.481 25.1904 17.8887 25.5261C18.2964 25.8617 18.8821 26.0296 19.646 26.0296H23.2031V27.1445H16.4516V26.0296H17.501C17.0907 25.7955 16.7866 25.492 16.5885 25.1191C16.3892 24.7448 16.2895 24.2902 16.2895 23.7553C16.2895 23.6794 16.2947 23.5951 16.305 23.5026C16.314 23.41 16.3288 23.3077 16.3493 23.1958L17.4875 23.1901Z" fill="black"/>
<path d="M13.8406 22.2V21.2354C14.7884 20.6336 15.7169 20.1828 16.6261 19.8832C17.534 19.5836 18.4361 19.4337 19.3325 19.4337C20.2327 19.4337 21.1387 19.5836 22.0504 19.8832C22.9622 20.1828 23.8907 20.6336 24.8359 21.2354V22.2C23.9152 21.6663 22.9995 21.2676 22.089 21.004C21.1785 20.7403 20.2597 20.6085 19.3325 20.6085C18.404 20.6085 17.4877 20.7403 16.5836 21.004C15.6783 21.2676 14.7639 21.6663 13.8406 22.2Z" fill="black"/>
<path d="M72.0547 84.8333L254.169 44.8499L291.684 87.3351L323.028 116.43L338.893 127.037L366.127 139.136" stroke="#1F77B4" stroke-width="1.5" stroke-linecap="square"/>
<path d="M55.0625 155.145V20.9224" stroke="black" stroke-width="0.8" stroke-linecap="square"/>
<path d="M675.062 155.145V20.9224" stroke="black" stroke-width="0.8" stroke-linecap="square"/>
<path d="M55.0625 155.145H675.063" stroke="black" stroke-width="0.8" stroke-linecap="square"/>
<path d="M55.0625 20.9224H675.063" stroke="black" stroke-width="0.8" stroke-linecap="square"/>
<path opacity="0.8" d="M442.938 80.8657H666.418C668.064 80.8657 668.887 80.0426 668.887 78.3965V29.5644C668.887 27.9183 668.064 27.0952 666.418 27.0952H442.938C441.292 27.0952 440.469 27.9183 440.469 29.5644V78.3965C440.469 80.0426 441.292 80.8657 442.938 80.8657Z" fill="white" stroke="#CCCCCC"/>
<path d="M457.755 42.5383C458.913 42.5383 460.023 42.0784 460.842 41.2599C461.66 40.4413 462.12 39.331 462.12 38.1735C462.12 37.0159 461.66 35.9056 460.842 35.087C460.023 34.2685 458.913 33.8086 457.755 33.8086C456.598 33.8086 455.488 34.2685 454.669 35.087C453.851 35.9056 453.391 37.0159 453.391 38.1735C453.391 39.331 453.851 40.4413 454.669 41.2599C455.488 42.0784 456.598 42.5383 457.755 42.5383Z" fill="#FFC100" stroke="#FFC100"/>
<path d="M484.837 33.2391C483.952 33.2391 483.249 33.569 482.728 34.2287C482.209 34.8872 481.949 35.7854 481.949 36.9236C481.949 38.0565 482.209 38.9529 482.728 39.6126C483.249 40.271 483.952 40.6003 484.837 40.6003C485.72 40.6003 486.42 40.271 486.937 39.6126C487.454 38.9529 487.713 38.0565 487.713 36.9236C487.713 35.7854 487.454 34.8872 486.937 34.2287C486.42 33.569 485.72 33.2391 484.837 33.2391ZM484.837 32.2515C486.098 32.2515 487.106 32.6746 487.861 33.5208C488.617 34.367 488.995 35.5012 488.995 36.9236C488.995 38.342 488.617 39.4744 487.861 40.3206C487.106 41.1667 486.098 41.5898 484.837 41.5898C483.571 41.5898 482.559 41.168 481.8 40.3244C481.043 39.4795 480.664 38.3459 480.664 36.9236C480.664 35.5012 481.043 34.367 481.8 33.5208C482.559 32.6746 483.571 32.2515 484.837 32.2515Z" fill="black"/>
<path d="M495.703 38.0443C495.703 37.229 495.535 36.5892 495.199 36.125C494.863 35.6607 494.402 35.4286 493.816 35.4286C493.228 35.4286 492.767 35.6607 492.431 36.125C492.095 36.5892 491.927 37.229 491.927 38.0443C491.927 38.8596 492.095 39.4994 492.431 39.9637C492.767 40.4279 493.228 40.6601 493.816 40.6601C494.402 40.6601 494.863 40.4279 495.199 39.9637C495.535 39.4994 495.703 38.8596 495.703 38.0443ZM491.927 35.6871C492.162 35.2858 492.456 34.9881 492.811 34.7939C493.167 34.5985 493.592 34.5007 494.086 34.5007C494.907 34.5007 495.573 34.8261 496.084 35.4768C496.598 36.1275 496.854 36.9834 496.854 38.0443C496.854 39.1053 496.598 39.9618 496.084 40.6138C495.573 41.2645 494.907 41.5898 494.086 41.5898C493.592 41.5898 493.167 41.4921 492.811 41.2966C492.456 41.1012 492.162 40.8028 491.927 40.4016V41.4143H490.812V32.0335H491.927V35.6871Z" fill="black"/>
<path d="M502.993 34.8614V35.9108C502.68 35.7501 502.355 35.6298 502.017 35.5501C501.68 35.4691 501.33 35.4286 500.967 35.4286C500.417 35.4286 500.004 35.5128 499.729 35.6813C499.454 35.8497 499.316 36.1031 499.316 36.4413C499.316 36.6985 499.414 36.9004 499.611 37.047C499.808 37.1936 500.204 37.3332 500.799 37.4656L501.179 37.5505C501.967 37.719 502.526 37.9569 502.858 38.2642C503.19 38.5716 503.355 39.0005 503.355 39.5509C503.355 40.1784 503.107 40.6755 502.611 41.042C502.114 41.4072 501.432 41.5898 500.564 41.5898C500.203 41.5898 499.826 41.5545 499.434 41.4837C499.042 41.413 498.629 41.3076 498.195 41.1674V40.0216C498.606 40.235 499.009 40.3951 499.407 40.5019C499.804 40.6073 500.198 40.6601 500.589 40.6601C501.111 40.6601 501.513 40.5707 501.793 40.3919C502.075 40.2132 502.215 39.9611 502.215 39.6358C502.215 39.3348 502.114 39.104 501.911 38.9432C501.709 38.7825 501.264 38.6275 500.576 38.4783L500.19 38.3877C499.503 38.2437 499.007 38.0218 498.701 37.7222C498.396 37.4225 498.244 37.0117 498.244 36.4895C498.244 35.8542 498.469 35.3643 498.919 35.0196C499.369 34.6737 500.008 34.5007 500.836 34.5007C501.245 34.5007 501.63 34.5309 501.992 34.5914C502.354 34.6505 502.688 34.7406 502.993 34.8614Z" fill="black"/>
<path d="M510.898 37.7608V38.3028H505.798C505.847 39.0667 506.077 39.6486 506.489 40.0486C506.9 40.4485 507.474 40.6485 508.209 40.6485C508.635 40.6485 509.048 40.5964 509.448 40.4922C509.848 40.3881 510.245 40.2312 510.64 40.0216V41.0709C510.241 41.2394 509.833 41.368 509.415 41.4567C508.997 41.5455 508.573 41.5898 508.144 41.5898C507.066 41.5898 506.213 41.2767 505.584 40.6504C504.955 40.0228 504.641 39.1741 504.641 38.1041C504.641 36.9994 504.939 36.123 505.536 35.4749C506.132 34.8254 506.937 34.5007 507.951 34.5007C508.859 34.5007 509.577 34.7933 510.106 35.3784C510.634 35.9623 510.898 36.7564 510.898 37.7608ZM509.789 37.4348C509.781 36.829 509.612 36.3455 509.28 35.9841C508.948 35.6215 508.509 35.4402 507.962 35.4402C507.344 35.4402 506.849 35.615 506.477 35.9648C506.105 36.3146 505.891 36.8072 505.835 37.4425L509.789 37.4348Z" fill="black"/>
<path d="M516.626 35.6986C516.502 35.6266 516.366 35.5739 516.219 35.5405C516.073 35.5057 515.911 35.4884 515.735 35.4884C515.108 35.4884 514.626 35.6922 514.29 36.0999C513.955 36.5075 513.787 37.0933 513.787 37.8572V41.4143H512.672V34.6628H513.787V35.7121C514.021 35.3019 514.324 34.9978 514.697 34.7997C515.072 34.6004 515.526 34.5007 516.061 34.5007C516.137 34.5007 516.221 34.5059 516.314 34.5162C516.406 34.5252 516.509 34.54 516.621 34.5605L516.626 35.6986Z" fill="black"/>
<path d="M517 34.6628H518.175L520.285 40.3283L522.395 34.6628H523.57L521.037 41.4143H519.531L517 34.6628Z" fill="black"/>
<path d="M528.163 38.0212C527.267 38.0212 526.646 38.1234 526.3 38.3279C525.954 38.5324 525.781 38.8822 525.781 39.3773C525.781 39.7708 525.911 40.0833 526.171 40.3148C526.43 40.545 526.783 40.6601 527.228 40.6601C527.844 40.6601 528.338 40.4421 528.709 40.0061C529.081 39.5702 529.267 38.9908 529.267 38.2681V38.0212H528.163ZM530.376 37.5621V41.4143H529.267V40.39C529.013 40.7989 528.698 41.1012 528.32 41.2966C527.942 41.4921 527.479 41.5898 526.933 41.5898C526.242 41.5898 525.692 41.3957 525.283 41.0073C524.876 40.6189 524.672 40.0994 524.672 39.4486C524.672 38.6899 524.926 38.1176 525.434 37.7318C525.943 37.346 526.702 37.1531 527.71 37.1531H529.267V37.0432C529.267 36.5326 529.099 36.1378 528.763 35.8587C528.428 35.5797 527.956 35.4402 527.349 35.4402C526.964 35.4402 526.587 35.4864 526.221 35.579C525.856 35.6716 525.505 35.8105 525.168 35.9957V34.9695C525.573 34.8126 525.966 34.6956 526.348 34.6184C526.73 34.5399 527.102 34.5007 527.463 34.5007C528.441 34.5007 529.17 34.7541 529.653 35.2608C530.135 35.7662 530.376 36.5333 530.376 37.5621Z" fill="black"/>
<path d="M533.765 32.7453V34.6628H536.049V35.525H533.765V39.1902C533.765 39.7406 533.84 40.0942 533.991 40.2511C534.141 40.408 534.448 40.4865 534.911 40.4865H536.049V41.4143H534.911C534.054 41.4143 533.463 41.2548 533.138 40.9359C532.813 40.6157 532.65 40.0338 532.65 39.1902V35.525H531.836V34.6628H532.65V32.7453H533.765Z" fill="black"/>
<path d="M537.508 34.6628H538.617V41.4143H537.508V34.6628ZM537.508 32.0335H538.617V33.4398H537.508V32.0335Z" fill="black"/>
<path d="M543.551 35.4402C542.957 35.4402 542.487 35.6723 542.141 36.1365C541.795 36.6008 541.622 37.2367 541.622 38.0443C541.622 38.8519 541.794 39.4879 542.137 39.9521C542.482 40.4164 542.953 40.6485 543.551 40.6485C544.143 40.6485 544.611 40.4157 544.955 39.9502C545.301 39.4834 545.474 38.8481 545.474 38.0443C545.474 37.2444 545.301 36.6104 544.955 36.1423C544.611 35.6742 544.143 35.4402 543.551 35.4402ZM543.551 34.5007C544.516 34.5007 545.273 34.8145 545.823 35.4421C546.375 36.0684 546.651 36.9358 546.651 38.0443C546.651 39.149 546.375 40.0164 545.823 40.6466C545.273 41.2754 544.516 41.5898 543.551 41.5898C542.583 41.5898 541.824 41.2754 541.275 40.6466C540.727 40.0164 540.453 39.149 540.453 38.0443C540.453 36.9358 540.727 36.0684 541.275 35.4421C541.824 34.8145 542.583 34.5007 543.551 34.5007Z" fill="black"/>
<path d="M554.101 37.3383V41.4143H552.992V37.375C552.992 36.7358 552.867 36.2581 552.618 35.9417C552.368 35.6241 551.995 35.4652 551.497 35.4652C550.898 35.4652 550.425 35.6562 550.079 36.0381C549.733 36.4188 549.56 36.939 549.56 37.5987V41.4143H548.445V34.6628H549.56V35.7121C549.826 35.3058 550.139 35.0023 550.498 34.8017C550.858 34.601 551.273 34.5007 551.744 34.5007C552.519 34.5007 553.106 34.7406 553.503 35.2202C553.902 35.6999 554.101 36.4059 554.101 37.3383Z" fill="black"/>
<path d="M457.754 53.7991L455.354 61.1868H447.586L453.87 65.7527L451.47 73.1405L457.754 68.5746L464.039 73.1405L461.638 65.7527L467.923 61.1868H460.155L457.754 53.7991Z" fill="#C81D6B" stroke="#C81D6B"/>
<path d="M484.837 51.36C483.952 51.36 483.249 51.6899 482.728 52.3496C482.209 53.008 481.949 53.9063 481.949 55.0444C481.949 56.1774 482.209 57.0737 482.728 57.7335C483.249 58.3919 483.952 58.7211 484.837 58.7211C485.72 58.7211 486.42 58.3919 486.937 57.7335C487.454 57.0737 487.713 56.1774 487.713 55.0444C487.713 53.9063 487.454 53.008 486.937 52.3496C486.42 51.6899 485.72 51.36 484.837 51.36ZM484.837 50.3723C486.098 50.3723 487.106 50.7954 487.861 51.6416C488.617 52.4878 488.995 53.6221 488.995 55.0444C488.995 56.4629 488.617 57.5952 487.861 58.4414C487.106 59.2876 486.098 59.7107 484.837 59.7107C483.571 59.7107 482.559 59.2889 481.8 58.4453C481.043 57.6004 480.664 56.4667 480.664 55.0444C480.664 53.6221 481.043 52.4878 481.8 51.6416C482.559 50.7954 483.571 50.3723 484.837 50.3723Z" fill="black"/>
<path d="M495.703 56.1652C495.703 55.3498 495.535 54.7101 495.199 54.2458C494.863 53.7816 494.402 53.5494 493.816 53.5494C493.228 53.5494 492.767 53.7816 492.431 54.2458C492.095 54.7101 491.927 55.3498 491.927 56.1652C491.927 56.9805 492.095 57.6203 492.431 58.0845C492.767 58.5488 493.228 58.7809 493.816 58.7809C494.402 58.7809 494.863 58.5488 495.199 58.0845C495.535 57.6203 495.703 56.9805 495.703 56.1652ZM491.927 53.8079C492.162 53.4067 492.456 53.109 492.811 52.9148C493.167 52.7193 493.592 52.6216 494.086 52.6216C494.907 52.6216 495.573 52.9469 496.084 53.5977C496.598 54.2484 496.854 55.1042 496.854 56.1652C496.854 57.2261 496.598 58.0826 496.084 58.7346C495.573 59.3853 494.907 59.7107 494.086 59.7107C493.592 59.7107 493.167 59.613 492.811 59.4175C492.456 59.222 492.162 58.9237 491.927 58.5224V59.5352H490.812V50.1544H491.927V53.8079Z" fill="black"/>
<path d="M502.993 52.9823V54.0317C502.68 53.8709 502.355 53.7507 502.017 53.671C501.68 53.5899 501.33 53.5494 500.967 53.5494C500.417 53.5494 500.004 53.6337 499.729 53.8021C499.454 53.9706 499.316 54.2239 499.316 54.5622C499.316 54.8194 499.414 55.0213 499.611 55.1679C499.808 55.3145 500.204 55.454 500.799 55.5865L501.179 55.6713C501.967 55.8398 502.526 56.0777 502.858 56.3851C503.19 56.6924 503.355 57.1213 503.355 57.6717C503.355 58.2993 503.107 58.7963 502.611 59.1629C502.114 59.5281 501.432 59.7107 500.564 59.7107C500.203 59.7107 499.826 59.6753 499.434 59.6046C499.042 59.5339 498.629 59.4284 498.195 59.2882V58.1424C498.606 58.3559 499.009 58.516 499.407 58.6227C499.804 58.7282 500.198 58.7809 500.589 58.7809C501.111 58.7809 501.513 58.6915 501.793 58.5128C502.075 58.334 502.215 58.082 502.215 57.7566C502.215 57.4557 502.114 57.2248 501.911 57.0641C501.709 56.9033 501.264 56.7484 500.576 56.5992L500.19 56.5085C499.503 56.3645 499.007 56.1427 498.701 55.843C498.396 55.5434 498.244 55.1325 498.244 54.6104C498.244 53.9751 498.469 53.4851 498.919 53.1405C499.369 52.7945 500.008 52.6216 500.836 52.6216C501.245 52.6216 501.63 52.6518 501.992 52.7122C502.354 52.7714 502.688 52.8614 502.993 52.9823Z" fill="black"/>
<path d="M510.898 55.8816V56.4237H505.798C505.847 57.1875 506.077 57.7695 506.489 58.1694C506.9 58.5694 507.474 58.7693 508.209 58.7693C508.635 58.7693 509.048 58.7173 509.448 58.6131C509.848 58.5089 510.245 58.352 510.64 58.1424V59.1918C510.241 59.3603 509.833 59.4889 509.415 59.5776C508.997 59.6663 508.573 59.7107 508.144 59.7107C507.066 59.7107 506.213 59.3976 505.584 58.7713C504.955 58.1437 504.641 57.2949 504.641 56.225C504.641 55.1203 504.939 54.2439 505.536 53.5957C506.132 52.9463 506.937 52.6216 507.951 52.6216C508.859 52.6216 509.577 52.9141 510.106 53.4993C510.634 54.0831 510.898 54.8772 510.898 55.8816ZM509.789 55.5556C509.781 54.9499 509.612 54.4664 509.28 54.105C508.948 53.7423 508.509 53.561 507.962 53.561C507.344 53.561 506.849 53.7359 506.477 54.0857C506.105 54.4355 505.891 54.928 505.835 55.5633L509.789 55.5556Z" fill="black"/>
<path d="M516.626 53.8195C516.502 53.7475 516.366 53.6948 516.219 53.6613C516.073 53.6266 515.911 53.6092 515.735 53.6092C515.108 53.6092 514.626 53.8131 514.29 54.2207C513.955 54.6284 513.787 55.2142 513.787 55.9781V59.5352H512.672V52.7836H513.787V53.833C514.021 53.4228 514.324 53.1186 514.697 52.9206C515.072 52.7212 515.526 52.6216 516.061 52.6216C516.137 52.6216 516.221 52.6267 516.314 52.637C516.406 52.646 516.509 52.6608 516.621 52.6814L516.626 53.8195Z" fill="black"/>
<path d="M517 52.7836H518.175L520.285 58.4491L522.395 52.7836H523.57L521.037 59.5352H519.531L517 52.7836Z" fill="black"/>
<path d="M528.163 56.142C527.267 56.142 526.646 56.2443 526.3 56.4487C525.954 56.6532 525.781 57.003 525.781 57.4981C525.781 57.8916 525.911 58.2041 526.171 58.4356C526.43 58.6658 526.783 58.7809 527.228 58.7809C527.844 58.7809 528.338 58.5629 528.709 58.127C529.081 57.691 529.267 57.1117 529.267 56.3889V56.142H528.163ZM530.376 55.6829V59.5352H529.267V58.5108C529.013 58.9198 528.698 59.222 528.32 59.4175C527.942 59.613 527.479 59.7107 526.933 59.7107C526.242 59.7107 525.692 59.5165 525.283 59.1281C524.876 58.7398 524.672 58.2202 524.672 57.5695C524.672 56.8107 524.926 56.2385 525.434 55.8527C525.943 55.4669 526.702 55.274 527.71 55.274H529.267V55.164C529.267 54.6535 529.099 54.2587 528.763 53.9796C528.428 53.7005 527.956 53.561 527.349 53.561C526.964 53.561 526.587 53.6073 526.221 53.6999C525.856 53.7925 525.505 53.9314 525.168 54.1166V53.0903C525.573 52.9334 525.966 52.8164 526.348 52.7392C526.73 52.6608 527.102 52.6216 527.463 52.6216C528.441 52.6216 529.17 52.8749 529.653 53.3816C530.135 53.887 530.376 54.6541 530.376 55.6829Z" fill="black"/>
<path d="M533.765 50.8662V52.7836H536.049V53.6459H533.765V57.311C533.765 57.8614 533.84 58.2151 533.991 58.372C534.141 58.5289 534.448 58.6073 534.911 58.6073H536.049V59.5352H534.911C534.054 59.5352 533.463 59.3757 533.138 59.0568C532.813 58.7365 532.65 58.1546 532.65 57.311V53.6459H531.836V52.7836H532.65V50.8662H533.765Z" fill="black"/>
<path d="M537.508 52.7836H538.617V59.5352H537.508V52.7836ZM537.508 50.1544H538.617V51.5606H537.508V50.1544Z" fill="black"/>
<path d="M543.551 53.561C542.957 53.561 542.487 53.7931 542.141 54.2574C541.795 54.7216 541.622 55.3576 541.622 56.1652C541.622 56.9728 541.794 57.6087 542.137 58.073C542.482 58.5372 542.953 58.7693 543.551 58.7693C544.143 58.7693 544.611 58.5366 544.955 58.071C545.301 57.6042 545.474 56.9689 545.474 56.1652C545.474 55.3653 545.301 54.7313 544.955 54.2632C544.611 53.7951 544.143 53.561 543.551 53.561ZM543.551 52.6216C544.516 52.6216 545.273 52.9354 545.823 53.5629C546.375 54.1892 546.651 55.0566 546.651 56.1652C546.651 57.2698 546.375 58.1373 545.823 58.7674C545.273 59.3963 544.516 59.7107 543.551 59.7107C542.583 59.7107 541.824 59.3963 541.275 58.7674C540.727 58.1373 540.453 57.2698 540.453 56.1652C540.453 55.0566 540.727 54.1892 541.275 53.5629C541.824 52.9354 542.583 52.6216 543.551 52.6216Z" fill="black"/>
<path d="M554.101 55.4592V59.5352H552.992V55.4958C552.992 54.8567 552.867 54.3789 552.618 54.0625C552.368 53.7449 551.995 53.5861 551.497 53.5861C550.898 53.5861 550.425 53.7771 550.079 54.159C549.733 54.5397 549.56 55.0598 549.56 55.7196V59.5352H548.445V52.7836H549.56V53.833C549.826 53.4266 550.139 53.1231 550.498 52.9225C550.858 52.7219 551.273 52.6216 551.744 52.6216C552.519 52.6216 553.106 52.8614 553.503 53.3411C553.902 53.8208 554.101 54.5268 554.101 55.4592Z" fill="black"/>
<path d="M561.335 50.8662V52.7836H563.619V53.6459H561.335V57.311C561.335 57.8614 561.41 58.2151 561.561 58.372C561.711 58.5289 562.018 58.6073 562.481 58.6073H563.619V59.5352H562.481C561.625 59.5352 561.034 59.3757 560.708 59.0568C560.383 58.7365 560.22 58.1546 560.22 57.311V53.6459H559.406V52.7836H560.22V50.8662H561.335Z" fill="black"/>
<path d="M570.687 55.4592V59.5352H569.578V55.4958C569.578 54.8567 569.453 54.3789 569.204 54.0625C568.954 53.7449 568.581 53.5861 568.083 53.5861C567.484 53.5861 567.011 53.7771 566.665 54.159C566.319 54.5397 566.146 55.0598 566.146 55.7196V59.5352H565.031V50.1544H566.146V53.833C566.412 53.4266 566.725 53.1231 567.084 52.9225C567.444 52.7219 567.859 52.6216 568.33 52.6216C569.105 52.6216 569.692 52.8614 570.089 53.3411C570.488 53.8208 570.687 54.5268 570.687 55.4592Z" fill="black"/>
<path d="M575.968 56.142C575.072 56.142 574.451 56.2443 574.105 56.4487C573.759 56.6532 573.586 57.003 573.586 57.4981C573.586 57.8916 573.716 58.2041 573.975 58.4356C574.235 58.6658 574.588 58.7809 575.033 58.7809C575.649 58.7809 576.142 58.5629 576.514 58.127C576.886 57.691 577.071 57.1117 577.071 56.3889V56.142H575.968ZM578.181 55.6829V59.5352H577.071V58.5108C576.818 58.9198 576.502 59.222 576.124 59.4175C575.746 59.613 575.284 59.7107 574.737 59.7107C574.047 59.7107 573.497 59.5165 573.088 59.1281C572.68 58.7398 572.477 58.2202 572.477 57.5695C572.477 56.8107 572.731 56.2385 573.239 55.8527C573.748 55.4669 574.507 55.274 575.515 55.274H577.071V55.164C577.071 54.6535 576.904 54.2587 576.568 53.9796C576.232 53.7005 575.761 53.561 575.154 53.561C574.768 53.561 574.392 53.6073 574.026 53.6999C573.66 53.7925 573.309 53.9314 572.972 54.1166V53.0903C573.377 52.9334 573.771 52.8164 574.153 52.7392C574.535 52.6608 574.906 52.6216 575.268 52.6216C576.245 52.6216 576.975 52.8749 577.457 53.3816C577.94 53.887 578.181 54.6541 578.181 55.6829Z" fill="black"/>
<path d="M581.562 50.8662V52.7836H583.846V53.6459H581.562V57.311C581.562 57.8614 581.637 58.2151 581.788 58.372C581.938 58.5289 582.245 58.6073 582.708 58.6073H583.846V59.5352H582.708C581.851 59.5352 581.26 59.3757 580.935 59.0568C580.61 58.7365 580.447 58.1546 580.447 57.311V53.6459H579.633V52.7836H580.447V50.8662H581.562Z" fill="black"/>
<path d="M593.675 56.0804C593.675 55.2767 593.509 54.6542 593.177 54.2131C592.847 53.7707 592.382 53.5495 591.782 53.5495C591.188 53.5495 590.725 53.7707 590.394 54.2131C590.062 54.6542 589.896 55.2767 589.896 56.0804C589.896 56.8803 590.062 57.5014 590.394 57.9438C590.725 58.3862 591.188 58.6074 591.782 58.6074C592.382 58.6074 592.847 58.3862 593.177 57.9438C593.509 57.5014 593.675 56.8803 593.675 56.0804ZM594.784 58.6981C594.784 59.8465 594.529 60.701 594.018 61.2617C593.509 61.8224 592.728 62.1028 591.674 62.1028C591.285 62.1028 590.917 62.0738 590.571 62.016C590.225 61.9581 589.889 61.8687 589.564 61.7478V60.6695C589.889 60.8457 590.211 60.9756 590.529 61.0592C590.846 61.1441 591.17 61.1865 591.499 61.1865C592.227 61.1865 592.771 60.9968 593.133 60.6174C593.494 60.2381 593.675 59.6645 593.675 58.8968V58.347C593.446 58.7457 593.153 59.0434 592.795 59.2401C592.438 59.4369 592.009 59.5353 591.51 59.5353C590.684 59.5353 590.017 59.2202 589.51 58.5901C589.003 57.9586 588.75 57.1221 588.75 56.0804C588.75 55.0362 589.003 54.199 589.51 53.5688C590.017 52.9374 590.684 52.6217 591.51 52.6217C592.009 52.6217 592.438 52.7201 592.795 52.9168C593.153 53.1136 593.446 53.4107 593.675 53.808V52.7837H594.784V58.6981Z" fill="black"/>
<path d="M597.07 52.7836H598.179V59.5352H597.07V52.7836ZM597.07 50.1544H598.179V51.5606H597.07V50.1544Z" fill="black"/>
<path d="M599.703 52.7836H600.878L602.988 58.4491L605.099 52.7836H606.273L603.741 59.5352H602.234L599.703 52.7836Z" fill="black"/>
<path d="M613.578 55.8816V56.4237H608.478C608.527 57.1875 608.757 57.7695 609.168 58.1694C609.58 58.5694 610.153 58.7693 610.889 58.7693C611.315 58.7693 611.727 58.7173 612.127 58.6131C612.527 58.5089 612.925 58.352 613.32 58.1424V59.1918C612.921 59.3603 612.513 59.4889 612.095 59.5776C611.677 59.6663 611.253 59.7107 610.823 59.7107C609.746 59.7107 608.892 59.3976 608.264 58.7713C607.635 58.1437 607.32 57.2949 607.32 56.225C607.32 55.1203 607.619 54.2439 608.215 53.5957C608.812 52.9463 609.617 52.6216 610.63 52.6216C611.538 52.6216 612.257 52.9141 612.785 53.4993C613.314 54.0831 613.578 54.8772 613.578 55.8816ZM612.469 55.5556C612.461 54.9499 612.291 54.4664 611.96 54.105C611.628 53.7423 611.189 53.561 610.642 53.561C610.024 53.561 609.528 53.7359 609.157 54.0857C608.785 54.4355 608.571 54.928 608.514 55.5633L612.469 55.5556Z" fill="black"/>
<path d="M624.937 55.4592V59.5352H623.828V55.4958C623.828 54.8567 623.703 54.3789 623.454 54.0625C623.204 53.7449 622.831 53.5861 622.333 53.5861C621.734 53.5861 621.261 53.7771 620.915 54.159C620.569 54.5397 620.396 55.0598 620.396 55.7196V59.5352H619.281V50.1544H620.396V53.833C620.662 53.4266 620.975 53.1231 621.334 52.9225C621.694 52.7219 622.109 52.6216 622.58 52.6216C623.355 52.6216 623.942 52.8614 624.339 53.3411C624.738 53.8208 624.937 54.5268 624.937 55.4592Z" fill="black"/>
<path d="M627.148 52.7836H628.258V59.5352H627.148V52.7836ZM627.148 50.1544H628.258V51.5606H627.148V50.1544Z" fill="black"/>
<path d="M635.019 56.0804C635.019 55.2767 634.853 54.6542 634.521 54.2131C634.19 53.7707 633.725 53.5495 633.126 53.5495C632.532 53.5495 632.069 53.7707 631.737 54.2131C631.405 54.6542 631.24 55.2767 631.24 56.0804C631.24 56.8803 631.405 57.5014 631.737 57.9438C632.069 58.3862 632.532 58.6074 633.126 58.6074C633.725 58.6074 634.19 58.3862 634.521 57.9438C634.853 57.5014 635.019 56.8803 635.019 56.0804ZM636.128 58.6981C636.128 59.8465 635.872 60.701 635.362 61.2617C634.853 61.8224 634.071 62.1028 633.018 62.1028C632.628 62.1028 632.261 62.0738 631.915 62.016C631.569 61.9581 631.233 61.8687 630.908 61.7478V60.6695C631.233 60.8457 631.555 60.9756 631.872 61.0592C632.19 61.1441 632.513 61.1865 632.843 61.1865C633.57 61.1865 634.115 60.9968 634.476 60.6174C634.838 60.2381 635.019 59.6645 635.019 58.8968V58.347C634.79 58.7457 634.496 59.0434 634.139 59.2401C633.781 59.4369 633.353 59.5353 632.854 59.5353C632.027 59.5353 631.36 59.2202 630.854 58.5901C630.347 57.9586 630.094 57.1221 630.094 56.0804C630.094 55.0362 630.347 54.199 630.854 53.5688C631.36 52.9374 632.027 52.6217 632.854 52.6217C633.353 52.6217 633.781 52.7201 634.139 52.9168C634.496 53.1136 634.79 53.4107 635.019 53.808V52.7837H636.128V58.6981Z" fill="black"/>
<path d="M644.031 55.4592V59.5352H642.922V55.4958C642.922 54.8567 642.797 54.3789 642.547 54.0625C642.298 53.7449 641.924 53.5861 641.427 53.5861C640.827 53.5861 640.355 53.7771 640.009 54.159C639.663 54.5397 639.49 55.0598 639.49 55.7196V59.5352H638.375V50.1544H639.49V53.833C639.756 53.4266 640.069 53.1231 640.427 52.9225C640.788 52.7219 641.203 52.6216 641.674 52.6216C642.449 52.6216 643.035 52.8614 643.433 53.3411C643.832 53.8208 644.031 54.5268 644.031 55.4592Z" fill="black"/>
<path d="M652.016 55.8816V56.4237H646.915C646.964 57.1875 647.194 57.7695 647.606 58.1694C648.017 58.5694 648.591 58.7693 649.326 58.7693C649.752 58.7693 650.165 58.7173 650.565 58.6131C650.965 58.5089 651.362 58.352 651.757 58.1424V59.1918C651.358 59.3603 650.95 59.4889 650.532 59.5776C650.114 59.6663 649.69 59.7107 649.261 59.7107C648.183 59.7107 647.33 59.3976 646.701 58.7713C646.072 58.1437 645.758 57.2949 645.758 56.225C645.758 55.1203 646.056 54.2439 646.653 53.5957C647.25 52.9463 648.055 52.6216 649.068 52.6216C649.976 52.6216 650.694 52.9141 651.223 53.4993C651.751 54.0831 652.016 54.8772 652.016 55.8816ZM650.906 55.5556C650.899 54.9499 650.729 54.4664 650.397 54.105C650.065 53.7423 649.626 53.561 649.08 53.561C648.461 53.561 647.966 53.7359 647.594 54.0857C647.223 54.4355 647.008 54.928 646.952 55.5633L650.906 55.5556Z" fill="black"/>
<path d="M658.141 52.9823V54.0317C657.829 53.8709 657.503 53.7507 657.165 53.671C656.828 53.5899 656.478 53.5494 656.116 53.5494C655.565 53.5494 655.153 53.6337 654.877 53.8021C654.602 53.9706 654.465 54.2239 654.465 54.5622C654.465 54.8194 654.563 55.0213 654.76 55.1679C654.956 55.3145 655.352 55.454 655.948 55.5865L656.328 55.6713C657.115 55.8398 657.674 56.0777 658.006 56.3851C658.338 56.6924 658.504 57.1213 658.504 57.6717C658.504 58.2993 658.256 58.7963 657.759 59.1629C657.263 59.5281 656.581 59.7107 655.713 59.7107C655.351 59.7107 654.974 59.6753 654.582 59.6046C654.19 59.5339 653.777 59.4284 653.344 59.2882V58.1424C653.754 58.3559 654.158 58.516 654.555 58.6227C654.953 58.7282 655.347 58.7809 655.738 58.7809C656.26 58.7809 656.661 58.6915 656.941 58.5128C657.223 58.334 657.364 58.082 657.364 57.7566C657.364 57.4557 657.262 57.2248 657.059 57.0641C656.857 56.9033 656.412 56.7484 655.724 56.5992L655.338 56.5085C654.652 56.3645 654.155 56.1427 653.849 55.843C653.544 55.5434 653.392 55.1325 653.392 54.6104C653.392 53.9751 653.617 53.4851 654.067 53.1405C654.517 52.7945 655.156 52.6216 655.985 52.6216C656.394 52.6216 656.779 52.6518 657.14 52.7122C657.503 52.7714 657.836 52.8614 658.141 52.9823Z" fill="black"/>
<path d="M661.367 50.8662V52.7836H663.65V53.6459H661.367V57.311C661.367 57.8614 661.442 58.2151 661.592 58.372C661.743 58.5289 662.049 58.6073 662.512 58.6073H663.65V59.5352H662.512C661.656 59.5352 661.065 59.3757 660.74 59.0568C660.414 58.7365 660.252 58.1546 660.252 57.311V53.6459H659.438V52.7836H660.252V50.8662H661.367Z" fill="black"/>
<path d="M486.914 69.7061V70.2481H481.814C481.863 71.012 482.093 71.5939 482.504 71.9939C482.916 72.3938 483.489 72.5938 484.225 72.5938C484.651 72.5938 485.063 72.5417 485.463 72.4375C485.863 72.3334 486.261 72.1765 486.655 71.9669V73.0163C486.257 73.1847 485.849 73.3133 485.431 73.4021C485.013 73.4908 484.589 73.5352 484.159 73.5352C483.082 73.5352 482.228 73.222 481.6 72.5957C480.971 71.9682 480.656 71.1194 480.656 70.0494C480.656 68.9448 480.955 68.0683 481.551 67.4202C482.148 66.7708 482.953 66.446 483.966 66.446C484.874 66.446 485.593 66.7386 486.121 67.3237C486.65 67.9076 486.914 68.7017 486.914 69.7061ZM485.805 69.3801C485.797 68.7744 485.627 68.2908 485.296 67.9294C484.964 67.5668 484.525 67.3855 483.978 67.3855C483.359 67.3855 482.864 67.5604 482.493 67.9102C482.121 68.26 481.907 68.7525 481.85 69.3878L485.805 69.3801Z" fill="black"/>
<path d="M494.133 66.6081L491.69 69.8932L494.258 73.3596H492.95L490.984 70.7072L489.021 73.3596H487.711L490.334 69.8276L487.935 66.6081H489.243L491.033 69.0136L492.823 66.6081H494.133Z" fill="black"/>
<path d="M496.896 72.347V75.9272H495.781V66.6082H496.896V67.6325C497.13 67.2313 497.425 66.9335 497.78 66.7394C498.136 66.5439 498.561 66.4462 499.055 66.4462C499.875 66.4462 500.541 66.7715 501.053 67.4222C501.566 68.073 501.823 68.9288 501.823 69.9897C501.823 71.0507 501.566 71.9072 501.053 72.5592C500.541 73.2099 499.875 73.5353 499.055 73.5353C498.561 73.5353 498.136 73.4375 497.78 73.2421C497.425 73.0466 497.13 72.7482 496.896 72.347ZM500.671 69.9897C500.671 69.1744 500.503 68.5346 500.168 68.0704C499.832 67.6061 499.371 67.374 498.785 67.374C498.197 67.374 497.735 67.6061 497.4 68.0704C497.064 68.5346 496.896 69.1744 496.896 69.9897C496.896 70.8051 497.064 71.4449 497.4 71.9091C497.735 72.3734 498.197 72.6055 498.785 72.6055C499.371 72.6055 499.832 72.3734 500.168 71.9091C500.503 71.4449 500.671 70.8051 500.671 69.9897Z" fill="black"/>
<path d="M509.437 69.7061V70.2481H504.337C504.386 71.012 504.616 71.5939 505.028 71.9939C505.439 72.3938 506.013 72.5938 506.748 72.5938C507.174 72.5938 507.587 72.5417 507.987 72.4375C508.387 72.3334 508.784 72.1765 509.179 71.9669V73.0163C508.78 73.1847 508.372 73.3133 507.954 73.4021C507.536 73.4908 507.112 73.5352 506.683 73.5352C505.605 73.5352 504.752 73.222 504.123 72.5957C503.494 71.9682 503.18 71.1194 503.18 70.0494C503.18 68.9448 503.478 68.0683 504.075 67.4202C504.671 66.7708 505.476 66.446 506.49 66.446C507.398 66.446 508.116 66.7386 508.645 67.3237C509.173 67.9076 509.437 68.7017 509.437 69.7061ZM508.328 69.3801C508.321 68.7744 508.151 68.2908 507.819 67.9294C507.487 67.5668 507.048 67.3855 506.501 67.3855C505.883 67.3855 505.388 67.5604 505.016 67.9102C504.644 68.26 504.43 68.7525 504.374 69.3878L508.328 69.3801Z" fill="black"/>
<path d="M516.115 66.8666V67.9044C515.801 67.7308 515.487 67.6009 515.172 67.5147C514.857 67.4285 514.538 67.3855 514.217 67.3855C513.497 67.3855 512.937 67.6137 512.538 68.0703C512.141 68.5255 511.942 69.1653 511.942 69.9896C511.942 70.814 512.141 71.4544 512.538 71.9109C512.937 72.3662 513.497 72.5938 514.217 72.5938C514.538 72.5938 514.857 72.5507 515.172 72.4646C515.487 72.3784 515.801 72.2485 516.115 72.0749V73.1011C515.805 73.2452 515.484 73.3532 515.152 73.4252C514.822 73.4985 514.469 73.5352 514.095 73.5352C513.078 73.5352 512.27 73.2156 511.67 72.5764C511.072 71.9373 510.773 71.075 510.773 69.9896C510.773 68.8888 511.076 68.0233 511.68 67.3932C512.286 66.7618 513.115 66.446 514.168 66.446C514.509 66.446 514.842 66.4814 515.168 66.5521C515.493 66.6216 515.809 66.7264 516.115 66.8666Z" fill="black"/>
<path d="M519.14 64.6906V66.6081H521.424V67.4703H519.14V71.1355C519.14 71.6859 519.215 72.0395 519.366 72.1964C519.516 72.3533 519.823 72.4318 520.286 72.4318H521.424V73.3596H520.286C519.429 73.3596 518.838 73.2002 518.513 72.8812C518.188 72.561 518.025 71.9791 518.025 71.1355V67.4703H517.211V66.6081H518.025V64.6906H519.14Z" fill="black"/>
<path d="M528.656 69.7061V70.2481H523.556C523.605 71.012 523.835 71.5939 524.246 71.9939C524.658 72.3938 525.232 72.5938 525.967 72.5938C526.393 72.5938 526.806 72.5417 527.206 72.4375C527.605 72.3334 528.003 72.1765 528.398 71.9669V73.0163C527.999 73.1847 527.591 73.3133 527.173 73.4021C526.755 73.4908 526.331 73.5352 525.902 73.5352C524.824 73.5352 523.971 73.222 523.342 72.5957C522.713 71.9682 522.398 71.1194 522.398 70.0494C522.398 68.9448 522.697 68.0683 523.293 67.4202C523.89 66.7708 524.695 66.446 525.709 66.446C526.617 66.446 527.335 66.7386 527.863 67.3237C528.392 67.9076 528.656 68.7017 528.656 69.7061ZM527.547 69.3801C527.539 68.7744 527.37 68.2908 527.038 67.9294C526.706 67.5668 526.267 67.3855 525.72 67.3855C525.102 67.3855 524.607 67.5604 524.235 67.9102C523.863 68.26 523.649 68.7525 523.592 69.3878L527.547 69.3801Z" fill="black"/>
<path d="M534.925 67.6324V63.9788H536.034V73.3596H534.925V72.3469C534.692 72.7481 534.398 73.0465 534.041 73.2419C533.686 73.4374 533.259 73.5352 532.76 73.5352C531.945 73.5352 531.281 73.2098 530.768 72.5591C530.256 71.9071 530 71.0506 530 69.9896C530 68.9287 530.256 68.0728 530.768 67.4221C531.281 66.7714 531.945 66.446 532.76 66.446C533.259 66.446 533.686 66.5438 534.041 66.7392C534.398 66.9334 534.692 67.2311 534.925 67.6324ZM531.146 69.9896C531.146 70.805 531.314 71.4447 531.649 71.909C531.985 72.3732 532.446 72.6054 533.032 72.6054C533.619 72.6054 534.081 72.3732 534.417 71.909C534.756 71.4447 534.925 70.805 534.925 69.9896C534.925 69.1743 534.756 68.5345 534.417 68.0703C534.081 67.606 533.619 67.3739 533.032 67.3739C532.446 67.3739 531.985 67.606 531.649 68.0703C531.314 68.5345 531.146 69.1743 531.146 69.9896Z" fill="black"/>
<path d="M542.242 66.6081H543.351V73.3596H542.242V66.6081ZM542.242 63.9788H543.351V65.3851H542.242V63.9788Z" fill="black"/>
<path d="M550.924 67.9044C551.202 67.4054 551.534 67.0376 551.919 66.801C552.305 66.5644 552.759 66.446 553.281 66.446C553.985 66.446 554.527 66.6923 554.909 67.1849C555.291 67.6761 555.482 68.3757 555.482 69.2836V73.3596H554.367V69.3203C554.367 68.6734 554.252 68.1937 554.022 67.8812C553.793 67.5674 553.444 67.4105 552.975 67.4105C552.4 67.4105 551.945 67.6015 551.611 67.9835C551.278 68.3641 551.111 68.8843 551.111 69.544V73.3596H549.996V69.3203C549.996 68.6695 549.882 68.1886 549.653 67.8774C549.424 67.5662 549.07 67.4105 548.592 67.4105C548.025 67.4105 547.574 67.6022 547.24 67.9854C546.907 68.3686 546.74 68.8882 546.74 69.544V73.3596H545.625V66.6081H546.74V67.6575C546.993 67.2434 547.297 66.9379 547.65 66.7412C548.004 66.5444 548.424 66.446 548.91 66.446C549.401 66.446 549.819 66.5708 550.162 66.8203C550.505 67.0685 550.759 67.4298 550.924 67.9044Z" fill="black"/>
<path d="M558.771 72.347V75.9272H557.656V66.6082H558.771V67.6325C559.005 67.2313 559.3 66.9335 559.655 66.7394C560.011 66.5439 560.436 66.4462 560.93 66.4462C561.75 66.4462 562.416 66.7715 562.928 67.4222C563.441 68.073 563.698 68.9288 563.698 69.9897C563.698 71.0507 563.441 71.9072 562.928 72.5592C562.416 73.2099 561.75 73.5353 560.93 73.5353C560.436 73.5353 560.011 73.4375 559.655 73.2421C559.3 73.0466 559.005 72.7482 558.771 72.347ZM562.546 69.9897C562.546 69.1744 562.378 68.5346 562.043 68.0704C561.707 67.6061 561.246 67.374 560.66 67.374C560.072 67.374 559.61 67.6061 559.275 68.0704C558.939 68.5346 558.771 69.1744 558.771 69.9897C558.771 70.8051 558.939 71.4449 559.275 71.9091C559.61 72.3734 560.072 72.6055 560.66 72.6055C561.246 72.6055 561.707 72.3734 562.043 71.9091C562.378 71.4449 562.546 70.8051 562.546 69.9897Z" fill="black"/>
<path d="M569.447 67.644C569.322 67.5719 569.186 67.5192 569.04 67.4858C568.893 67.4511 568.732 67.4337 568.555 67.4337C567.928 67.4337 567.446 67.6375 567.111 68.0452C566.775 68.4529 566.607 69.0386 566.607 69.8025V73.3596H565.492V66.6081H566.607V67.6575C566.841 67.2472 567.145 66.9431 567.518 66.745C567.892 66.5457 568.346 66.446 568.881 66.446C568.957 66.446 569.042 66.4512 569.134 66.4615C569.227 66.4705 569.329 66.4853 569.441 66.5058L569.447 67.644Z" fill="black"/>
<path d="M572.95 67.3855C572.355 67.3855 571.885 67.6176 571.539 68.0818C571.194 68.5461 571.021 69.182 571.021 69.9896C571.021 70.7972 571.192 71.4332 571.536 71.8974C571.88 72.3617 572.352 72.5938 572.95 72.5938C573.541 72.5938 574.009 72.361 574.354 71.8955C574.7 71.4287 574.873 70.7934 574.873 69.9896C574.873 69.1897 574.7 68.5557 574.354 68.0876C574.009 67.6195 573.541 67.3855 572.95 67.3855ZM572.95 66.446C573.914 66.446 574.672 66.7598 575.222 67.3874C575.774 68.0137 576.049 68.8811 576.049 69.9896C576.049 71.0943 575.774 71.9617 575.222 72.5919C574.672 73.2207 573.914 73.5352 572.95 73.5352C571.981 73.5352 571.222 73.2207 570.673 72.5919C570.125 71.9617 569.852 71.0943 569.852 69.9896C569.852 68.8811 570.125 68.0137 570.673 67.3874C571.222 66.7598 571.981 66.446 572.95 66.446Z" fill="black"/>
<path d="M577.094 66.6081H578.269L580.379 72.2736L582.489 66.6081H583.664L581.131 73.3596H579.625L577.094 66.6081Z" fill="black"/>
<path d="M590.969 69.7061V70.2481H585.868C585.917 71.012 586.147 71.5939 586.559 71.9939C586.97 72.3938 587.544 72.5938 588.28 72.5938C588.705 72.5938 589.118 72.5417 589.518 72.4375C589.918 72.3334 590.315 72.1765 590.71 71.9669V73.0163C590.312 73.1847 589.903 73.3133 589.485 73.4021C589.067 73.4908 588.644 73.5352 588.214 73.5352C587.136 73.5352 586.283 73.222 585.654 72.5957C585.025 71.9682 584.711 71.1194 584.711 70.0494C584.711 68.9448 585.009 68.0683 585.606 67.4202C586.203 66.7708 587.008 66.446 588.021 66.446C588.929 66.446 589.647 66.7386 590.176 67.3237C590.704 67.9076 590.969 68.7017 590.969 69.7061ZM589.859 69.3801C589.852 68.7744 589.682 68.2908 589.35 67.9294C589.018 67.5668 588.579 67.3855 588.033 67.3855C587.414 67.3855 586.919 67.5604 586.547 67.9102C586.176 68.26 585.962 68.7525 585.905 69.3878L589.859 69.3801Z" fill="black"/>
<path d="M598.041 67.9044C598.319 67.4054 598.651 67.0376 599.037 66.801C599.422 66.5644 599.876 66.446 600.398 66.446C601.102 66.446 601.645 66.6923 602.027 67.1849C602.408 67.6761 602.599 68.3757 602.599 69.2836V73.3596H601.484V69.3203C601.484 68.6734 601.369 68.1937 601.139 67.8812C600.91 67.5674 600.561 67.4105 600.092 67.4105C599.517 67.4105 599.062 67.6015 598.728 67.9835C598.395 68.3641 598.228 68.8843 598.228 69.544V73.3596H597.113V69.3203C597.113 68.6695 596.999 68.1886 596.77 67.8774C596.541 67.5662 596.187 67.4105 595.709 67.4105C595.142 67.4105 594.691 67.6022 594.357 67.9854C594.024 68.3686 593.857 68.8882 593.857 69.544V73.3596H592.742V66.6081H593.857V67.6575C594.111 67.2434 594.414 66.9379 594.768 66.7412C595.121 66.5444 595.541 66.446 596.027 66.446C596.519 66.446 596.936 66.5708 597.279 66.8203C597.623 67.0685 597.877 67.4298 598.041 67.9044Z" fill="black"/>
<path d="M610.586 69.7061V70.2481H605.486C605.534 71.012 605.765 71.5939 606.176 71.9939C606.588 72.3938 607.161 72.5938 607.897 72.5938C608.322 72.5938 608.735 72.5417 609.135 72.4375C609.535 72.3334 609.933 72.1765 610.327 71.9669V73.0163C609.929 73.1847 609.52 73.3133 609.102 73.4021C608.684 73.4908 608.261 73.5352 607.831 73.5352C606.754 73.5352 605.9 73.222 605.271 72.5957C604.643 71.9682 604.328 71.1194 604.328 70.0494C604.328 68.9448 604.626 68.0683 605.223 67.4202C605.82 66.7708 606.625 66.446 607.638 66.446C608.546 66.446 609.264 66.7386 609.793 67.3237C610.322 67.9076 610.586 68.7017 610.586 69.7061ZM609.477 69.3801C609.469 68.7744 609.299 68.2908 608.967 67.9294C608.636 67.5668 608.196 67.3855 607.65 67.3855C607.031 67.3855 606.536 67.5604 606.165 67.9102C605.793 68.26 605.579 68.7525 605.522 69.3878L609.477 69.3801Z" fill="black"/>
<path d="M618.023 69.2836V73.3596H616.914V69.3203C616.914 68.6811 616.789 68.2034 616.54 67.887C616.29 67.5694 615.917 67.4105 615.419 67.4105C614.82 67.4105 614.347 67.6015 614.001 67.9835C613.655 68.3641 613.482 68.8843 613.482 69.544V73.3596H612.367V66.6081H613.482V67.6575C613.748 67.2511 614.061 66.9476 614.42 66.747C614.78 66.5463 615.195 66.446 615.666 66.446C616.441 66.446 617.028 66.6859 617.425 67.1656C617.824 67.6452 618.023 68.3513 618.023 69.2836Z" fill="black"/>
<path d="M621.327 64.6906V66.6081H623.611V67.4703H621.327V71.1355C621.327 71.6859 621.403 72.0395 621.553 72.1964C621.704 72.3533 622.01 72.4318 622.473 72.4318H623.611V73.3596H622.473C621.617 73.3596 621.026 73.2002 620.701 72.8812C620.375 72.561 620.212 71.9791 620.212 71.1355V67.4703H619.398V66.6081H620.212V64.6906H621.327Z" fill="black"/>
<path d="M254.168 34.1582L251.768 41.546H244L250.284 46.1119L247.884 53.4996L254.168 48.9337L260.453 53.4996L258.052 46.1119L264.337 41.546H256.569L254.168 34.1582Z" fill="#C81D6B" stroke="#C81D6B"/>
</g>
<defs>
<clipPath id="clip0_2228_3060">
<rect width="800" height="177.778" fill="white"/>
</clipPath>
</defs>
</svg>
